﻿


EVENT   1
 PAGE   1
  0()



EVENT   2
 PAGE   1
  281(1)
  250(bytes(0x04,0x08,0x6f,0x3a,0x0c,0x52,0x50,0x47,0x3a,0x3a,0x53,0x45,0x08,0x3a,0x0a,0x40,0x6e,0x61,0x6d,0x65,0x49,0x22,0x09,0x4d,0x6f,0x76,0x65,0x06,0x3a,0x06,0x45,0x54,0x3a,0x0b,0x40,0x70,0x69,0x74,0x63,0x68,0x69,0x69,0x3a,0x0c,0x40,0x76,0x6f,0x6c,0x75,0x6d,0x65,0x69,0x55))
  TeleportPlayer(0,37,29,15,0,0)
  0()



EVENT   3
 PAGE   1
  281(1)
  250(bytes(0x04,0x08,0x6f,0x3a,0x0c,0x52,0x50,0x47,0x3a,0x3a,0x53,0x45,0x08,0x3a,0x0a,0x40,0x6e,0x61,0x6d,0x65,0x49,0x22,0x09,0x4d,0x6f,0x76,0x65,0x06,0x3a,0x06,0x45,0x54,0x3a,0x0b,0x40,0x70,0x69,0x74,0x63,0x68,0x69,0x69,0x3a,0x0c,0x40,0x76,0x6f,0x6c,0x75,0x6d,0x65,0x69,0x55))
  TeleportPlayer(0,37,27,29,0,0)
  0()



EVENT   4
 PAGE   1
  281(1)
  250(bytes(0x04,0x08,0x6f,0x3a,0x0c,0x52,0x50,0x47,0x3a,0x3a,0x53,0x45,0x08,0x3a,0x0a,0x40,0x6e,0x61,0x6d,0x65,0x49,0x22,0x09,0x4d,0x6f,0x76,0x65,0x06,0x3a,0x06,0x45,0x54,0x3a,0x0b,0x40,0x70,0x69,0x74,0x63,0x68,0x69,0x69,0x3a,0x0c,0x40,0x76,0x6f,0x6c,0x75,0x6d,0x65,0x69,0x55))
  TeleportPlayer(0,37,38,29,0,0)
  0()



EVENT   5
 PAGE   1
  0()



EVENT   6
 PAGE   1
  250(bytes(0x04,0x08,0x6f,0x3a,0x0c,0x52,0x50,0x47,0x3a,0x3a,0x53,0x45,0x08,0x3a,0x0a,0x40,0x6e,0x61,0x6d,0x65,0x49,0x22,0x09,0x4d,0x6f,0x76,0x65,0x06,0x3a,0x06,0x45,0x54,0x3a,0x0b,0x40,0x70,0x69,0x74,0x63,0x68,0x69,0x69,0x3a,0x0c,0x40,0x76,0x6f,0x6c,0x75,0x6d,0x65,0x69,0x55))
  TeleportPlayer(0,38,70,5,0,0)
  0()



EVENT   7
 PAGE   1
  250(bytes(0x04,0x08,0x6f,0x3a,0x0c,0x52,0x50,0x47,0x3a,0x3a,0x53,0x45,0x08,0x3a,0x0a,0x40,0x6e,0x61,0x6d,0x65,0x49,0x22,0x09,0x4d,0x6f,0x76,0x65,0x06,0x3a,0x06,0x45,0x54,0x3a,0x0b,0x40,0x70,0x69,0x74,0x63,0x68,0x69,0x69,0x3a,0x0c,0x40,0x76,0x6f,0x6c,0x75,0x6d,0x65,0x69,0x55))
  TeleportPlayer(0,38,71,5,0,0)
  0()



EVENT   8
 PAGE   1
  250(bytes(0x04,0x08,0x6f,0x3a,0x0c,0x52,0x50,0x47,0x3a,0x3a,0x53,0x45,0x08,0x3a,0x0a,0x40,0x6e,0x61,0x6d,0x65,0x49,0x22,0x09,0x4d,0x6f,0x76,0x65,0x06,0x3a,0x06,0x45,0x54,0x3a,0x0b,0x40,0x70,0x69,0x74,0x63,0x68,0x69,0x69,0x3a,0x0c,0x40,0x76,0x6f,0x6c,0x75,0x6d,0x65,0x69,0x55))
  TeleportPlayer(0,38,70,29,0,0)
  0()



EVENT   9
 PAGE   1
  250(bytes(0x04,0x08,0x6f,0x3a,0x0c,0x52,0x50,0x47,0x3a,0x3a,0x53,0x45,0x08,0x3a,0x0a,0x40,0x6e,0x61,0x6d,0x65,0x49,0x22,0x09,0x4d,0x6f,0x76,0x65,0x06,0x3a,0x06,0x45,0x54,0x3a,0x0b,0x40,0x70,0x69,0x74,0x63,0x68,0x69,0x69,0x3a,0x0c,0x40,0x76,0x6f,0x6c,0x75,0x6d,0x65,0x69,0x55))
  TeleportPlayer(0,38,71,29,0,0)
  0()



EVENT   10
 PAGE   1
  281(1)
  250(bytes(0x04,0x08,0x6f,0x3a,0x0c,0x52,0x50,0x47,0x3a,0x3a,0x53,0x45,0x08,0x3a,0x0a,0x40,0x6e,0x61,0x6d,0x65,0x49,0x22,0x09,0x4d,0x6f,0x76,0x65,0x06,0x3a,0x06,0x45,0x54,0x3a,0x0b,0x40,0x70,0x69,0x74,0x63,0x68,0x69,0x69,0x3a,0x0c,0x40,0x76,0x6f,0x6c,0x75,0x6d,0x65,0x69,0x55))
  TeleportPlayer(0,37,59,28,0,0)
  0()



EVENT   11
 PAGE   1
  281(1)
  250(bytes(0x04,0x08,0x6f,0x3a,0x0c,0x52,0x50,0x47,0x3a,0x3a,0x53,0x45,0x08,0x3a,0x0a,0x40,0x6e,0x61,0x6d,0x65,0x49,0x22,0x09,0x4d,0x6f,0x76,0x65,0x06,0x3a,0x06,0x45,0x54,0x3a,0x0b,0x40,0x70,0x69,0x74,0x63,0x68,0x69,0x69,0x3a,0x0c,0x40,0x76,0x6f,0x6c,0x75,0x6d,0x65,0x69,0x55))
  TeleportPlayer(0,37,32,42,0,0)
  0()



EVENT   12
 PAGE   1
  0()



EVENT   13
 PAGE   1
  281(1)
  250(bytes(0x04,0x08,0x6f,0x3a,0x0c,0x52,0x50,0x47,0x3a,0x3a,0x53,0x45,0x08,0x3a,0x0a,0x40,0x6e,0x61,0x6d,0x65,0x49,0x22,0x09,0x4d,0x6f,0x76,0x65,0x06,0x3a,0x06,0x45,0x54,0x3a,0x0b,0x40,0x70,0x69,0x74,0x63,0x68,0x69,0x69,0x3a,0x0c,0x40,0x76,0x6f,0x6c,0x75,0x6d,0x65,0x69,0x55))
  TeleportPlayer(0,37,62,39,0,0)
  0()



EVENT   14
 PAGE   1
  281(1)
  250(bytes(0x04,0x08,0x6f,0x3a,0x0c,0x52,0x50,0x47,0x3a,0x3a,0x53,0x45,0x08,0x3a,0x0a,0x40,0x6e,0x61,0x6d,0x65,0x49,0x22,0x09,0x4d,0x6f,0x76,0x65,0x06,0x3a,0x06,0x45,0x54,0x3a,0x0b,0x40,0x70,0x69,0x74,0x63,0x68,0x69,0x69,0x3a,0x0c,0x40,0x76,0x6f,0x6c,0x75,0x6d,0x65,0x69,0x55))
  TeleportPlayer(0,37,30,53,0,0)
  216(0)
  0()



EVENT   15
 PAGE   1
  281(1)
  250(bytes(0x04,0x08,0x6f,0x3a,0x0c,0x52,0x50,0x47,0x3a,0x3a,0x53,0x45,0x08,0x3a,0x0a,0x40,0x6e,0x61,0x6d,0x65,0x49,0x22,0x09,0x4d,0x6f,0x76,0x65,0x06,0x3a,0x06,0x45,0x54,0x3a,0x0b,0x40,0x70,0x69,0x74,0x63,0x68,0x69,0x69,0x3a,0x0c,0x40,0x76,0x6f,0x6c,0x75,0x6d,0x65,0x69,0x55))
  TeleportPlayer(0,37,57,49,0,0)
  0()



EVENT   16
 PAGE   1
  281(1)
  250(bytes(0x04,0x08,0x6f,0x3a,0x0c,0x52,0x50,0x47,0x3a,0x3a,0x53,0x45,0x08,0x3a,0x0a,0x40,0x6e,0x61,0x6d,0x65,0x49,0x22,0x09,0x4d,0x6f,0x76,0x65,0x06,0x3a,0x06,0x45,0x54,0x3a,0x0b,0x40,0x70,0x69,0x74,0x63,0x68,0x69,0x69,0x3a,0x0c,0x40,0x76,0x6f,0x6c,0x75,0x6d,0x65,0x69,0x55))
  TeleportPlayer(0,37,60,50,0,0)
  0()



EVENT   17
 PAGE   1
  If(1,1063,0,12,2)
   ShowMessageFace("",0,0,2,1)
   ShowMessage("\\n<武器屋>ふひ……おうひひひひ……")
   0()
  EndIf()
  If(1,1063,0,13,1)
   ShowMessageFace("",0,0,2,2)
   ShowMessage("\\n<武器屋>理性を失っている間にも、割と武器が売れていた……")
   ShowMessage("アリ娘達が、律儀に金を払っていったようだ。")
   0()
  EndIf()
  Shop(1,23,0,0,false)
  605(1,104,0,0)
  605(1,130,0,0)
  605(1,177,0,0)
  605(1,202,0,0)
  605(1,246,0,0)
  605(1,271,0,0)
  605(1,529,0,0)
  605(1,605,0,0)
  605(1,878,0,0)
  605(1,904,0,0)
  0()



EVENT   18
 PAGE   1
  If(1,1063,0,12,2)
   ShowMessageFace("",0,0,2,1)
   ShowMessage("\\n<防具屋>お、王妃さまぁ……は、はふふふ……")
   0()
  EndIf()
  If(1,1063,0,13,1)
   ShowMessageFace("",0,0,2,2)
   ShowMessage("\\n<防具屋>うちの防具は、とっても頑丈だよ。")
   ShowMessage("ケチると死ぬから、目一杯買っていきな。")
   0()
  EndIf()
  Shop(2,25,0,0,false)
  605(2,64,0,0)
  605(2,85,0,0)
  605(2,137,0,0)
  605(2,215,0,0)
  605(2,310,0,0)
  0()



EVENT   19
 PAGE   1
  If(1,1063,0,12,2)
   ShowMessageFace("vampire_fc1",0,0,2,1)
   ShowMessage("\\n<Vampire Blacksmith>Things have really gotten out of hand...\nOh well, as long as you've got money, I don't care who you are or what your circumstances are.")
   ShowMessageFace("vampire_fc1",0,0,2,2)
   ShowMessage("\\n<Vampire Blacksmith>So what'll it be?\nI can infuse equipment with the power of darkness.")
   355("call_synthesize(17)")
   EndEventProcessing()
   0()
  EndIf()
  If(1,1063,0,13,1)
   ShowMessageFace("vampire_fc1",0,0,2,3)
   ShowMessage("\\n<Vampire Blacksmith>So what'll it be?\nI can infuse equipment with the power of darkness.")
   ShowChoices(strings("Synthesis","Make Orichalcum equipment","Talk"),5)
   IfPlayerPicksChoice(0,null)
    355("call_synthesize(17)")
    EndEventProcessing()
    0()
   IfPlayerPicksChoice(1,null)
    If(8,156)
     Shop(1,24,0,0,false)
     605(1,106,0,0)
     605(1,160,0,0)
     605(1,225,0,0)
     605(1,273,0,0)
     605(1,315,0,0)
     605(1,349,0,0)
     605(1,384,0,0)
     605(1,423,0,0)
     605(1,458,0,0)
     605(1,492,0,0)
     605(1,532,0,0)
     605(1,572,0,0)
     605(1,607,0,0)
     605(1,642,0,0)
     605(1,682,0,0)
     605(1,714,0,0)
     605(1,741,0,0)
     605(1,765,0,0)
     605(1,786,0,0)
     605(1,809,0,0)
     605(1,834,0,0)
     605(1,857,0,0)
     605(2,44,0,0)
     605(2,86,0,0)
     605(2,115,0,0)
     605(2,217,0,0)
     605(2,250,0,0)
     605(2,312,0,0)
     605(0,105,0,0)
     EndEventProcessing()
     0()
    Else()
     ShowMessageFace("vampire_fc1",0,0,2,4)
     ShowMessage("\\n<Vampire Blacksmith>I can't forge any without the ore.\nSorry, but you've got to provide your own.")
     EndEventProcessing()
     0()
    EndIf()
    0()
   IfPlayerPicksChoice(2,null)
    ShowMessageFace("vampire_fc1",0,0,2,5)
    ShowMessage("\\n<Vampire Blacksmith>The majority of top blacksmiths are monsters. With the exception of the legendary blacksmith Randolph, though...")
    EndEventProcessing()
    0()
   IfPlayerCancelsChoice()
    EndEventProcessing()
    0()
   404()
   EndEventProcessing()
   0()
  EndIf()
  0()



EVENT   20
 PAGE   1
  If(1,1063,0,12,2)
   ShowMessageFace("",0,0,2,1)
   ShowMessage("\\n<Item Seller>My queen... Uuuuhhh...")
   0()
  EndIf()
  If(1,1063,0,13,1)
   ShowMessageFace("",0,0,2,2)
   ShowMessage("\\n<Item Seller>Welcome!\nWe're open for regular business, regardless of your state of mind!")
   0()
  EndIf()
  Shop(0,2,0,0,false)
  605(0,7,0,0)
  605(0,11,0,0)
  605(0,13,0,0)
  605(0,14,0,0)
  605(0,15,0,0)
  605(0,16,0,0)
  605(0,17,0,0)
  605(0,18,0,0)
  605(0,19,0,0)
  605(0,20,0,0)
  605(0,23,0,0)
  605(0,35,0,0)
  605(0,52,0,0)
  605(0,56,0,0)
  605(0,60,0,0)
  605(0,102,0,0)
  605(0,109,0,0)
  If(1,1005,0,17,0)
   If(4,66,0)
    If(0,2065,0)
     If(0,2264,1)
      ShowMessageFace("vgirl_fc1",0,0,2,3)
      ShowMessage("\\n<Vanilla>Pleased to meet you. I'm the merchant Vanilla. I'd like to stock high-rank elemental magic stones in my store, but...")
      ShowMessageFace("",0,0,2,4)
      ShowMessage("\\n<Item Seller>I can't help ya. Magic stones are supplied by the state mage corps lab.")
      ShowMessageFace("",0,0,2,5)
      ShowMessage("\\n<Item Seller>We've had a deal with them for ages, but I doubt a new merchant has much of a chance without connections to the royal palace...")
      ShowMessageFace("vgirl_fc1",0,0,2,6)
      ShowMessage("\\n<Vanilla>I have connections with the palace!\nLet's go talk to the court magician in the warehouse at once!")
      ChangeSwitch(2264,2264,0)
      EndEventProcessing()
      0()
     EndIf()
     0()
    EndIf()
    0()
   EndIf()
   0()
  EndIf()
  0()



EVENT   21
 PAGE   1
  If(1,1063,0,12,2)
   ShowMessageFace("",0,0,2,1)
   ShowMessage("\\n<アクセサリ屋>王妃様、王妃様ぁ……あぁぁぁぁ……")
   0()
  EndIf()
  If(1,1063,0,13,1)
   ShowMessageFace("",0,0,2,2)
   ShowMessage("\\n<アクセサリ屋>あなたの力を上乗せする、分かりやすく便利なアクセサリですよ！")
   0()
  EndIf()
  Shop(2,1003,0,0,false)
  605(2,1008,0,0)
  605(2,1013,0,0)
  605(2,1018,0,0)
  605(2,1023,0,0)
  605(2,1028,0,0)
  605(2,1033,0,0)
  605(2,1038,0,0)
  605(2,1043,0,0)
  0()



EVENT   22
 PAGE   1
  If(1,1063,0,12,2)
   ShowMessageFace("",0,0,2,1)
   ShowMessage("\\n<マスター>私も組織の一員ですよ。")
   ShowMessage("景気付けに、いかがです？")
   0()
  EndIf()
  If(1,1063,0,13,1)
   ShowMessageFace("",0,0,2,2)
   ShowMessage("\\n<マスター>おや、救国の英雄がおいでですか。")
   ShowMessage("ドンによろしく言っておいて下さいね。")
   0()
  EndIf()
  Shop(0,428,0,0,false)
  605(0,429,0,0)
  605(0,430,0,0)
  605(0,431,0,0)
  0()



EVENT   23
 PAGE   1
  If(1,1063,0,12,2)
   ShowMessageFace("",0,0,2,1)
   ShowMessage("\\n<Mage>H-help me...\nI'm losing... my mind...")
   EndEventProcessing()
   0()
  EndIf()
  If(1,1063,0,13,1)
   ShowMessageFace("",0,0,2,2)
   ShowMessage("\\n<Mage>Orichalcum is the strongest equipment available in the Gold region, but you'll need to have orichalcum ore in order to make it.")
   ShowMessageFace("",0,0,2,3)
   ShowMessage("\\n<Mage>How can you get the ore?\nPass through the western checkpoint and then head northwest to the lava mines.")
   ShowMessageFace("",0,0,2,4)
   ShowMessage("\\n<Mage>They say you can dig some up there, but not many adventurers succeed.")
   If(1,1064,0,0,0)
    ChangeVariable(1064,1064,0,0,1)
    0()
   EndIf()
   If(8,156)
    EndEventProcessing()
    0()
   Else()
    If(0,4,0)
     ShowMessageFace("alice_fc5",2,0,2,5)
     ShowMessage("\\n<Alice>The best equipment in the region?\nWe should probably prioritize getting our hands on some orichalcum.")
     0()
    EndIf()
    If(0,5,0)
     ShowMessageFace("iriasu_fc4",0,0,2,6)
     ShowMessage("\\n<Ilias>Orichalcum equipment is certainly tempting.\nWe should prioritize that above everything else for now.")
     0()
    EndIf()
    0()
   EndIf()
   0()
  EndIf()
  0()



EVENT   24
 PAGE   1
  If(1,829,0,2,1)
   If(0,1578,1)
    ShowMessageFace("mob_heisi_fc1",0,0,2,1)
    ShowMessage("\\n<アウグスタ>皆さん、私を連れて行ってほしいのです！")
    ShowMessage("腕を磨き、世界一のヒラ兵士になりたいのです！")
    ShowChoices(strings("仲間にする","仲間にしない"),0)
    IfPlayerPicksChoice(0,null)
     ShowMessageFace("mob_heisi_fc1",0,0,2,2)
     ShowMessage("\\n<アウグスタ>粉骨砕身、戦い抜くのです！")
     PictureClear(5)
     205(0,bytes(0x04,0x08,0x6f,0x3a,0x13,0x52,0x50,0x47,0x3a,0x3a,0x4d,0x6f,0x76,0x65,0x52,0x6f,0x75,0x74,0x65,0x09,0x3a,0x0c,0x40,0x72,0x65,0x70,0x65,0x61,0x74,0x46,0x3a,0x0f,0x40,0x73,0x6b,0x69,0x70,0x70,0x61,0x62,0x6c,0x65,0x46,0x3a,0x0a,0x40,0x77,0x61,0x69,0x74,0x54,0x3a,0x0a,0x40,0x6c,0x69,0x73,0x74,0x5b,0x09,0x6f,0x3a,0x15,0x52,0x50,0x47,0x3a,0x3a,0x4d,0x6f,0x76,0x65,0x43,0x6f,0x6d,0x6d,0x61,0x6e,0x64,0x07,0x3a,0x0a,0x40,0x63,0x6f,0x64,0x65,0x69,0x2a,0x3a,0x10,0x40,0x70,0x61,0x72,0x61,0x6d,0x65,0x74,0x65,0x72,0x73,0x5b,0x00,0x6f,0x3b,0x0a,0x07,0x3b,0x0b,0x69,0x0f,0x3b,0x0c,0x5b,0x00,0x6f,0x3b,0x0a,0x07,0x3b,0x0b,0x69,0x2c,0x3b,0x0c,0x5b,0x00,0x6f,0x3b,0x0a,0x07,0x3b,0x0b,0x69,0x00,0x3b,0x0c,0x5b,0x00))
     355("add_actor_ex(578)")
     249(bytes(0x04,0x08,0x6f,0x3a,0x0c,0x52,0x50,0x47,0x3a,0x3a,0x4d,0x45,0x08,0x3a,0x0a,0x40,0x6e,0x61,0x6d,0x65,0x49,0x22,0x0c,0x66,0x61,0x6e,0x66,0x61,0x6c,0x65,0x06,0x3a,0x06,0x45,0x54,0x3a,0x0b,0x40,0x70,0x69,0x74,0x63,0x68,0x69,0x69,0x3a,0x0c,0x40,0x76,0x6f,0x6c,0x75,0x6d,0x65,0x69,0x69))
     ShowMessageFace("",0,0,2,3)
     ShowMessage("アウグスタが仲間に加わった！")
     Wait(60)
     EndEventProcessing()
     0()
    IfPlayerPicksChoice(1,null)
     ShowMessageFace("mob_heisi_fc1",0,0,2,4)
     ShowMessage("\\n<アウグスタ>恐縮の至りなのです……")
     0()
    404()
    0()
   EndIf()
   0()
  EndIf()
  RunCommonEvent(7281)
  0()
 PAGE   2
  // condition: party contains actor #578
  0()



EVENT   25
 PAGE   1
  If(0,2321,1)
   ShowMessageFace("",0,0,2,1)
   ShowMessage("\\n<Elka>Nice to see you guys again. You look like you've been doing well for yourselves.")
   ShowMessageFace("ruka_fc1",0,0,2,2)
   ShowMessage("\\n<Luka>Did you come to help Uncle Lazarus as well?")
   ShowMessageFace("",0,0,2,3)
   ShowMessage("\\n<Elka>Yeah, he asked for assistance, and I ended up in the middle of this mess. Honestly, I didn't want to stick my neck out so far...")
   0()
  Else()
   ShowMessageFace("",0,0,2,4)
   ShowMessage("\\n<Elka>I'm Elka. I guess you could call me one of Lazarus's work buddies.")
   ShowMessageFace("",0,0,2,5)
   ShowMessage("\\n<Elka>He asked for assistance, and I ended up in the middle of this mess. Honestly, I didn't want to stick my neck out so far...")
   0()
  EndIf()
  ShowMessageFace("lazarus3_fc1",1,0,2,6)
  ShowMessage("\\n<Lazarus>You gonna bail on us now?")
  ShowMessageFace("",0,0,2,7)
  ShowMessage("\\n<Elka>Aww, don't be like that, Lazarus.\nIf I bailed now, I wouldn't even recoup the cost of all these Seduction Guards I scrounged up.")
  ShowMessageFace("",0,0,2,8)
  ShowMessage("\\n<Elka>Oh yeah, Seduction Guards are expensive accessories that nullify temptation effects. We gave one to all our men in the field to counteract that damn aura.")
  ShowMessageFace("",0,0,2,9)
  ShowMessage("\\n<Elka>As long as you've got one on, the impure aura won't affect you, but I don't want to stay exposed to this shit any longer than I have to.")
  If(0,2321,1)
   If(2,"A",1)
    ChangeSelfSwitch("A",0)
    ShowMessageFace("",0,0,2,10)
    ShowMessage("\\n<Elka>Anyway, I've got a few Seduction Guards left for you, too. Not enough for your whole party, though.")
    250(bytes(0x04,0x08,0x6f,0x3a,0x0c,0x52,0x50,0x47,0x3a,0x3a,0x53,0x45,0x08,0x3a,0x0a,0x40,0x6e,0x61,0x6d,0x65,0x49,0x22,0x0a,0x49,0x74,0x65,0x6d,0x31,0x06,0x3a,0x06,0x45,0x54,0x3a,0x0b,0x40,0x70,0x69,0x74,0x63,0x68,0x69,0x69,0x3a,0x0c,0x40,0x76,0x6f,0x6c,0x75,0x6d,0x65,0x69,0x55))
    ChangeInventoryArmor(1587,0,0,3,false)
    ShowMessageFace("ruka_fc1",0,0,2,11)
    ShowMessage("\\n<Luka>Thank you very much!")
    0()
   EndIf()
   0()
  EndIf()
  ShowMessageFace("",0,0,2,12)
  ShowMessage("\\n<Elka>I'm coordinating the blasts, so I won't be joining the assault team. Best of luck to the both of us, eh?")
  0()
 PAGE   2
  // condition: variable 1063 >= 12
  0()



EVENT   26
 PAGE   1
  PictureDisplay(5,"80_merlin_st01",0,0,0,0,100,100,0,0)
  PictureMove(5,null,0,0,0,0,100,100,255,0,30,true)
  If(0,6,0)
   ShowMessageFace("merlin_fc1",0,0,2,1)
   ShowMessage("\\n<Merlin>Luka, Sonya, you two have grown strong. Marcellus and Karen would be very proud.")
   0()
  Else()
   ShowMessageFace("merlin_fc1",0,0,2,2)
   ShowMessage("\\n<Merlin>You've grown strong, Luka. Marcellus would be very proud.")
   0()
  EndIf()
  ShowMessageFace("ruka_fc1",0,0,2,3)
  ShowMessage("\\n<Luka>So Merlin, you traveled with my father and Sonya's mother. How in the world did you end up on top of the underworld?")
  ShowMessageFace("merlin_fc1",0,0,2,4)
  ShowMessage("\\n<Merlin>Well, lots of things happened after our adventure... Don't worry, though, neither Marcellus nor Karen were involved at all.")
  PictureDisplay(5,"80_lazarus_st21",0,0,-150,0,100,100,255,0)
  PictureDisplay(6,"80_merlin_st01",0,0,150,0,100,100,255,0)
  ShowMessageFace("lazarus3_fc1",0,0,2,5)
  ShowMessage("\\n<Lazarus>Don't tell them things they don't need to know, old man...")
  If(0,6,0)
   ShowMessageFace("sonia_fc1",5,0,2,6)
   ShowMessage("\\n<Sonya>Okay then Uncle, why don't you tell us yourself?")
   ShowMessageFace("lazarus3_fc1",2,0,2,7)
   ShowMessage("\\n<Lazarus>Don't get mad at me...")
   0()
  EndIf()
  ShowMessageFace("merlin_fc1",0,0,2,8)
  ShowMessage("\\n<Merlin>Ahem, let's get back to the topic at hand.\nThis impure aura sure is intense.")
  ShowMessageFace("merlin_fc1",0,0,2,9)
  ShowMessage("\\n<Merlin>It's borderline lethal around here. If the citizens are exposed to more of it, they might lose their minds for good.")
  ShowMessageFace("merlin_fc1",0,0,2,10)
  ShowMessage("\\n<Merlin>Those with weak mental resistance could face serious brain damage, and the longer they're exposed, the worse it will become.")
  ShowMessageFace("merlin_fc1",0,0,2,11)
  ShowMessage("\\n<Merlin>We need to cut it off at the source as soon as possible. It's already gotten to the point where we can't afford any delay.")
  ShowMessageFace("lazarus3_fc1",0,0,2,12)
  ShowMessage("\\n<Lazarus>Is that the hero in you speaking, old man?\nRemember, we're just here on business.")
  ShowMessageFace("lazarus3_fc1",0,0,2,13)
  ShowMessage("\\n<Lazarus>I expect to be handsomely rewarded, Mephisto. Rights and concessions after the liberation of Grangold, including everything we agreed on.")
  If(12,"exist_party_persona_id?(391)")
   ShowMessageFace("mefist_fc2",0,0,2,14)
   ShowMessage("\\n<Mephisto>Of course. We guarantee rewards to compensate you for the risks you're taking. On that point, have no fear.")
   0()
  Else()
   ShowMessageFace("mefist_fc1",0,0,2,15)
   ShowMessage("\\n<Mephisto>Of course. We guarantee rewards to compensate you for the risks you're taking. On that point, have no fear.")
   0()
  EndIf()
  ShowMessageFace("lazarus3_fc1",1,0,2,16)
  ShowMessage("\\n<Lazarus>Heheh...")
  ShowMessageFace("merlin_fc1",0,0,2,17)
  ShowMessage("\\n<Merlin>Hahaha...")
  If(12,"exist_party_persona_id?(391)")
   ShowMessageFace("mefist_fc2",1,0,2,18)
   ShowMessage("\\n<Mephisto>Fufufu...")
   0()
  Else()
   ShowMessageFace("mefist_fc1",0,0,2,19)
   ShowMessage("\\n<Mephisto>Fufufu...")
   0()
  EndIf()
  If(0,6,0)
   ShowMessageFace("sonia_fc4",0,0,2,20)
   ShowMessage("\\n<Sonya>I have a bad feeling about this...")
   0()
  EndIf()
  PictureClear(5)
  PictureClear(6)
  0()
 PAGE   2
  // condition: switch 31 is ON
  0()
 PAGE   3
  // condition: variable 1063 >= 12
  0()



EVENT   27
 PAGE   1
  PictureDisplay(5,"80_lazarus_st21",0,0,0,0,100,100,0,0)
  PictureMove(5,null,0,0,0,0,100,100,255,0,30,true)
  ShowMessageFace("lazarus3_fc1",0,0,2,1)
  ShowMessage("\\n<Lazarus>When the operation starts, we'll set off bombs at key facilities in the city and use that as cover to sneak into the palace through the canals.")
  ShowMessageFace("lazarus3_fc1",0,0,2,2)
  ShowMessage("\\n<Lazarus>Are you ready to go, Luka? Got your equipment ready? Items? The right jobs?")
  ShowChoices(strings("Give us some time","We're ready to go"),1)
  IfPlayerPicksChoice(0,null)
   ShowMessageFace("lazarus3_fc1",0,0,2,3)
   ShowMessage("\\n<Lazarus>Fine. Go get ready.")
   PictureClear(5)
   EndEventProcessing()
   0()
  IfPlayerPicksChoice(1,null)
   ShowMessageFace("lazarus3_fc1",0,0,2,4)
   ShowMessage("\\n<Lazarus>All right, let's get this show on the road!\nI'll guide you to the canals that lead to the palace.")
   ShowMessageFace("lazarus3_fc1",0,0,2,5)
   ShowMessage("\\n<Lazarus>Actually, I'll accompany you through the palace, too. Merlin as well.")
   PictureDisplay(5,"80_lazarus_st21",0,0,-150,0,100,100,255,0)
   PictureDisplay(6,"80_merlin_st01",0,0,150,0,100,100,255,0)
   ShowMessageFace("merlin_fc1",0,0,2,6)
   ShowMessage("\\n<Merlin>I thought you'd say that...\nI'm ready to go whenever.")
   If(12,"exist_party_persona_id?(391)")
    ShowMessageFace("mefist_fc2",0,0,2,7)
    ShowMessage("\\n<Mephisto>Oh? I thought you intended to watch from the sidelines, Don Father.")
    0()
   Else()
    ShowMessageFace("mefist_fc1",0,0,2,8)
    ShowMessage("\\n<Mephisto>Oh? I thought you intended to watch from the sidelines, Don Father.")
    0()
   EndIf()
   ShowMessageFace("lazarus3_fc1",0,0,2,9)
   ShowMessage("\\n<Lazarus>I can't just let these guys go into the palace by themselves, so I'm going with them.")
   PictureClear(5)
   PictureClear(6)
   205(0,bytes(0x04,0x08,0x6f,0x3a,0x13,0x52,0x50,0x47,0x3a,0x3a,0x4d,0x6f,0x76,0x65,0x52,0x6f,0x75,0x74,0x65,0x09,0x3a,0x0c,0x40,0x72,0x65,0x70,0x65,0x61,0x74,0x46,0x3a,0x0f,0x40,0x73,0x6b,0x69,0x70,0x70,0x61,0x62,0x6c,0x65,0x46,0x3a,0x0a,0x40,0x77,0x61,0x69,0x74,0x54,0x3a,0x0a,0x40,0x6c,0x69,0x73,0x74,0x5b,0x09,0x6f,0x3a,0x15,0x52,0x50,0x47,0x3a,0x3a,0x4d,0x6f,0x76,0x65,0x43,0x6f,0x6d,0x6d,0x61,0x6e,0x64,0x07,0x3a,0x0a,0x40,0x63,0x6f,0x64,0x65,0x69,0x2a,0x3a,0x10,0x40,0x70,0x61,0x72,0x61,0x6d,0x65,0x74,0x65,0x72,0x73,0x5b,0x00,0x6f,0x3b,0x0a,0x07,0x3b,0x0b,0x69,0x0f,0x3b,0x0c,0x5b,0x00,0x6f,0x3b,0x0a,0x07,0x3b,0x0b,0x69,0x2c,0x3b,0x0c,0x5b,0x00,0x6f,0x3b,0x0a,0x07,0x3b,0x0b,0x69,0x00,0x3b,0x0c,0x5b,0x00))
   355("add_actor_ex(520)")
   249(bytes(0x04,0x08,0x6f,0x3a,0x0c,0x52,0x50,0x47,0x3a,0x3a,0x4d,0x45,0x08,0x3a,0x0a,0x40,0x6e,0x61,0x6d,0x65,0x49,0x22,0x0c,0x66,0x61,0x6e,0x66,0x61,0x6c,0x65,0x06,0x3a,0x06,0x45,0x54,0x3a,0x0b,0x40,0x70,0x69,0x74,0x63,0x68,0x69,0x69,0x3a,0x0c,0x40,0x76,0x6f,0x6c,0x75,0x6d,0x65,0x69,0x69))
   ShowMessageFace("",0,0,2,10)
   ShowMessage("Lazarus has joined the party!")
   Wait(60)
   PictureDisplay(5,"80_merlin_st01",0,0,0,0,100,100,0,0)
   PictureMove(5,null,0,0,0,0,100,100,255,0,30,true)
   If(0,6,0)
    ShowMessageFace("merlin_fc1",0,0,2,11)
    ShowMessage("\\n<Merlin>I never thought I'd be in a party with Marcellus's son and Karen's daughter. Life sure can be strange...")
    0()
   Else()
    ShowMessageFace("merlin_fc1",0,0,2,12)
    ShowMessage("\\n<Merlin>I never thought I'd be in a party with Marcellus's son. Life sure can be strange...")
    0()
   EndIf()
   ChangeSwitch(31,31,0)
   PictureClear(5)
   355("add_actor_ex(522)")
   249(bytes(0x04,0x08,0x6f,0x3a,0x0c,0x52,0x50,0x47,0x3a,0x3a,0x4d,0x45,0x08,0x3a,0x0a,0x40,0x6e,0x61,0x6d,0x65,0x49,0x22,0x0c,0x66,0x61,0x6e,0x66,0x61,0x6c,0x65,0x06,0x3a,0x06,0x45,0x54,0x3a,0x0b,0x40,0x70,0x69,0x74,0x63,0x68,0x69,0x69,0x3a,0x0c,0x40,0x76,0x6f,0x6c,0x75,0x6d,0x65,0x69,0x69))
   ShowMessageFace("",0,0,2,13)
   ShowMessage("Merlin has joined the party!")
   Wait(60)
   If(0,6,0)
    ShowMessageFace("sonia_fc2",2,0,2,14)
    ShowMessage("\\n<Sonya>Ummm... Can you still fight, Uncle?\nI know your arm doesn't work very well...")
    0()
   Else()
    ShowMessageFace("ruka_fc1",0,0,2,15)
    ShowMessage("\\n<Luka>Can you still fight, Uncle Lazarus?\nI know your arm doesn't work very well...")
    0()
   EndIf()
   ShowMessageFace("lazarus3_fc1",1,0,2,16)
   ShowMessage("\\n<Lazarus>Guns are a thing these days, ya' know.\nIt doesn't take much strength to pull a trigger.")
   ShowMessageFace("lazarus3_fc1",1,0,2,17)
   ShowMessage("\\n<Lazarus>All right, let's do this!\nBlast team, give the signal!")
   ShowMessageFace("lazarus3_fc1",1,0,2,18)
   ShowMessage("\\n<Lazarus>Luka and the rest of you, come with me. We're headed to the underground canals that connect to the palace.")
   221()
   ChangeSwitch(1,1,1)
   ChangeSwitch(100,100,0)
   ChangeSwitch(31,31,1)
   ChangeVariable(1063,1063,0,0,12)
   ChangeVariable(1002,1002,0,0,32)
   211(0)
   TeleportPlayer(0,37,47,5,0,2)
   241(bytes(0x04,0x08,0x6f,0x3a,0x0d,0x52,0x50,0x47,0x3a,0x3a,0x42,0x47,0x4d,0x08,0x3a,0x0a,0x40,0x6e,0x61,0x6d,0x65,0x49,0x22,0x0a,0x6b,0x69,0x6b,0x69,0x33,0x06,0x3a,0x06,0x45,0x54,0x3a,0x0c,0x40,0x76,0x6f,0x6c,0x75,0x6d,0x65,0x69,0x69,0x3a,0x0b,0x40,0x70,0x69,0x74,0x63,0x68,0x69,0x69))
   Wait(60)
   0()
  404()
  0()
 PAGE   2
  // condition: variable 1063 >= 12
  0()



EVENT   28
 PAGE   1
  // condition: variable 1063 >= 11
  221()
  PictureClear(5)
  TeleportPlayer(0,38,32,53,8,0)
  241(bytes(0x04,0x08,0x6f,0x3a,0x0d,0x52,0x50,0x47,0x3a,0x3a,0x42,0x47,0x4d,0x08,0x3a,0x0a,0x40,0x6e,0x61,0x6d,0x65,0x49,0x22,0x16,0x64,0x75,0x6e,0x67,0x65,0x6f,0x6e,0x5f,0x63,0x6f,0x6c,0x6f,0x73,0x73,0x65,0x75,0x6d,0x06,0x3a,0x06,0x45,0x54,0x3a,0x0c,0x40,0x76,0x6f,0x6c,0x75,0x6d,0x65,0x69,0x69,0x3a,0x0b,0x40,0x70,0x69,0x74,0x63,0x68,0x69,0x69))
  222()
  PictureDisplay(5,"80_lazarus_st23",0,0,0,0,100,100,0,0)
  PictureMove(5,null,0,0,0,0,100,100,255,0,30,true)
  ShowMessageFace("lazarus3_fc1",2,0,2,1)
  ShowMessage("\\n<Lazarus>Goddammit, no one told me about this...")
  If(0,6,0)
   ShowMessageFace("sonia_fc1",5,0,2,2)
   ShowMessage("\\n<Sonya>Says the guy who never told us that he was the boss of the underworld!")
   0()
  Else()
   ShowMessageFace("ruka_fc1",0,0,2,3)
   ShowMessage("\\n<Luka>Says the guy who never told us that he was the boss of the underworld...")
   0()
  EndIf()
  PictureDisplay(5,"80_lazarus_st21",0,0,0,0,100,100,255,0)
  ShowMessageFace("lazarus3_fc1",0,0,2,4)
  ShowMessage("\\n<Lazarus>You're the ones who shouldn't be having anything to do with a plot to overthrow a government! You kids should be on a more wholesome adventure!")
  If(12,"exist_party_persona_id?(391)")
   ShowMessageFace("mefist_fc2",0,0,2,5)
   ShowMessage("\\n<Mephisto>Now now, calm down everyone.")
   ShowMessageFace("mefist_fc2",0,0,2,6)
   ShowMessage("\\n<Mephisto>I never would have imagined that Don Father was your foster parent. That's on me for failing to do my due diligence.")
   0()
  Else()
   ShowMessageFace("mefist_fc1",0,0,2,7)
   ShowMessage("\\n<Mephisto>Now now, calm down everyone.")
   ShowMessageFace("mefist_fc1",0,0,2,8)
   ShowMessage("\\n<Mephisto>I never would have imagined that Don Father was your foster parent. That's on me for failing to do my due diligence.")
   0()
  EndIf()
  ShowMessageFace("lazarus3_fc1",0,0,2,9)
  ShowMessage("\\n<Lazarus>Goddammit, I can't believe my cover got blown...")
  If(0,6,0)
   ShowMessageFace("sonia_fc1",5,0,2,10)
   ShowMessage("\\n<Sonya>Uncle Lazarus...\nI want to hear your explanation for all this later.")
   ShowMessageFace("lazarus3_fc1",0,0,2,11)
   ShowMessage("\\n<Lazarus>C'mon, it'll just make you mad!")
   0()
  Else()
   ShowMessageFace("ruka_fc1",0,0,2,12)
   ShowMessage("\\n<Luka>Uncle Lazarus...\nI want to hear your explanation for all this later.")
   ShowMessageFace("lazarus3_fc1",0,0,2,13)
   ShowMessage("\\n<Lazarus>Yeah sure, I'll get around to that in a few years.")
   0()
  EndIf()
  PictureDisplay(5,"80_merlin_st01",0,0,0,0,100,100,255,0)
  ShowMessageFace("merlin_fc1",0,0,2,14)
  ShowMessage("\\n<Merlin>It's not so bad, Don...\nThey were bound to find out sooner or later.")
  If(1,1033,0,2,1)
   If(0,6,0)
    ShowMessageFace("sonia_fc2",2,0,2,15)
    ShowMessage("\\n<Sonya>Oh, Merlin...\nDidn't you tell us that you were Don Father?")
    0()
   Else()
    ShowMessageFace("ruka_fc1",0,0,2,16)
    ShowMessage("\\n<Luka>Oh, Merlin...\nDidn't you tell us that you were Don Father?")
    0()
   EndIf()
   ShowMessageFace("merlin_fc1",0,0,2,17)
   ShowMessage("\\n<Merlin>Yes, I regularly act as Don Father, but Lazarus is the true Don.")
   0()
  Else()
   ShowMessageFace("ruka_fc1",0,0,2,18)
   ShowMessage("\\n<Luka>Um, I don't think we've met...")
   ShowMessageFace("merlin_fc1",0,0,2,19)
   ShowMessage("\\n<Merlin>I am Merlin, ostensibly Don Father. However, the true Don is Lazarus.")
   0()
  EndIf()
  ShowMessageFace("merlin_fc1",0,0,2,20)
  ShowMessage("\\n<Merlin>I was also friends with your parents, that is, Luka's father and Sonya's mother. Including Lazarus, the four of us were adventurers together.")
  If(0,6,0)
   ShowMessageFace("sonia_fc2",2,0,2,21)
   ShowMessage("\\n<Sonya>I remember hearing that the party had a magic user. So that was you...")
   0()
  Else()
   ShowMessageFace("ruka_fc1",0,0,2,22)
   ShowMessage("\\n<Luka>I remember hearing that the party had a magic user. So that was you...")
   0()
  EndIf()
  ShowMessageFace("merlin_fc1",0,0,2,23)
  ShowMessage("\\n<Merlin>Merlin the Wizard, pleased to meet you. My magical talents have picked up quite a bit of rust lately, though.")
  If(12,"exist_party_persona_id?(391)")
   ShowMessageFace("mefist_fc2",0,0,2,24)
   ShowMessage("\\n<Mephisto>...We can save the small talk for after the operation. Let's get down to business instead.")
   0()
  Else()
   ShowMessageFace("mefist_fc1",0,0,2,25)
   ShowMessage("\\n<Mephisto>...We can save the small talk for after the operation. Let's get down to business instead.")
   0()
  EndIf()
  PictureDisplay(5,"80_lazarus_st21",0,0,0,0,100,100,255,0)
  ShowMessageFace("lazarus3_fc1",0,0,2,26)
  ShowMessage("\\n<Lazarus>Not much business to discuss.\nOur preparations are complete, and we're ready to go whenever.")
  If(0,6,0)
   ShowMessageFace("sonia_fc1",5,0,2,27)
   ShowMessage("\\n<Sonya>What horrible things have you prepared?")
   0()
  Else()
   ShowMessageFace("ruka_fc1",0,0,2,28)
   ShowMessage("\\n<Luka>Preparations? Like what?")
   0()
  EndIf()
  If(12,"exist_party_persona_id?(391)")
   ShowMessageFace("mefist_fc2",0,0,2,29)
   ShowMessage("\\n<Mephisto>Members of their organization have infiltrated the city. Once we give the signal, they'll simultaneously begin subversive activities.")
   0()
  Else()
   ShowMessageFace("mefist_fc1",0,0,2,30)
   ShowMessage("\\n<Mephisto>Members of their organization have infiltrated the city. Once we give the signal, they'll simultaneously begin subversive activities.")
   0()
  EndIf()
  PictureDisplay(5,"80_lazarus_st22",0,0,0,0,100,100,255,0)
  ShowMessageFace("lazarus3_fc1",1,0,2,31)
  ShowMessage("\\n<Lazarus>I've got men stationed at 15 key points in Grangold. I thought it'd be a tough job, but everyone around is an idiot because of this impure aura...")
  ShowMessageFace("lazarus3_fc1",1,0,2,32)
  ShowMessage("\\n<Lazarus>So infiltrating the place was a piece of cake. When they get the signal, they'll each set off a bomb.")
  If(0,6,0)
   ShowMessageFace("sonia_fc2",5,0,2,33)
   ShowMessage("\\n<Sonya>That's just indiscriminate terrorism!")
   0()
  Else()
   ShowMessageFace("ruka_fc1",0,0,2,34)
   ShowMessage("\\n<Luka>That's just indiscriminate terrorism!")
   0()
  EndIf()
  ShowMessageFace("lazarus3_fc1",1,0,2,35)
  ShowMessage("\\n<Lazarus>Hey now, indiscriminate terrorism would be bad for our reputation. We're using perfectly respectable DISCRIMINATE terrorism that won't hurt anybody.")
  ShowMessageFace("lazarus3_fc1",1,0,2,36)
  ShowMessage("\\n<Lazarus>I'm a pro at this, trust me.\nWe picked places that were both important and uninhabited.")
  If(12,"exist_party_persona_id?(391)")
   ShowMessageFace("mefist_fc2",0,0,2,37)
   ShowMessage("\\n<Mephisto>This operation is being conducted to save Grangold from the clutches of the Monster Lord. It's important to keep the support of the populace after the success of the operation.")
   ShowMessageFace("mefist_fc2",0,0,2,38)
   ShowMessage("\\n<Mephisto>So we absolutely must not injure any citizens. It's not only the humanitarian thing to do, but also of strategic importance.")
   0()
  Else()
   ShowMessageFace("mefist_fc1",0,0,2,39)
   ShowMessage("\\n<Mephisto>This operation is being conducted to save Grangold from the clutches of the Monster Lord. It's important to keep the support of the populace after the success of the operation.")
   ShowMessageFace("mefist_fc1",0,0,2,40)
   ShowMessage("\\n<Mephisto>So we absolutely must not injure any citizens. It's not only the humanitarian thing to do, but also of strategic importance.")
   0()
  EndIf()
  If(0,4,0)
   ShowMessageFace("alice_fc5",2,0,2,41)
   ShowMessage("\\n<Alice>So the plan is to sneak into the palace while the city is in chaos.")
   0()
  EndIf()
  If(0,5,0)
   ShowMessageFace("iriasu_fc4",0,0,2,42)
   ShowMessage("\\n<Ilias>So the plan is to sneak into the palace while the city is in chaos.")
   0()
  EndIf()
  PictureDisplay(5,"80_lazarus_st21",0,0,0,0,100,100,255,0)
  ShowMessageFace("lazarus3_fc1",0,0,2,43)
  ShowMessage("\\n<Lazarus>Yeah, we've scouted it out, and you can get in through the canals. They're crawling with monsters, though.")
  If(12,"exist_party_persona_id?(391)")
   ShowMessageFace("mefist_fc2",0,0,2,44)
   ShowMessage("\\n<Mephisto>As we sneak in, the King of Grangold should be distracted, letting us attack Queen Ant... That's the idea, anyway.")
   0()
  Else()
   ShowMessageFace("mefist_fc1",0,0,2,45)
   ShowMessage("\\n<Mephisto>As we sneak in, the King of Grangold should be distracted, letting us attack Queen Ant... That's the idea, anyway.")
   0()
  EndIf()
  If(0,4,0)
   ShowMessageFace("alice_fc5",0,0,2,46)
   ShowMessage("\\n<Alice>So in the end, success depends on us...")
   0()
  EndIf()
  If(0,5,0)
   ShowMessageFace("iriasu_fc4",2,0,2,47)
   ShowMessage("\\n<Ilias>So in the end, success depends on our abilities...")
   0()
  EndIf()
  If(12,"exist_party_persona_id?(391)")
   ShowMessageFace("mefist_fc2",0,0,2,48)
   ShowMessage("\\n<Mephisto>Of course, if we fail and get caught, Grand Noah will disavow any knowledge of us or involvement in the plot.")
   ShowMessageFace("mefist_fc2",0,0,2,49)
   ShowMessage("\\n<Mephisto>We'll be denounced as a party led by a random hero, albeit one with the boss of the underworld and a magical advisor in an awkward situation...")
   0()
  Else()
   ShowMessageFace("mefist_fc1",0,0,2,50)
   ShowMessage("\\n<Mephisto>Of course, if we fail and get caught, Grand Noah will disavow any knowledge of us or involvement in the plot.")
   ShowMessageFace("mefist_fc1",0,0,2,51)
   ShowMessage("\\n<Mephisto>We'll be denounced as a party led by a random hero, albeit one with the boss of the underworld and a magical advisor in an awkward situation...")
   0()
  EndIf()
  ShowMessageFace("lazarus3_fc1",0,0,2,52)
  ShowMessage("\\n<Lazarus>Hmph, throwing us under the bus to save face.")
  PictureDisplay(5,"80_lazarus_st21",0,0,-150,0,100,100,255,0)
  PictureDisplay(6,"80_merlin_st01",0,0,150,0,100,100,255,0)
  ShowMessageFace("merlin_fc1",0,0,2,53)
  ShowMessage("\\n<Merlin>However, if we succeed, we, or at least Luka and his companions, will become national heroes.")
  If(0,6,0)
   ShowMessageFace("sonia_fc3",6,0,2,54)
   ShowMessage("\\n<Sonya>Wow, that's pretty exciting...")
   0()
  Else()
   ShowMessageFace("ruka_fc1",0,0,2,55)
   ShowMessage("\\n<Luka>Wow, that's pretty exciting...")
   0()
  EndIf()
  ShowMessageFace("lazarus3_fc1",0,0,2,56)
  ShowMessage("\\n<Lazarus>This isn't the time to be excited, morons.\nAfter this is over, I want to know how you got involved in the first place.")
  If(0,6,0)
   ShowMessageFace("sonia_fc2",5,0,2,57)
   ShowMessage("\\n<Sonya>Only after you confess everything to us!")
   ShowMessageFace("lazarus3_fc1",2,0,2,58)
   ShowMessage("\\n<Lazarus>Man... Don't be so hard on me...")
   0()
  EndIf()
  ShowMessageFace("ruka_fc1",0,0,2,59)
  ShowMessage("\\n<Luka>......")
  PictureClear(5)
  PictureClear(6)
  ShowMessageFace("",0,0,2,60)
  ShowMessage("Anyway, we're finally on the last phase of the operation. I better make sure we're battle-ready before we begin--")
  241(bytes(0x04,0x08,0x6f,0x3a,0x0d,0x52,0x50,0x47,0x3a,0x3a,0x42,0x47,0x4d,0x08,0x3a,0x0a,0x40,0x6e,0x61,0x6d,0x65,0x49,0x22,0x0a,0x63,0x69,0x74,0x79,0x31,0x06,0x3a,0x06,0x45,0x54,0x3a,0x0c,0x40,0x76,0x6f,0x6c,0x75,0x6d,0x65,0x69,0x69,0x3a,0x0b,0x40,0x70,0x69,0x74,0x63,0x68,0x69,0x69))
  If(1,1024,0,6,2)
   ChangeVariable(1024,1024,0,0,7)
   ChangeSwitch(2321,2321,0)
   0()
  EndIf()
  ChangeVariable(1033,1033,0,0,2)
  ChangeSelfSwitch("A",0)
  0()
 PAGE   2
  // condition: self-switch A is ON
  0()



EVENT   29
 PAGE   1
  If(1,1001,0,26,0)
   PictureDisplay(5,"80_grangold_st11",0,0,0,0,100,100,0,0)
   PictureMove(5,null,0,0,0,0,100,100,255,0,30,true)
   ShowMessageFace("grangold_fc2",0,0,2,1)
   ShowMessage("\\n<King of Grangold>Ah, Hero Luka! Welcome to my palace!")
   If(0,6,0)
    ShowMessageFace("sonia_fc3",2,0,2,2)
    ShowMessage("\\n<Sonya>Warehouse!")
    0()
   Else()
    ShowMessageFace("ruka_fc1",0,0,2,3)
    ShowMessage("\\n<Luka>This is a warehouse, though, isn't it?")
    0()
   EndIf()
   ShowMessageFace("grangold_fc2",0,0,2,4)
   ShowMessage("\\n<King of Grangold>The palace is a total ruin and won't be rebuilt any time soon... So for the time being, this warehouse is acting as Grangold Palace.")
   If(4,88,0)
    ShowMessageFace("jack_fc1",1,0,2,5)
    ShowMessage("\\n<Pumpkin>There's something fun about a warehouse palace...")
    0()
   EndIf()
   If(12,"exist_party_persona_id?(241)")
    ShowMessageFace("a_emp_fc1",1,0,2,6)
    ShowMessage("\\n<Priestess>I like it. I'd love to shut myself up in here too...")
    0()
   EndIf()
   ShowMessageFace("grangold_fc2",0,0,2,7)
   ShowMessage("\\n<King of Grangold>Now then, about that request I had for you...\nIt seems there are some strange things afoot in the villages of the central district.")
   ShowMessageFace("grangold_fc2",0,0,2,8)
   ShowMessage("\\n<King of Grangold>Hmm, perhaps I should explain the layout of the Gold region first considering that you aren't from around here.")
   ShowMessageFace("grangold_fc2",0,0,2,9)
   ShowMessage("\\n<King of Grangold>The Gold region is divided into three districts: eastern, central, and western. The palace where we are now is part of the eastern district.")
   If(0,6,0)
    ShowMessageFace("sonia_fc1",0,0,2,10)
    ShowMessage("\\n<Sonya>So Gold Fort, Goddard, March Hills, and the capital are all in the eastern district? The Gold region is huge.")
    0()
   Else()
    ShowMessageFace("ruka_fc1",0,0,2,11)
    ShowMessage("\\n<Luka>So Gold Fort, Goddard, March Hills, and the capital are all in the eastern district? The Gold region is huge.")
    0()
   EndIf()
   ShowMessageFace("grangold_fc2",0,0,2,12)
   ShowMessage("\\n<King of Grangold>If you travel through the checkpoint to the west of here, you'll be in the central district, which is where the aforementioned issues are occurring.")
   ShowMessageFace("grangold_fc2",0,0,2,13)
   ShowMessage("\\n<King of Grangold>The largest town in the central district is Gold Port, but the region is also dotted with smaller villages ruled by various lords.")
   If(0,4,0)
    ShowMessageFace("alice_fc5",0,0,2,14)
    ShowMessage("\\n<Alice>I assume those villages are where the problems are. Before we discuss those, would you tell us about the western district?")
    0()
   EndIf()
   If(0,5,0)
    ShowMessageFace("iriasu_fc4",2,0,2,15)
    ShowMessage("\\n<Ilias>Yes... There are definitely a lot of unsavory villages in that area. However, before we discuss those, please go over the western district.")
    ShowMessageFace("iriasu_fc4",0,0,2,16)
    ShowMessage("\\n<Ilias>I am all-knowing, of course, but Luka and the others are largely ignorant.")
    0()
   EndIf()
   ShowMessageFace("grangold_fc2",0,0,2,17)
   ShowMessage("\\n<King of Grangold>Sure, you should certainly get familiar with the whole region. Western Gold is a place people largely avoid.")
   ShowMessageFace("grangold_fc2",0,0,2,18)
   ShowMessage("\\n<King of Grangold>If you cross the Nightmare Wasteland that divides the central and western districts, you'll find a vast, inhospitable desert.")
   ShowMessageFace("grangold_fc2",0,0,2,19)
   ShowMessage("\\n<King of Grangold>It's also where the Tartarus rift is. It opened up at the western edge of the Western Gold desert.")
   ShowMessageFace("grangold_fc2",0,0,2,20)
   ShowMessage("\\n<King of Grangold>Since the terrain is so harsh, it's been difficult to send anyone there. As a result, the place hasn't been investigated at all.")
   If(0,4,0)
    ShowMessageFace("alice_fc5",2,0,2,21)
    ShowMessage("\\n<Alice>We need to go there, but perhaps we'd better put it off until we've taken care of the other matters in the area.")
    0()
   EndIf()
   If(0,5,0)
    ShowMessageFace("iriasu_fc4",2,0,2,22)
    ShowMessage("\\n<Ilias>Investigating Tartarus is our highest priority, but it may be best to leave that as a challenge for after we deal with the other matters in the area.")
    0()
   EndIf()
   ShowMessageFace("grangold_fc2",0,0,2,23)
   ShowMessage("\\n<King of Grangold>Yes... I'd appreciate it if you'd handle these requests first. Depending on the circumstances, the local residents may be in danger, after all.")
   ShowMessageFace("grangold_fc2",0,0,2,24)
   ShowMessage("\\n<King of Grangold>There are actually two matters I'd like you to resolve. The first concerns Succubus Village.")
   If(0,6,0)
    ShowMessageFace("sonia_fc4",0,0,2,25)
    ShowMessage("\\n<Sonya>Succubus Village is the last place in the world I want to go to...\nIt's going to have a bad influence on a young man like Luka.")
    0()
   Else()
    ShowMessageFace("ruka_fc1",0,0,2,26)
    ShowMessage("\\n<Luka>Succubus Village?")
    0()
   EndIf()
   ShowMessageFace("grangold_fc2",0,0,2,27)
   ShowMessage("\\n<King of Grangold>Well, even though it's called Succubus Village, that's just an old name based on legend. There aren't any actual succubi living there.")
   If(0,4,0)
    ShowMessageFace("alice_fc5",6,0,2,28)
    ShowMessage("\\n<Alice>Actually... The mayor and plenty of other influential people there are succubi.\n...Oops, should I not have said that?")
    0()
   EndIf()
   If(0,5,0)
    ShowMessageFace("iriasu_fc4",0,0,2,29)
    ShowMessage("\\n<Ilias>Umm... no.\nThe mayor and plenty of other influential people there are succubi.")
    0()
   EndIf()
   ShowMessageFace("grangold_fc2",0,0,2,30)
   ShowMessage("\\n<King of Grangold>Err... As their king, I'm going to pretend I didn't hear that. I'm sure they have their reasons.")
   ShowMessageFace("grangold_fc2",0,0,2,31)
   ShowMessage("\\n<King of Grangold>Anyway, it seems that a suspicious monster has been showing up there. Rumor has it that she's been making unreasonable demands of the mayor.")
   If(4,203,0)
    ShowMessageFace("tatunoko_k_fc1",2,0,2,32)
    ShowMessage("\\n<Tatsuko>Unreasonable demands? That stinks of criminal activity.")
    0()
   EndIf()
   ShowMessageFace("grangold_fc2",0,0,2,33)
   ShowMessage("\\n<King of Grangold>Keep in mind that this information didn't reach me through any official channels. The mayor hasn't requested government help or anything of the sort.")
   ShowMessageFace("grangold_fc2",0,0,2,34)
   ShowMessage("\\n<King of Grangold>However, in these times, it's not something we can ignore. Therefore, I'd like you to investigate.")
   If(0,4,0)
    ShowMessageFace("alice_fc5",0,0,2,35)
    ShowMessage("\\n<Alice>A suspicious monster making demands in Succubus Village... That definitely sounds like something we should look in to.")
    0()
   EndIf()
   If(0,5,0)
    ShowMessageFace("iriasu_fc4",2,0,2,36)
    ShowMessage("\\n<Ilias>A suspicious monster making demands in Succubus Village... We have to go there and check it out.")
    0()
   EndIf()
   If(4,171,0)
    ShowMessageFace("lizardboss_fc1",0,0,2,37)
    ShowMessage("\\n<Miranda>Sounds like we just need to wreck that monster. Piece of cake.")
    0()
   EndIf()
   ShowMessageFace("grangold_fc2",0,0,2,38)
   ShowMessage("\\n<King of Grangold>The other matter concerns Lady's Village. Their lord, Cassandra Nereneid, has shut herself up in her mansion.")
   ShowMessageFace("grangold_fc2",0,0,2,39)
   ShowMessage("\\n<King of Grangold>We tried sending an envoy to meet with her, but her maid stubbornly refused his requests for an interview.")
   ShowMessageFace("grangold_fc2",0,0,2,40)
   ShowMessage("\\n<King of Grangold>According to reports, her maid revealed herself to be a monster and threatened the envoy, telling him that he was not allowed to see Cassandra.")
   If(0,4,0)
    ShowMessageFace("alice_fc5",0,0,2,41)
    ShowMessage("\\n<Alice>We can't ignore anything that involves Cassandra.\nShutting herself up in her mansion sure is odd, though...")
    0()
   EndIf()
   If(0,5,0)
    ShowMessageFace("iriasu_fc4",2,0,2,42)
    ShowMessage("\\n<Ilias>Even among monsters, Cassandra is a vile creature.\nI wonder why she isn't leaving her mansion, though...")
    0()
   EndIf()
   ShowMessageFace("grangold_fc2",0,0,2,43)
   ShowMessage("\\n<King of Grangold>So those are the two matters I'd like you to resolve. It's not really compensation for your efforts, but I will grant you special privileges within my realm.")
   ShowMessageFace("grangold_fc2",0,0,2,44)
   ShowMessage("\\n<King of Grangold>I've already notified the western checkpoint to let you through, and I'll help as much as I can with your investigation of Tartarus.")
   If(0,4,0)
    ShowMessageFace("alice_fc5",0,0,2,45)
    ShowMessage("\\n<Alice>Hmm, two incidents involving monsters...\nI suppose I can't ignore them.")
    ShowMessageFace("alice_fc5",0,0,2,46)
    ShowMessage("\\n<Alice>Let's take care of those first, go see Salamander, then head to Tartarus. How does that sound?")
    ShowMessageFace("alice_fc5",0,0,2,47)
    ShowMessage("\\n<Alice>I'll leave it up to your best judgement, of course.")
    0()
   EndIf()
   If(0,5,0)
    ShowMessageFace("iriasu_fc4",0,0,2,48)
    ShowMessage("\\n<Ilias>Two incidents involving monsters...\nThe Goddess Ilias herself shall take care of them.")
    ShowMessageFace("iriasu_fc4",0,0,2,49)
    ShowMessage("\\n<Ilias>Let's handle them first then form a contract with Salamander. After that, we can go to Tartarus. Sound like a plan?")
    ShowMessageFace("iriasu_fc4",0,0,2,50)
    ShowMessage("\\n<Ilias>...That's just what I would do. You're free to do as you wish. The responsibility is all yours.")
    0()
   EndIf()
   ShowMessageFace("grangold_fc2",0,0,2,51)
   ShowMessage("\\n<King of Grangold>If you want further details, ask my cabinet ministers. They should be able to provide better advice than me.")
   ShowMessageFace("grangold_fc2",0,0,2,52)
   ShowMessage("\\n<King of Grangold>Anyway, thanks for the help. I'll be here preparing for the Monster Lord's invasion.")
   ChangeVariable(1001,1001,0,0,27)
   ChangeVariable(1065,1065,0,0,1)
   ChangeVariable(1066,1066,0,0,1)
   PictureClear(5)
   EndEventProcessing()
   0()
  EndIf()
  If(1,1001,0,27,0)
   PictureDisplay(5,"80_grangold_st11",0,0,0,0,100,100,0,0)
   PictureMove(5,null,0,0,0,0,100,100,255,0,30,true)
   If(1,1065,0,3,1)
    If(1,1066,0,5,1)
     If(0,2277,1)
      ChangeSwitch(2277,2277,0)
      ShowMessageFace("grangold_fc2",0,0,2,53)
      ShowMessage("\\n<King of Grangold>Thank you for taking care of the issues at Succubus Village and Lady's Village. As a reward, let me present you with a holy spear that has been passed down in the Grangold royal family.")
      250(bytes(0x04,0x08,0x6f,0x3a,0x0c,0x52,0x50,0x47,0x3a,0x3a,0x53,0x45,0x08,0x3a,0x0a,0x40,0x6e,0x61,0x6d,0x65,0x49,0x22,0x0a,0x49,0x74,0x65,0x6d,0x31,0x06,0x3a,0x06,0x45,0x54,0x3a,0x0b,0x40,0x70,0x69,0x74,0x63,0x68,0x69,0x69,0x3a,0x0c,0x40,0x76,0x6f,0x6c,0x75,0x6d,0x65,0x69,0x55))
      ChangeInventoryWeapon(227,0,0,1,false)
      ShowMessageFace("grangold_fc2",0,0,2,54)
      ShowMessage("\\n<King of Grangold>In addition, take this accessory that allows you to dual wield. Any warrior-type class will be able to wreak carnage with it equipped.")
      250(bytes(0x04,0x08,0x6f,0x3a,0x0c,0x52,0x50,0x47,0x3a,0x3a,0x53,0x45,0x08,0x3a,0x0a,0x40,0x6e,0x61,0x6d,0x65,0x49,0x22,0x0a,0x49,0x74,0x65,0x6d,0x31,0x06,0x3a,0x06,0x45,0x54,0x3a,0x0b,0x40,0x70,0x69,0x74,0x63,0x68,0x69,0x69,0x3a,0x0c,0x40,0x76,0x6f,0x6c,0x75,0x6d,0x65,0x69,0x55))
      ChangeInventoryArmor(1592,0,0,1,false)
      0()
     EndIf()
     ShowMessageFace("grangold_fc2",0,0,2,55)
     ShowMessage("\\n<King of Grangold>I hear you're going to meet with the fire spirit Salamander next. According to legend, she resides in Gold Volcano.")
     ShowMessageFace("grangold_fc2",0,0,2,56)
     ShowMessage("\\n<King of Grangold>That's an extremely harsh dungeon, though. Be prepared to deal with the lava that flows within.")
     ShowMessageFace("grangold_fc2",0,0,2,57)
     ShowMessage("\\n<King of Grangold>On our end, we continue to monitor the Monster Lord's army for signs of the invasion. I should be able to contact you if anything new develops.")
     PictureClear(5)
     EndEventProcessing()
     0()
    EndIf()
    0()
   EndIf()
   ShowMessageFace("grangold_fc2",0,0,2,58)
   ShowMessage("\\n<King of Grangold>If you want further details, ask my cabinet ministers. They should be able to provide better advice than me.")
   ShowMessageFace("grangold_fc2",0,0,2,59)
   ShowMessage("\\n<King of Grangold>Anyway, thanks for the help. I'll be here preparing for the Monster Lord's invasion.")
   PictureClear(5)
   EndEventProcessing()
   0()
  EndIf()
  If(1,1001,0,28,0)
   PictureDisplay(5,"80_grangold_st11",0,0,0,0,100,100,0,0)
   PictureMove(5,null,0,0,0,0,100,100,255,0,30,true)
   If(1,1065,0,3,1)
    If(1,1066,0,5,1)
     If(0,2277,1)
      ChangeSwitch(2277,2277,0)
      ShowMessageFace("grangold_fc2",0,0,2,60)
      ShowMessage("\\n<King of Grangold>Thank you for taking care of the issues at Succubus Village and Lady's Village. As a reward, let me present you with a holy spear that has been passed down in the Grangold royal family.")
      250(bytes(0x04,0x08,0x6f,0x3a,0x0c,0x52,0x50,0x47,0x3a,0x3a,0x53,0x45,0x08,0x3a,0x0a,0x40,0x6e,0x61,0x6d,0x65,0x49,0x22,0x0a,0x49,0x74,0x65,0x6d,0x31,0x06,0x3a,0x06,0x45,0x54,0x3a,0x0b,0x40,0x70,0x69,0x74,0x63,0x68,0x69,0x69,0x3a,0x0c,0x40,0x76,0x6f,0x6c,0x75,0x6d,0x65,0x69,0x55))
      ChangeInventoryWeapon(227,0,0,1,false)
      ShowMessageFace("grangold_fc2",0,0,2,61)
      ShowMessage("\\n<King of Grangold>In addition, take this accessory that allows you to dual wield. Any warrior-type class will be able to wreak carnage with it equipped.")
      250(bytes(0x04,0x08,0x6f,0x3a,0x0c,0x52,0x50,0x47,0x3a,0x3a,0x53,0x45,0x08,0x3a,0x0a,0x40,0x6e,0x61,0x6d,0x65,0x49,0x22,0x0a,0x49,0x74,0x65,0x6d,0x31,0x06,0x3a,0x06,0x45,0x54,0x3a,0x0b,0x40,0x70,0x69,0x74,0x63,0x68,0x69,0x69,0x3a,0x0c,0x40,0x76,0x6f,0x6c,0x75,0x6d,0x65,0x69,0x55))
      ChangeInventoryArmor(1592,0,0,1,false)
      0()
     EndIf()
     0()
    EndIf()
    0()
   EndIf()
   ShowMessageFace("grangold_fc2",0,0,2,62)
   ShowMessage("\\n<King of Grangold>I hear you're going to investigate the western Tartarus rift. Please be careful, as that desert is extremely dangerous.")
   ShowMessageFace("grangold_fc2",0,0,2,63)
   ShowMessage("\\n<King of Grangold>On our end, we continue to monitor the Monster Lord's army for signs of the invasion. I should be able to contact you if anything new develops.")
   PictureClear(5)
   EndEventProcessing()
   0()
  EndIf()
  If(1,1001,0,29,0)
   PictureDisplay(5,"80_grangold_st11",0,0,0,0,100,100,0,0)
   PictureMove(5,null,0,0,0,0,100,100,255,0,30,true)
   If(2,"B",1)
    ChangeSelfSwitch("B",0)
    ShowMessageFace("grangold_fc2",0,0,2,64)
    ShowMessage("\\n<King of Grangold>Hey, welcome to Grangold Palace.")
    If(0,6,0)
     ShowMessageFace("sonia_fc3",2,0,2,65)
     ShowMessage("\\n<Sonya>I thought you were in our party! But you're here too!")
     0()
    Else()
     ShowMessageFace("ruka_fc1",0,0,2,66)
     ShowMessage("\\n<Luka>Huh? Aren't you in our party...")
     0()
    EndIf()
    ShowMessageFace("grangold_fc2",0,0,2,67)
    ShowMessage("\\n<King of Grangold>I used magic to split myself in two. I can control both bodies, but not well enough to make use of the ability in combat.")
    ShowMessageFace("grangold_fc2",0,0,2,68)
    ShowMessage("\\n<King of Grangold>Well, anyway...")
    0()
   EndIf()
   ShowMessageFace("grangold_fc2",0,0,2,69)
   ShowMessage("\\n<King of Grangold>I succumbed to anger and lashed out...\nSo, many of my citizens have seen my new appearance.")
   ShowMessageFace("grangold_fc2",0,0,2,70)
   ShowMessage("\\n<King of Grangold>Yet as of now, they don't know that I am their king. I suppose it's only a matter of time before it is revealed.")
   ShowMessageFace("grangold_fc2",0,0,2,71)
   ShowMessage("\\n<King of Grangold>Will my people accept me as I am?")
   PictureClear(5)
   EndEventProcessing()
   0()
  EndIf()
  If(1,1001,0,30,0)
   PictureDisplay(5,"80_grangold_st11",0,0,0,0,100,100,0,0)
   PictureMove(5,null,0,0,0,0,100,100,255,0,30,true)
   If(2,"B",1)
    ChangeSelfSwitch("B",0)
    ShowMessageFace("grangold_fc2",0,0,2,72)
    ShowMessage("\\n<King of Grangold>Hey, welcome to Grangold Palace.")
    If(0,6,0)
     ShowMessageFace("sonia_fc3",2,0,2,73)
     ShowMessage("\\n<Sonya>I thought you were in our party! But you're here too!")
     0()
    Else()
     ShowMessageFace("ruka_fc1",0,0,2,74)
     ShowMessage("\\n<Luka>Huh? Aren't you in our party...")
     0()
    EndIf()
    ShowMessageFace("grangold_fc2",0,0,2,75)
    ShowMessage("\\n<King of Grangold>I used magic to split myself in two. I can control both bodies, but not well enough to make use of the ability in combat.")
    0()
   EndIf()
   If(1,1072,0,1,0)
    ShowMessageFace("grangold_fc2",0,0,2,76)
    ShowMessage("\\n<King of Grangold>We're under attack by the Spider Army, under command by the Spider Princess. She's leading them from the Land of Solitude.")
    ShowMessageFace("grangold_fc2",0,0,2,77)
    ShowMessage("\\n<King of Grangold>Please use your power to defeat the Spider Princess.\nThe Land of Solitude is directly north of the giant rift in the center of the inland sea.")
    PictureClear(5)
    EndEventProcessing()
    0()
   EndIf()
   If(1,1072,0,2,0)
    ChangeVariable(1072,1072,0,0,3)
    ShowMessageFace("grangold_fc2",0,0,2,78)
    ShowMessage("\\n<King of Grangold>I heard you defeated the Spider Princess. Reports from the front lines state that the Spider Army is in retreat.")
    ShowMessageFace("grangold_fc2",0,0,2,79)
    ShowMessage("\\n<King of Grangold>Let me give you this as thanks from the entire country. This treasure from the First Monster Lord will surely be useful to you.")
    250(bytes(0x04,0x08,0x6f,0x3a,0x0c,0x52,0x50,0x47,0x3a,0x3a,0x53,0x45,0x08,0x3a,0x0a,0x40,0x6e,0x61,0x6d,0x65,0x49,0x22,0x0a,0x49,0x74,0x65,0x6d,0x31,0x06,0x3a,0x06,0x45,0x54,0x3a,0x0b,0x40,0x70,0x69,0x74,0x63,0x68,0x69,0x69,0x3a,0x0c,0x40,0x76,0x6f,0x6c,0x75,0x6d,0x65,0x69,0x55))
    ChangeInventory_Item(626,0,0,1)
    ChangeSwitch(2311,2311,0)
    If(0,4,0)
     ShowMessageFace("alice_fc5",1,0,2,80)
     ShowMessage("\\n<Alice>This is one of the job change items that allows access to the most prestigious jobs. With this, we can take on the highest mage-type jobs.")
     0()
    EndIf()
    If(0,5,0)
     ShowMessageFace("iriasu_fc4",1,0,2,81)
     ShowMessage("\\n<Ilias>This is one of the job change items that allows access to the most prestigious jobs. With this, we can take on the highest mage-type jobs.")
     0()
    EndIf()
    ChangeVariable(1079,1079,0,0,3)
    RunCommonEvent(329)
    If(0,2274,0)
     EndEventProcessing()
     0()
    EndIf()
    ShowMessageFace("grangold_fc2",0,0,2,82)
    ShowMessage("\\n<King of Grangold>Other countries are still under attack by monster queens. Please defeat them and help us through this crisis.")
    PictureClear(5)
    EndEventProcessing()
    0()
   EndIf()
   If(1,1072,0,3,1)
    ShowMessageFace("grangold_fc2",0,0,2,83)
    ShowMessage("\\n<King of Grangold>Other countries are still under attack by monster queens. Please defeat them and help us through this crisis.")
    PictureClear(5)
    EndEventProcessing()
    0()
   EndIf()
   0()
  EndIf()
  If(1,1001,0,31,1)
   PictureDisplay(5,"80_grangold_st11",0,0,0,0,100,100,0,0)
   PictureMove(5,null,0,0,0,0,100,100,255,0,30,true)
   ShowMessageFace("grangold_fc2",0,0,2,84)
   ShowMessage("\\n<King of Grangold>We're trusting you with the attack on the Monster Lord's castle. If you need my help, just add me to your party.")
   PictureClear(5)
   EndEventProcessing()
   0()
  EndIf()
  0()



EVENT   30
 PAGE   1
  281(1)
  250(bytes(0x04,0x08,0x6f,0x3a,0x0c,0x52,0x50,0x47,0x3a,0x3a,0x53,0x45,0x08,0x3a,0x0a,0x40,0x6e,0x61,0x6d,0x65,0x49,0x22,0x09,0x4d,0x6f,0x76,0x65,0x06,0x3a,0x06,0x45,0x54,0x3a,0x0b,0x40,0x70,0x69,0x74,0x63,0x68,0x69,0x69,0x3a,0x0c,0x40,0x76,0x6f,0x6c,0x75,0x6d,0x65,0x69,0x55))
  TeleportPlayer(0,37,63,14,0,0)
  0()



EVENT   31
 PAGE   1
  If(1,1001,0,26,0)
   ShowMessageFace("",1,0,2,1)
   ShowMessage("\\n<Minister of Casks>Talk to the king first.")
   EndEventProcessing()
   0()
  EndIf()
  If(1,1001,0,27,0)
   If(1,1065,0,3,1)
    If(1,1066,0,5,1)
     ShowMessageFace("",1,0,2,2)
     ShowMessage("\\n<Minister of Casks>Thank you so much for taking care of those matters. You have our sincerest gratitude.")
     EndEventProcessing()
     0()
    EndIf()
    0()
   EndIf()
   ShowMessageFace("",1,0,2,3)
   ShowMessage("\\n<Minister of Casks>Would you like me to go over the two requests again? I'm just going to repeat what the king told you...")
   ShowChoices(strings("Ask for an explanation","No thanks"),2)
   IfPlayerPicksChoice(0,null)
    If(1,1065,0,2,2)
     ShowMessageFace("",1,0,2,4)
     ShowMessage("\\n<Minister of Casks>First up is the incident at Succubus Village.\nA suspicious monster has appeared and is making demands.")
     0()
    Else()
     ShowMessageFace("",1,0,2,5)
     ShowMessage("\\n<Minister of Casks>You already took care of the incident at Succubus Village. Who would have thought a succubus raid would happen...")
     0()
    EndIf()
    If(1,1066,0,4,2)
     ShowMessageFace("",1,0,2,6)
     ShowMessage("\\n<Minister of Casks>The other request is the incident at Lady's Village. We sent an envoy there, but he was turned away without being allowed to meet with their lord.")
     ShowMessageFace("",1,0,2,7)
     ShowMessage("\\n<Minister of Casks>Lady Cassandra is holed up in her mansion and hasn't been seen. In addition, the maid that turned away our envoy revealed herself to be a monster and threatened him.")
     ShowMessageFace("",1,0,2,8)
     ShowMessage("\\n<Minister of Casks>Lady's Village has long been rumored to have monster connections, but now we know something shady is going on there.")
     0()
    Else()
     ShowMessageFace("",1,0,2,9)
     ShowMessage("\\n<Minister of Casks>You already took care of the incident at Lady's Village. Power struggles between monsters are pretty complicated...")
     0()
    EndIf()
    ShowMessageFace("",1,0,2,10)
    ShowMessage("\\n<Minister of Casks>Any progress you can make would be appreciated.\nOur forces are tied up preparing for the Monster Lord's invasion.")
    ShowMessageFace("",1,0,2,11)
    ShowMessage("\\n<Minister of Casks>Thanks, and good luck.")
    EndEventProcessing()
    0()
   IfPlayerPicksChoice(1,null)
    EndEventProcessing()
    0()
   404()
   0()
  EndIf()
  If(1,1001,0,28,0)
   ShowMessageFace("",1,0,2,12)
   ShowMessage("\\n<Minister of Casks>The general populace still doesn't know about the king's present appearance. Under the pretext of receiving medical care, he hasn't made any public appearances.")
   EndEventProcessing()
   0()
  EndIf()
  If(1,1001,0,29,1)
   ShowMessageFace("",1,0,2,13)
   ShowMessage("\\n<Minister of Casks>The people witnessed their king battling the Monster Lord's army. Now rumors are spreading about a mysterious golem...")
   EndEventProcessing()
   0()
  EndIf()
  0()



EVENT   32
 PAGE   1
  If(1,1001,0,26,0)
   ShowMessageFace("",1,0,2,1)
   ShowMessage("\\n<Minister of Pots>His Majesty has a request for you. Please talk to him first.")
   EndEventProcessing()
   0()
  EndIf()
  If(1,1001,0,27,0)
   ShowMessageFace("",1,0,2,2)
   ShowMessage("\\n<Minister of Pots>Would you like me to explain the features of the Gold region? I'm just going to repeat what the king told you...")
   ShowChoices(strings("Ask for an explanation","No thanks"),2)
   IfPlayerPicksChoice(0,null)
    ShowMessageFace("",1,0,2,3)
    ShowMessage("\\n<Minister of Pots>The Gold region is divided into three districts: eastern, central, and western. The palace where we are now is part of the eastern district.")
    ShowMessageFace("",1,0,2,4)
    ShowMessage("\\n<Minister of Pots>If you travel through the checkpoint to the west of here, you'll be in the central district.")
    ShowMessageFace("",1,0,2,5)
    ShowMessage("\\n<Minister of Pots>The largest town in the central district is Gold Port, but the region also contains smaller villages ruled by various lords.")
    ShowMessageFace("",1,0,2,6)
    ShowMessage("\\n<Minister of Pots>If you travel further west, you'll reach the western district, a place people generally avoid.")
    ShowMessageFace("",1,0,2,7)
    ShowMessage("\\n<Minister of Pots>If you cross the Nightmare Wasteland that divides the central and western districts, you'll find a vast, inhospitable desert.")
    ShowMessageFace("",1,0,2,8)
    ShowMessage("\\n<Minister of Pots>The Tartarus rift is there, but it's difficult to get there. As a result, the place hasn't been investigated at all.")
    ShowMessageFace("",1,0,2,9)
    ShowMessage("\\n<Minister of Pots>That's all I've got. Just make sure to prepare enough before heading to Western Gold.")
    EndEventProcessing()
    0()
   IfPlayerPicksChoice(1,null)
    EndEventProcessing()
    0()
   404()
   0()
  EndIf()
  If(1,1001,0,28,0)
   ShowMessageFace("",1,0,2,10)
   ShowMessage("\\n<Minister of Pots>We haven't seen the Monster Lord's army making any big moves, so it's hard to tell what they're planning to do...")
   EndEventProcessing()
   0()
  EndIf()
  If(1,1001,0,29,1)
   ShowMessageFace("",1,0,2,11)
   ShowMessage("\\n<Minister of Pots>Hatred for monsters is on the rise among the general populace. At this rate, is a confrontation between humans and monsters inevitable?")
   EndEventProcessing()
   0()
  EndIf()
  0()



EVENT   33
 PAGE   1
  If(1,1001,0,26,0)
   ShowMessageFace("",1,0,2,1)
   ShowMessage("\\n<Minister of Shelves>Please talk to the king first.")
   EndEventProcessing()
   0()
  EndIf()
  If(1,1001,0,27,0)
   ShowMessageFace("",1,0,2,2)
   ShowMessage("\\n<Minister of Shelves>Would you like directions to places in the Gold region?")
   ShowChoices(strings("Ask for directions","No thanks"),2)
   IfPlayerPicksChoice(0,null)
    ShowMessageFace("",1,0,2,3)
    ShowMessage("\\n<Minister of Shelves>If you go west from here, you'll reach a checkpoint. Go through there and travel northeast to reach the port city of Gold Port.")
    ShowMessageFace("",1,0,2,4)
    ShowMessage("\\n<Minister of Shelves>I'd recommend stopping by to rest there since it's a long journey further west.")
    ShowMessageFace("",1,0,2,5)
    ShowMessage("\\n<Minister of Shelves>So going west from Gold Port and across a hilly area, you'll find Succubus Village.")
    ShowMessageFace("",1,0,2,6)
    ShowMessage("\\n<Minister of Shelves>Northwest of Succubus Village is Lady's Village. Also in that area is the Nightmare Wasteland that you have to traverse to reach Western Gold.")
    ShowMessageFace("",1,0,2,7)
    ShowMessage("\\n<Minister of Shelves>Once through the wasteland, you'll reach a vast uninhabited desert.")
    ShowMessageFace("",1,0,2,8)
    ShowMessage("\\n<Minister of Shelves>The Tartarus rift is in the western part of that desert, but be careful because there are strong monsters all over that area.")
    ShowMessageFace("",1,0,2,9)
    ShowMessage("\\n<Minister of Shelves>That's all I can think of. Please take care of yourself in our country.")
    EndEventProcessing()
    0()
   IfPlayerPicksChoice(1,null)
    EndEventProcessing()
    0()
   404()
   0()
  EndIf()
  If(1,1001,0,28,0)
   ShowMessageFace("",1,0,2,10)
   ShowMessage("\\n<Minister of Shelves>We can't hide the king inside here forever, but I have no idea when would make a good time to reveal him...")
   EndEventProcessing()
   0()
  EndIf()
  If(1,1001,0,29,1)
   ShowMessageFace("",1,0,2,11)
   ShowMessage("\\n<Minister of Shelves>The King's current appearance was revealed to the people, but no one has realized it was actually him...")
   EndEventProcessing()
   0()
  EndIf()
  0()



EVENT   34
 PAGE   1
  If(1,1063,0,12,2)
   ShowMessageFace("",0,0,2,1)
   ShowMessage("\\n<Priest>Eheh... Praaaaaaayer...")
   ShowChoices(strings("Pray","Nothing"),2)
   IfPlayerPicksChoice(0,null)
    ChangeVariable(1002,1002,0,0,31)
    ShowMessageFace("",0,0,2,2)
    ShowMessage("\\n<Priest>Your guiding bond... Heheh, my queen...")
    0()
   IfPlayerPicksChoice(1,null)
    ShowMessageFace("",0,0,2,3)
    ShowMessage("\\n<Priest>Eheh...")
    0()
   404()
   EndEventProcessing()
   0()
  EndIf()
  If(1,1063,0,13,1)
   ShowMessageFace("",0,0,2,4)
   ShowMessage("\\n<Priest>Welcome to the private house church.\nWhat can I do for you?")
   ShowChoices(strings("Pray","Nothing"),2)
   IfPlayerPicksChoice(0,null)
    ChangeVariable(1002,1002,0,0,31)
    ShowMessageFace("",0,0,2,5)
    ShowMessage("\\n<Priest>Well then, let us pray to Ilias. ...there, you should feel a bond drawing you to this place.")
    ShowMessageFace("",0,0,2,6)
    ShowMessage("\\n<Priest>If something were to happen to you on your journey, the bond should lead you back here. May Ilias watch over you...")
    0()
   IfPlayerPicksChoice(1,null)
    ShowMessageFace("",0,0,2,7)
    ShowMessage("\\n<Priest>May Ilias watch over you...")
    0()
   404()
   EndEventProcessing()
   0()
  EndIf()
  0()



EVENT   35
 PAGE   1
  If(1,1001,0,25,2)
   If(1,1063,0,12,2)
    ShowMessageFace("",0,0,2,1)
    ShowMessage("\\n<若い女性>王妃様……うふ、うふふふっ……")
    EndEventProcessing()
    0()
   EndIf()
   If(1,1063,0,13,1)
    ShowMessageFace("",0,0,2,2)
    ShowMessage("\\n<若い女性>勇者ルカ……どんな方なのでしょう。")
    ShowMessage("みな理性を失っていたせいで目撃者も少なく、そのお姿は謎に包まれています。")
    EndEventProcessing()
    0()
   EndIf()
   0()
  EndIf()
  If(1,1001,0,26,1)
   ShowMessageFace("",0,0,2,3)
   ShowMessage("\\n<若い女性>なんと勇者ルカは、可愛い少年勇者なのだとか。")
   ShowMessage("ここでこうしている場合ではないかもしれませんね……！")
   355("actor_label_jump")
   EndEventProcessing()
   DefineLabel("525")
   ShowMessageFace("sonia_fc1",2,0,2,4)
   ShowMessage("\\n<Sonya>ここで、こうしていなさい……")
   EndEventProcessing()
   0()
  EndIf()
  0()



EVENT   36
 PAGE   1
  If(1,1063,0,12,2)
   ShowMessageFace("",0,0,2,1)
   ShowMessage("\\n<老人>おお、脳が桃色に染められておる……")
   ShowMessage("あぁぁぁ、王妃様……")
   EndEventProcessing()
   0()
  EndIf()
  If(1,1063,0,13,1)
   ShowMessageFace("",0,0,2,2)
   ShowMessage("\\n<老人>あぁ、王妃様……わし、恋をしてしまったわい。")
   EndEventProcessing()
   0()
  EndIf()
  0()



EVENT   37
 PAGE   1
  If(1,1063,0,12,2)
   ShowMessageFace("",0,0,2,1)
   ShowMessage("\\n<Old Woman>王妃様のため、もてなしの準備をしませんと……")
   ShowMessage("ああ、王妃様……")
   EndEventProcessing()
   0()
  EndIf()
  If(1,1063,0,13,1)
   ShowMessageFace("",0,0,2,2)
   ShowMessage("\\n<Old Woman>勇者様に感謝だね。")
   ShowMessage("きっとこのまま、魔王も倒して下さるよ。")
   EndEventProcessing()
   0()
  EndIf()
  0()



EVENT   38
 PAGE   1
  If(1,1063,0,12,2)
   ShowMessageFace("",0,0,2,1)
   ShowMessage("\\n<Soldier>おぉぉぉぉ……")
   ShowMessage("むふ、むふふふふっ……")
   EndEventProcessing()
   0()
  EndIf()
  If(1,1063,0,13,1)
   ShowMessageFace("",0,0,2,2)
   ShowMessage("\\n<Soldier>ゴルド地方のはるか西部には、不毛の砂漠が広がるばかり……")
   ShowMessage("そんな中に、タルタロスがあるという。")
   ShowMessageFace("",0,0,2,3)
   ShowMessage("\\n<Soldier>しかし、調査隊さえ出せないほどの難所だ……")
   ShowMessage("あんな場所に行こうとする奴は、私の知る限りおらんな。")
   EndEventProcessing()
   0()
  EndIf()
  0()



EVENT   39
 PAGE   1
  If(1,1063,0,12,2)
   ShowMessageFace("",0,0,2,1)
   ShowMessage("\\n<Mage>精神を保てないわ……")
   ShowMessage("あぁぁ……王妃様、お助けを……")
   EndEventProcessing()
   0()
  EndIf()
  If(1,1063,0,13,1)
   If(1,1078,0,4,2)
    ShowMessageFace("",0,0,2,2)
    ShowMessage("\\n<Mage>ゴッダールの北東に、大毒沼があるのを知っているかしら？")
    ShowMessage("あそこで遠からず、魔女信仰に関わる儀式が行われるようよ。")
    ShowMessageFace("",0,0,2,3)
    ShowMessage("\\n<Mage>でも、先日行ってみたけど……まだ何も始まっていなかったわ。")
    ShowMessage("まだしばらく、時機を見る必要がありそうね。")
    EndEventProcessing()
    0()
   EndIf()
   If(1,1078,0,5,1)
    ShowMessageFace("",0,0,2,4)
    ShowMessage("\\n<Mage>ゴッダールの北東に、大毒沼があるのを知っているかしら？")
    ShowMessage("あそこで魔女信仰に関わる儀式が行われたのよ。")
    ShowMessageFace("",0,0,2,5)
    ShowMessage("\\n<Mage>私も参加したんだけど、あっけなく敗北したわ。")
    ShowMessage("やっぱり無茶だったみたいね……")
    355("actor_label_jump")
    EndEventProcessing()
    DefineLabel("294")
    ShowMessageFace("emily_fc1",0,0,2,6)
    ShowMessage("\\n<Emily>あんた、いたっけ……？")
    EndEventProcessing()
    0()
   EndIf()
   0()
  EndIf()
  0()



EVENT   40
 PAGE   1
  If(1,1063,0,12,2)
   ShowMessageFace("",0,0,2,1)
   ShowMessage("\\n<神官>はひ……ふひひひひひ……")
   EndEventProcessing()
   0()
  EndIf()
  If(1,1063,0,13,1)
   ShowMessageFace("",0,0,2,2)
   ShowMessage("\\n<神官>高位の神官たる私が、邪術に心を乱されるなど……")
   ShowMessage("一から修行をやり直そうと思っています。")
   355("actor_label_jump")
   EndEventProcessing()
   DefineLabel("123")
   ShowMessageFace("sisccubus_fc1",0,0,2,3)
   ShowMessage("\\n<Christie>私と修行しますか……？")
   ShowMessageFace("",0,0,2,4)
   ShowMessage("\\n<神官>ああ、心が乱される……！")
   EndEventProcessing()
   0()
  EndIf()
  0()



EVENT   41
 PAGE   1
  If(1,1001,0,25,2)
   If(1,1063,0,12,2)
    ShowMessageFace("",0,0,2,1)
    ShowMessage("\\n<Thief>はぅぅ……あは、あははぁ……")
    EndEventProcessing()
    0()
   EndIf()
   If(1,1063,0,13,1)
    If(1,1067,0,6,2)
     ShowMessageFace("",0,0,2,2)
     ShowMessage("\\n<Thief>ゴルドポートで、海賊を名乗る女性に勧誘された。")
     ShowMessage("なんともヤバそうな依頼なので、断ったのだがな。")
     ShowMessageFace("",0,0,2,3)
     ShowMessage("\\n<Thief>興味があるなら、行ってみるといい。")
     ShowMessage("君も相当に腕が立ちそうだから、声を掛けられるんじゃないか？")
     EndEventProcessing()
     0()
    EndIf()
    If(1,1067,0,7,1)
     ShowMessageFace("",0,0,2,4)
     ShowMessage("\\n<Thief>ゴルドポートで、海賊を名乗る女性に勧誘された。")
     ShowMessage("なんともヤバそうな依頼なので、断ったのだがな。")
     EndEventProcessing()
     0()
    EndIf()
    0()
   EndIf()
   0()
  EndIf()
  If(1,1001,0,26,1)
   ShowMessageFace("",0,0,2,5)
   ShowMessage("\\n<Thief>ゴルドポートの方じゃ、魔物排斥運動の動きがあるらしい。")
   ShowMessage("まあ、昨今の情勢を考えれば当然だな……")
   EndEventProcessing()
   0()
  EndIf()
  0()



EVENT   42
 PAGE   1
  If(1,1063,0,12,2)
   ShowMessageFace("",0,0,2,1)
   ShowMessage("\\n<宿屋の女性>うふふっ……15G……")
   ShowMessage("泊まって、うふふふふっ……\\$")
   ShowChoices(strings("はい","いいえ"),2)
   IfPlayerPicksChoice(0,null)
    If(7,15,0)
     125(1,0,15)
     221()
     249(bytes(0x04,0x08,0x6f,0x3a,0x0c,0x52,0x50,0x47,0x3a,0x3a,0x4d,0x45,0x08,0x3a,0x0a,0x40,0x6e,0x61,0x6d,0x65,0x49,0x22,0x08,0x49,0x6e,0x6e,0x06,0x3a,0x06,0x45,0x54,0x3a,0x0b,0x40,0x70,0x69,0x74,0x63,0x68,0x69,0x69,0x3a,0x0c,0x40,0x76,0x6f,0x6c,0x75,0x6d,0x65,0x69,0x69))
     Wait(150)
     314(0,0)
     222()
     0()
    Else()
     ShowMessageFace("",0,0,2,2)
     ShowMessage("\\n<宿屋の女性>お金、ないです……？")
     ShowMessage("うふ、うふふふ……")
     0()
    EndIf()
    0()
   IfPlayerPicksChoice(1,null)
    0()
   404()
   EndEventProcessing()
   0()
  EndIf()
  If(1,1063,0,13,1)
   ShowMessageFace("",0,0,2,3)
   ShowMessage("\\n<宿屋の女性>いらっしゃいませ。")
   ShowMessage("一泊、15Gとなります。\\$")
   ShowChoices(strings("はい","いいえ"),2)
   IfPlayerPicksChoice(0,null)
    If(7,15,0)
     125(1,0,15)
     221()
     249(bytes(0x04,0x08,0x6f,0x3a,0x0c,0x52,0x50,0x47,0x3a,0x3a,0x4d,0x45,0x08,0x3a,0x0a,0x40,0x6e,0x61,0x6d,0x65,0x49,0x22,0x08,0x49,0x6e,0x6e,0x06,0x3a,0x06,0x45,0x54,0x3a,0x0b,0x40,0x70,0x69,0x74,0x63,0x68,0x69,0x69,0x3a,0x0c,0x40,0x76,0x6f,0x6c,0x75,0x6d,0x65,0x69,0x69))
     Wait(150)
     314(0,0)
     222()
     0()
    Else()
     ShowMessageFace("",0,0,2,4)
     ShowMessage("\\n<宿屋の女性>失礼ながら、お金が足りないかと……")
     0()
    EndIf()
    0()
   IfPlayerPicksChoice(1,null)
    0()
   404()
   EndEventProcessing()
   0()
  EndIf()
  0()



EVENT   43
 PAGE   1
  If(1,1063,0,12,2)
   ShowMessageFace("",0,0,2,1)
   ShowMessage("\\n<おばさん>ふへぇ……おおおおおううひぉぉぉ……")
   EndEventProcessing()
   0()
  EndIf()
  If(1,1063,0,13,1)
   ShowMessageFace("",0,0,2,2)
   ShowMessage("\\n<おばさん>西の火山は、炎の精霊様が住む霊山とされているんだけど……")
   ShowMessage("それが言われ出したのも、実はここ数十年の話でね。")
   ShowMessageFace("",0,0,2,3)
   ShowMessage("\\n<おばさん>古代の土地神様や精霊様を崇めるのが、最近のトレンドなんだよ。")
   ShowMessage("イリアス様を拝んだって、大して御利益もないしねぇ……")
   355("actor_label_jump")
   EndEventProcessing()
   DefineLabel("26")
   ShowMessageFace("iriasu_fc4",2,0,2,4)
   ShowMessage("\\n<Ilias>私はもはや、求められていないというのですか……")
   EndEventProcessing()
   0()
  EndIf()
  0()



EVENT   44
 PAGE   1
  If(1,1063,0,12,2)
   ShowMessageFace("",0,0,2,1)
   ShowMessage("\\n<若い女性>うへぇ！！")
   EndEventProcessing()
   0()
  EndIf()
  If(1,1063,0,13,1)
   ShowMessageFace("",0,0,2,2)
   ShowMessage("\\n<若い女性>魔王の宣戦布告は、皆に不安をもたらしています。")
   ShowMessage("このまま世界は、魔王に支配されてしまうのでしょうか……")
   EndEventProcessing()
   0()
  EndIf()
  0()



EVENT   45
 PAGE   1
  If(1,1063,0,12,2)
   ShowMessageFace("",0,0,2,1)
   ShowMessage("\\n<Young Girl>あぇあぇあぁぁぁ……！")
   EndEventProcessing()
   0()
  EndIf()
  If(1,1063,0,13,1)
   ShowMessageFace("",0,0,2,2)
   ShowMessage("\\n<Young Girl>西の火山にはね、サラマンダー様が住んでるんだよ。")
   ShowMessage("だから、人間が入っちゃダメなんだって。")
   355("actor_label_jump")
   EndEventProcessing()
   DefineLabel("15")
   ShowMessageFace("salamander_fc1",2,0,2,3)
   ShowMessage("\\n<Salamander>危ないから、やめておけ。")
   EndEventProcessing()
   0()
  EndIf()
  0()



EVENT   46
 PAGE   1
  If(1,1063,0,12,2)
   ShowMessageFace("",0,0,2,1)
   ShowMessage("\\n<Soldier>おうひさまままま。")
   EndEventProcessing()
   0()
  EndIf()
  If(1,1063,0,13,1)
   ShowMessageFace("",0,0,2,2)
   ShowMessage("\\n<Soldier>このネックレス、彼女が欲しがっていたけれど……")
   ShowMessage("今の私の給料じゃ、とてもとても無理だなぁ。")
   EndEventProcessing()
   0()
  EndIf()
  0()



EVENT   47
 PAGE   1
  If(1,1063,0,12,2)
   ShowMessageFace("",0,0,2,1)
   ShowMessage("\\n<旅の戦士>あ、が、ぐ、が！")
   EndEventProcessing()
   0()
  EndIf()
  If(1,1063,0,13,1)
   ShowMessageFace("",0,0,2,2)
   ShowMessage("\\n<旅の戦士>ゴルド地方の中央部は、グランゴルドの支配が届きにくい地域だ。")
   ShowMessage("各地の領主が強い力を持ち、時には中央政府の指示にさえ背くという。")
   ShowMessageFace("",0,0,2,3)
   ShowMessage("\\n<旅の戦士>実際に行ってみると、のどかで良いところなんだがな……")
   ShowMessage("どうにも独立色が濃い土地柄のようだ。")
   EndEventProcessing()
   0()
  EndIf()
  0()



EVENT   48
 PAGE   1
  If(1,1063,0,12,2)
   ShowMessageFace("",0,0,2,1)
   ShowMessage("\\n<若妻>あぁ、夫がおかしく……")
   ShowMessage("わたしも……わたしも……お、おうひさま……")
   EndEventProcessing()
   0()
  EndIf()
  If(1,1063,0,13,1)
   ShowMessageFace("",0,0,2,2)
   ShowMessage("\\n<若妻>私の事を愛してるって言ってたのに、「王妃様ぁぁ」ってどういう事よ！")
   ShowMessageFace("",0,0,2,3)
   ShowMessage("\\n<若い夫>洗脳されたんだから、仕方ないだろう！")
   ShowMessage("お前だって言ってたし！")
   355("actor_label_jump")
   EndEventProcessing()
   DefineLabel("163")
   ShowMessageFace("lily_fc1",3,0,2,4)
   ShowMessage("\\n<Lily>争いなさい……憎しみなさい……")
   ShowMessage("今夜のごはんは美味しいわ……")
   EndEventProcessing()
   0()
  EndIf()
  0()



EVENT   49
 PAGE   1
  If(1,1063,0,12,2)
   ShowMessageFace("",0,0,2,1)
   ShowMessage("\\n<若い夫>おうひさま……お、おおおおおお……！！")
   EndEventProcessing()
   0()
  EndIf()
  If(1,1063,0,13,1)
   ShowMessageFace("",0,0,2,2)
   ShowMessage("\\n<若い夫>まずい、離婚の危機だ……")
   EndEventProcessing()
   0()
  EndIf()
  0()



EVENT   50
 PAGE   1
  If(1,1065,0,3,1)
   If(1,1066,0,5,1)
    PictureDisplay(5,"80_queenant_st01",0,0,0,0,100,100,0,0)
    PictureMove(5,null,0,0,0,0,100,100,255,0,30,true)
    ShowMessageFace("queenant_fc1",0,0,2,1)
    ShowMessage("\\n<Queen Ant>I was invited to stay here in the ware-- I mean, the palace. As part of our alliance, I've offered to use the ant girls as soldiers.")
    ShowMessageFace("queenant_fc1",0,0,2,2)
    ShowMessage("\\n<Queen Ant>By the way, I'm looking for the ultimate nectar. I'd die to be able to taste it...")
    ShowMessageFace("queenant_fc1",0,0,2,3)
    ShowMessage("\\n<Queen Ant>Rumor says that the chief of Yamatai has a small quantity. Oh, what I would do to obtain it...")
    If(8,546)
     ShowMessageFace("queenant_fc1",0,0,2,4)
     ShowMessage("\\n<Queen Ant>...Wait, you have some?\nGive it to me! Please give it to me!")
     ChangeInventory_Item(546,1,0,1)
     ShowMessageFace("",0,0,2,5)
     ShowMessage("Queen Ant practically rips the \\ii[546] out of your hand.")
     ShowMessageFace("queenant_fc1",0,0,2,6)
     ShowMessage("\\n<Queen Ant>So sweet... ♪")
     ShowMessageFace("queenant_fc1",0,0,2,7)
     ShowMessage("\\n<Queen Ant>...Sorry for my behavior there.\nAs an apology and thanks, I'll assist you.")
     ShowMessageFace("queenant_fc1",0,0,2,8)
     ShowMessage("\\n<Queen Ant>Let me join your party and accompany you. Make use of my talents however you wish...")
     PictureClear(5)
     205(0,bytes(0x04,0x08,0x6f,0x3a,0x13,0x52,0x50,0x47,0x3a,0x3a,0x4d,0x6f,0x76,0x65,0x52,0x6f,0x75,0x74,0x65,0x09,0x3a,0x0c,0x40,0x72,0x65,0x70,0x65,0x61,0x74,0x46,0x3a,0x0f,0x40,0x73,0x6b,0x69,0x70,0x70,0x61,0x62,0x6c,0x65,0x46,0x3a,0x0a,0x40,0x77,0x61,0x69,0x74,0x54,0x3a,0x0a,0x40,0x6c,0x69,0x73,0x74,0x5b,0x09,0x6f,0x3a,0x15,0x52,0x50,0x47,0x3a,0x3a,0x4d,0x6f,0x76,0x65,0x43,0x6f,0x6d,0x6d,0x61,0x6e,0x64,0x07,0x3a,0x0a,0x40,0x63,0x6f,0x64,0x65,0x69,0x2a,0x3a,0x10,0x40,0x70,0x61,0x72,0x61,0x6d,0x65,0x74,0x65,0x72,0x73,0x5b,0x00,0x6f,0x3b,0x0a,0x07,0x3b,0x0b,0x69,0x0f,0x3b,0x0c,0x5b,0x00,0x6f,0x3b,0x0a,0x07,0x3b,0x0b,0x69,0x2c,0x3b,0x0c,0x5b,0x00,0x6f,0x3b,0x0a,0x07,0x3b,0x0b,0x69,0x00,0x3b,0x0c,0x5b,0x00))
     355("add_actor_ex(268)")
     ChangeSwitch(2282,2282,0)
     249(bytes(0x04,0x08,0x6f,0x3a,0x0c,0x52,0x50,0x47,0x3a,0x3a,0x4d,0x45,0x08,0x3a,0x0a,0x40,0x6e,0x61,0x6d,0x65,0x49,0x22,0x0c,0x66,0x61,0x6e,0x66,0x61,0x6c,0x65,0x06,0x3a,0x06,0x45,0x54,0x3a,0x0b,0x40,0x70,0x69,0x74,0x63,0x68,0x69,0x69,0x3a,0x0c,0x40,0x76,0x6f,0x6c,0x75,0x6d,0x65,0x69,0x69))
     ShowMessageFace("",0,0,2,9)
     ShowMessage("Antine Ann has joined the party!")
     Wait(60)
     If(0,4,0)
      ShowMessageFace("alice_fc5",0,0,2,10)
      ShowMessage("\\n<Alice>I never knew your real name...\nThat's... quite a name.")
      0()
     EndIf()
     If(0,5,0)
      ShowMessageFace("iriasu_fc4",2,0,2,11)
      ShowMessage("\\n<Ilias>That's your real name?\nQuite a pompous one for a monster...")
      0()
     EndIf()
     ShowMessageFace("queenant_fc1",0,0,2,12)
     ShowMessage("\\n<Antine Ann>It's embarrassing to me as well...\nAs a superior member of the ant race, my mother had high hopes for me.")
     ShowMessageFace("queenant_fc1",0,0,2,13)
     ShowMessage("\\n<Antine Ann>The ant race was originally subordinate to the bee race, but in my generation, our positions have reversed.")
     If(4,41,0)
      ShowMessageFace("stein_fc2",1,0,2,14)
      ShowMessage("\\n<Promestein>The result of a mutation, perhaps...\nI'd love a sample of your blood or one of your feelers.")
      0()
     EndIf()
     EndEventProcessing()
     0()
    Else()
     PictureClear(5)
     EndEventProcessing()
     0()
    EndIf()
    0()
   EndIf()
   0()
  EndIf()
  PictureDisplay(5,"80_queenant_st01",0,0,0,0,100,100,0,0)
  PictureMove(5,null,0,0,0,0,100,100,255,0,30,true)
  ShowMessageFace("queenant_fc1",0,0,2,15)
  ShowMessage("\\n<Queen Ant>I was invited to stay here in the ware-- I mean, the palace. As part of our alliance, I've offered to use the ant girls as soldiers.")
  ShowMessageFace("queenant_fc1",0,0,2,16)
  ShowMessage("\\n<Queen Ant>I'd like to lend you my power in gratitude, but there's too much going on here right now. Ask me again later.")
  PictureClear(5)
  0()
 PAGE   2
  // condition: switch 2282 is ON
  0()



EVENT   51
 PAGE   1
  If(1,1005,0,17,0)
   If(4,66,0)
    If(0,2065,0)
     If(0,2264,0)
      ShowMessageFace("vgirl_fc1",0,0,2,1)
      ShowMessage("\\n<Vanilla>Pleased to meet you. I'm the merchant Vanilla. I'd like to stock high-rank elemental magic stones in my store, but...")
      ShowMessageFace("",0,0,2,2)
      ShowMessage("\\n<Court Magician>You're one of the Hero Luka's party members, so I'd be glad to provide them for free as thanks for your service to our country.")
      ShowMessageFace("vgirl_fc1",0,0,2,3)
      ShowMessage("\\n<Vanilla>Receiving them for free is a poor deal for you, though. I'd prefer to compensate you fairly.")
      ShowMessageFace("",0,0,2,4)
      ShowMessage("\\n<Court Magician>I see. You're quite an honest merchant.\nLet's see... For a month's supply...")
      ShowMessageFace("",0,0,2,5)
      ShowMessage("Negotiations continue...\nVanilla acts like a first-rate merchant in her dealings!")
      ShowMessageFace("",0,0,2,6)
      ShowMessage("\\n<Court Magician>Very good. I approve of those conditions. I'll get in touch with my lab and let them know.")
      ShowMessageFace("vgirl_fc1",0,0,2,7)
      ShowMessage("\\n<Vanilla>Thank you very much!\nPleasure to be doing business with you!")
      249(bytes(0x04,0x08,0x6f,0x3a,0x0c,0x52,0x50,0x47,0x3a,0x3a,0x4d,0x45,0x08,0x3a,0x0a,0x40,0x6e,0x61,0x6d,0x65,0x49,0x22,0x0c,0x66,0x61,0x6e,0x66,0x61,0x6c,0x65,0x06,0x3a,0x06,0x45,0x54,0x3a,0x0b,0x40,0x70,0x69,0x74,0x63,0x68,0x69,0x69,0x3a,0x0c,0x40,0x76,0x6f,0x6c,0x75,0x6d,0x65,0x69,0x69))
      ShowMessageFace("",0,0,2,8)
      ShowMessage("Vanilla can now sell high-rank fire, ice, and lightning stones!")
      ChangeVariable(1005,1005,0,0,18)
      ChangeSwitch(2065,2065,1)
      Wait(60)
      EndEventProcessing()
      0()
     EndIf()
     0()
    EndIf()
    0()
   EndIf()
   0()
  EndIf()
  If(1,1001,0,26,1)
   If(1,1001,0,27,2)
    ShowMessageFace("",0,0,2,9)
    ShowMessage("\\n<Court Magician>I know you have a lot of things to do in this region, but I'd recommend obtaining orichalcum equipment first.")
    ShowMessageFace("",0,0,2,10)
    ShowMessage("\\n<Court Magician>Orichalcum is the strongest equipment available in the Gold region. It'll definitely improve your party's combat potential.")
    ShowMessageFace("",0,0,2,11)
    ShowMessage("\\n<Court Magician>You'll need to obtain orichalcum ore from the lava caverns to the northwest. For more details, you should ask a blacksmith.")
    If(1,1064,0,0,0)
     ChangeVariable(1064,1064,0,0,1)
     0()
    EndIf()
    If(8,156)
     ShowMessageFace("",0,0,2,12)
     ShowMessage("\\n<Court Magician>Oh, my apologies. It looks like you already have some.")
     EndEventProcessing()
     0()
    Else()
     If(0,4,0)
      ShowMessageFace("alice_fc5",2,0,2,13)
      ShowMessage("\\n<Alice>The best equipment in the region?\nWe should probably prioritize getting our hands on some orichalcum.")
      0()
     EndIf()
     If(0,5,0)
      ShowMessageFace("iriasu_fc4",0,0,2,14)
      ShowMessage("\\n<Ilias>Orichalcum equipment is certainly tempting.\nWe should prioritize that above everything else for now.")
      0()
     EndIf()
     0()
    EndIf()
    EndEventProcessing()
    0()
   EndIf()
   0()
  EndIf()
  If(1,1001,0,28,0)
   ShowMessageFace("",0,0,2,15)
   ShowMessage("\\n<Court Magician>Our army doesn't have the resources to spare for developing new golems anymore. We barely have any operational models right now...")
   EndEventProcessing()
   0()
  EndIf()
  If(1,1001,0,29,1)
   ShowMessageFace("",0,0,2,16)
   ShowMessage("\\n<Court Magician>Our mage corps were devastated in the war against the spider girls. It's going to take a long time to rebuild them.")
   EndEventProcessing()
   0()
  EndIf()
  0()



EVENT   52
 PAGE   1
  // condition: variable 1063 >= 13
  ShowMessageFace("",0,0,2,1)
  ShowMessage("\\n<トレジャーハンター>北の海底神殿には、秘宝シルバーオーブが安置されているという。")
  ShowMessage("それを狙っているのだが、海底神殿に行き着く事さえ出来ん……")
  ShowMessageFace("",0,0,2,2)
  ShowMessage("\\n<トレジャーハンター>ゴッダールの北東にある海岸から、海底神殿に行けるという話だが……")
  ShowMessage("何かのアイテムが必要らしく、神殿に導いてもらえないのだ。")
  If(1,1068,0,2,2)
   If(8,514)
    ShowMessageFace("ruka_fc1",0,0,2,3)
    ShowMessage("\\n<Luka>それ、導きの玉じゃないかな……")
    ShowMessage("確かナタリアポートで、マーメイドからもらったよね。")
    If(0,4,0)
     ShowMessageFace("alice_fc5",0,0,2,4)
     ShowMessage("\\n<Alice>それがあれば、ゴルド海岸から海底神殿に行けるな。")
     ShowMessage("余裕があるなら、行ってみてはどうだ？")
     0()
    EndIf()
    If(0,5,0)
     ShowMessageFace("iriasu_fc4",0,0,2,5)
     ShowMessage("\\n<Ilias>それがあれば、ゴルド海岸から海底神殿に行けますよ。")
     ShowMessage("余裕があるなら、襲撃してみてはどうですか？")
     0()
    EndIf()
    0()
   EndIf()
   0()
  EndIf()
  0()



EVENT   53
 PAGE   1
  // condition: variable 1063 >= 13
  ShowMessageFace("",0,0,2,1)
  ShowMessage("\\n<旅の戦士>西部には、サキュバスの村と呼ばれる村落がある。")
  ShowMessage("胸を躍らせ、そこに踏み込んだ我々が見たものは――")
  ShowMessageFace("",0,0,2,2)
  ShowMessage("\\n<旅の戦士>確かに美女は多いものの、ごく普通の村だったよ。")
  ShowMessage("君も、あまり期待してはいけないぞ。")
  0()



EVENT   54
 PAGE   1
  // condition: variable 1063 >= 13
  ShowMessageFace("",0,0,2,1)
  ShowMessage("\\n<旅の女戦士>何を期待してたのよ、まったく……")
  ShowMessage("あそこには淫魔伝承があるだけで、魔物の村ってわけじゃないの。")
  355("actor_label_jump")
  EndEventProcessing()
  DefineLabel("287")
  ShowMessageFace("succubus_fc1",0,0,2,2)
  ShowMessage("\\n<Succubus>そういう事にしておきましょう。")
  EndEventProcessing()
  0()



EVENT   55
 PAGE   1
  // condition: variable 1063 >= 13
  ShowMessageFace("",0,0,2,1)
  ShowMessage("\\n<旅の魔導師>脳まで筋肉の戦士連中はいざ知らず、私は妙な雰囲気を感じたわ。")
  ShowMessage("サキュバスの村、普通の村落とは違うのかも……")
  0()



EVENT   56
 PAGE   1
  // condition: variable 1063 >= 13
  ShowMessageFace("",0,0,2,1)
  ShowMessage("\\n<Man>マスターは、裏社会とも繋がりがあってな……")
  ShowMessage("この酒場、例のゴルド城侵入作戦のアジトになったって話だぜ。")
  ShowMessageFace("",0,0,2,2)
  ShowMessage("\\n<Man>……すでにもう知ってる、って顔だな。")
  0()



EVENT   57
 PAGE   1
  // condition: variable 1063 >= 13
  ShowMessageFace("",0,0,2,1)
  ShowMessage("\\n<あらくれ>裏社会に君臨する帝王か……")
  ShowMessage("俺も、ドン・ファーザーのようになってやるぜ！")
  355("actor_label_jump")
  EndEventProcessing()
  DefineLabel("520")
  ShowMessageFace("lazarus3_fc1",1,0,2,2)
  ShowMessage("\\n<Lazarus>おうおう、頑張んなよ。")
  ShowMessage("無理そうだったら、とっとと諦めなよ。")
  EndEventProcessing()
  DefineLabel("522")
  ShowMessageFace("merlin_fc1",0,0,2,3)
  ShowMessage("\\n<Merlin>あまり感心できないかと……")
  EndEventProcessing()
  0()



EVENT   58
 PAGE   1
  // condition: variable 1063 >= 13
  0()



EVENT   59
 PAGE   1
  // condition: variable 1063 >= 13
  0()



EVENT   60
 PAGE   1
  // condition: variable 1063 >= 13
  0()



EVENT   61
 PAGE   1
  // condition: variable 1063 >= 13
  0()



EVENT   62
 PAGE   1
  // condition: variable 1063 >= 13
  0()



EVENT   63
 PAGE   1
  // condition: variable 1063 >= 13
  0()



EVENT   64
 PAGE   1
  // condition: variable 1063 >= 13
  0()



EVENT   65
 PAGE   1
  250(bytes(0x04,0x08,0x6f,0x3a,0x0c,0x52,0x50,0x47,0x3a,0x3a,0x53,0x45,0x08,0x3a,0x0a,0x40,0x6e,0x61,0x6d,0x65,0x49,0x22,0x0a,0x49,0x74,0x65,0x6d,0x31,0x06,0x3a,0x06,0x45,0x54,0x3a,0x0b,0x40,0x70,0x69,0x74,0x63,0x68,0x69,0x69,0x3a,0x0c,0x40,0x76,0x6f,0x6c,0x75,0x6d,0x65,0x69,0x55))
  ChangeSelfSwitch("A",0)
  ChangeInventory_Item(32,0,0,1)
  0()
 PAGE   2
  // condition: self-switch A is ON
  0()



EVENT   66
 PAGE   1
  250(bytes(0x04,0x08,0x6f,0x3a,0x0c,0x52,0x50,0x47,0x3a,0x3a,0x53,0x45,0x08,0x3a,0x0a,0x40,0x6e,0x61,0x6d,0x65,0x49,0x22,0x0a,0x49,0x74,0x65,0x6d,0x31,0x06,0x3a,0x06,0x45,0x54,0x3a,0x0b,0x40,0x70,0x69,0x74,0x63,0x68,0x69,0x69,0x3a,0x0c,0x40,0x76,0x6f,0x6c,0x75,0x6d,0x65,0x69,0x55))
  ChangeSelfSwitch("A",0)
  ChangeInventory_Item(19,0,0,1)
  0()
 PAGE   2
  // condition: self-switch A is ON
  0()



EVENT   67
 PAGE   1
  250(bytes(0x04,0x08,0x6f,0x3a,0x0c,0x52,0x50,0x47,0x3a,0x3a,0x53,0x45,0x08,0x3a,0x0a,0x40,0x6e,0x61,0x6d,0x65,0x49,0x22,0x0a,0x49,0x74,0x65,0x6d,0x31,0x06,0x3a,0x06,0x45,0x54,0x3a,0x0b,0x40,0x70,0x69,0x74,0x63,0x68,0x69,0x69,0x3a,0x0c,0x40,0x76,0x6f,0x6c,0x75,0x6d,0x65,0x69,0x55))
  ChangeSelfSwitch("A",0)
  ChangeInventory_Item(105,0,0,1)
  0()
 PAGE   2
  // condition: self-switch A is ON
  0()



EVENT   68
 PAGE   1
  250(bytes(0x04,0x08,0x6f,0x3a,0x0c,0x52,0x50,0x47,0x3a,0x3a,0x53,0x45,0x08,0x3a,0x0a,0x40,0x6e,0x61,0x6d,0x65,0x49,0x22,0x0a,0x49,0x74,0x65,0x6d,0x31,0x06,0x3a,0x06,0x45,0x54,0x3a,0x0b,0x40,0x70,0x69,0x74,0x63,0x68,0x69,0x69,0x3a,0x0c,0x40,0x76,0x6f,0x6c,0x75,0x6d,0x65,0x69,0x55))
  ChangeSelfSwitch("A",0)
  ChangeInventory_Item(11,0,0,1)
  0()
 PAGE   2
  // condition: self-switch A is ON
  0()



EVENT   69
 PAGE   1
  250(bytes(0x04,0x08,0x6f,0x3a,0x0c,0x52,0x50,0x47,0x3a,0x3a,0x53,0x45,0x08,0x3a,0x0a,0x40,0x6e,0x61,0x6d,0x65,0x49,0x22,0x0a,0x49,0x74,0x65,0x6d,0x31,0x06,0x3a,0x06,0x45,0x54,0x3a,0x0b,0x40,0x70,0x69,0x74,0x63,0x68,0x69,0x69,0x3a,0x0c,0x40,0x76,0x6f,0x6c,0x75,0x6d,0x65,0x69,0x55))
  ChangeSelfSwitch("A",0)
  ChangeInventory_Item(430,0,0,1)
  0()
 PAGE   2
  // condition: self-switch A is ON
  0()



EVENT   70
 PAGE   1
  250(bytes(0x04,0x08,0x6f,0x3a,0x0c,0x52,0x50,0x47,0x3a,0x3a,0x53,0x45,0x08,0x3a,0x0a,0x40,0x6e,0x61,0x6d,0x65,0x49,0x22,0x0a,0x49,0x74,0x65,0x6d,0x31,0x06,0x3a,0x06,0x45,0x54,0x3a,0x0b,0x40,0x70,0x69,0x74,0x63,0x68,0x69,0x69,0x3a,0x0c,0x40,0x76,0x6f,0x6c,0x75,0x6d,0x65,0x69,0x55))
  ChangeSelfSwitch("A",0)
  ChangeInventory_Item(4,0,0,1)
  0()
 PAGE   2
  // condition: self-switch A is ON
  0()



EVENT   71
 PAGE   1
  250(bytes(0x04,0x08,0x6f,0x3a,0x0c,0x52,0x50,0x47,0x3a,0x3a,0x53,0x45,0x08,0x3a,0x0a,0x40,0x6e,0x61,0x6d,0x65,0x49,0x22,0x0a,0x49,0x74,0x65,0x6d,0x31,0x06,0x3a,0x06,0x45,0x54,0x3a,0x0b,0x40,0x70,0x69,0x74,0x63,0x68,0x69,0x69,0x3a,0x0c,0x40,0x76,0x6f,0x6c,0x75,0x6d,0x65,0x69,0x55))
  ChangeSelfSwitch("A",0)
  ChangeInventory_Item(105,0,0,1)
  0()
 PAGE   2
  // condition: self-switch A is ON
  0()



EVENT   72
 PAGE   1
  250(bytes(0x04,0x08,0x6f,0x3a,0x0c,0x52,0x50,0x47,0x3a,0x3a,0x53,0x45,0x08,0x3a,0x0a,0x40,0x6e,0x61,0x6d,0x65,0x49,0x22,0x0a,0x49,0x74,0x65,0x6d,0x31,0x06,0x3a,0x06,0x45,0x54,0x3a,0x0b,0x40,0x70,0x69,0x74,0x63,0x68,0x69,0x69,0x3a,0x0c,0x40,0x76,0x6f,0x6c,0x75,0x6d,0x65,0x69,0x55))
  ChangeSelfSwitch("A",0)
  ChangeInventory_Item(29,0,0,1)
  0()
 PAGE   2
  // condition: self-switch A is ON
  0()



EVENT   73
 PAGE   1
  250(bytes(0x04,0x08,0x6f,0x3a,0x0c,0x52,0x50,0x47,0x3a,0x3a,0x53,0x45,0x08,0x3a,0x0a,0x40,0x6e,0x61,0x6d,0x65,0x49,0x22,0x0a,0x49,0x74,0x65,0x6d,0x31,0x06,0x3a,0x06,0x45,0x54,0x3a,0x0b,0x40,0x70,0x69,0x74,0x63,0x68,0x69,0x69,0x3a,0x0c,0x40,0x76,0x6f,0x6c,0x75,0x6d,0x65,0x69,0x55))
  ChangeSelfSwitch("A",0)
  ChangeInventory_Item(19,0,0,1)
  0()
 PAGE   2
  // condition: self-switch A is ON
  0()



EVENT   74
 PAGE   1
  241(bytes(0x04,0x08,0x6f,0x3a,0x0d,0x52,0x50,0x47,0x3a,0x3a,0x42,0x47,0x4d,0x08,0x3a,0x0a,0x40,0x6e,0x61,0x6d,0x65,0x49,0x22,0x0a,0x6d,0x75,0x72,0x61,0x33,0x06,0x3a,0x06,0x45,0x54,0x3a,0x0c,0x40,0x76,0x6f,0x6c,0x75,0x6d,0x65,0x69,0x69,0x3a,0x0b,0x40,0x70,0x69,0x74,0x63,0x68,0x69,0x69))
  TemporaryRemoveEvent()
  0()
 PAGE   2
  // condition: variable 1063 >= 13
  0()
