
DisplayName "Port Natalia"



EVENT   1
 PAGE   1
  0()



EVENT   2
 PAGE   1
  0()



EVENT   3
 PAGE   1
  0()



EVENT   4
 PAGE   1
  0()



EVENT   5
 PAGE   1
  If(1,1001,0,29,2)
   ShowMessageFace("",0,0,2,1)
   ShowMessage("\\n<Youth>My girlfriend is this extremely cute mermaid. In this town, it's normal to have a mermaid lover.")
   355("actor_label_jump")
   EndEventProcessing()
   DefineLabel("163")
   ShowMessageFace("lily_fc1",5,0,2,2)
   ShowMessage("\\n<Lily>Tentacles... *squirm* *squirm*")
   ShowMessageFace("",0,0,2,3)
   ShowMessage("\\n<Youth>Woah, what the hell!?")
   ShowMessageFace("lily_fc1",6,0,2,4)
   ShowMessage("\\n<Lily>You two are an eyesore.")
   EndEventProcessing()
   0()
  EndIf()
  If(1,1001,0,30,1)
   ShowMessageFace("",0,0,2,5)
   ShowMessage("\\n<マーメイド>ダーリン、人魚を嫌ったりしない？")
   ShowMessageFace("",0,0,2,6)
   ShowMessage("\\n<Youth>もちろんだよ、ハニー。")
   ShowMessageFace("",0,0,2,7)
   ShowMessage("\\n<Youth>……でも叔母がサン・イリア襲撃で大怪我をして、人魚を憎んでいるんだ。")
   ShowMessage("すまないけど、僕の家族には会わせられない……")
   EndEventProcessing()
   0()
  EndIf()
  0()



EVENT   6
 PAGE   1
  If(1,1001,0,29,2)
   If(1,1016,0,1,2)
    ShowMessageFace("",0,0,2,1)
    ShowMessage("\\n<Mermaid>Those disappearances are so scary. Darling, you'll protect me, right? ♪")
    0()
   EndIf()
   If(1,1016,0,2,1)
    ShowMessageFace("",0,0,2,2)
    ShowMessage("\\n<Mermaid>Apparently the disappearances were resolved. Darling, let's go on a date to the coast. ♪")
    0()
   EndIf()
   355("actor_label_jump")
   EndEventProcessing()
   DefineLabel("163")
   ShowMessageFace("lily_fc1",5,0,2,3)
   ShowMessage("\\n<Lily>Tentacles... *squirm* *squirm*")
   ShowMessageFace("",0,0,2,4)
   ShowMessage("\\n<Mermaid>Woah, what the hell!?")
   ShowMessageFace("lily_fc1",6,0,2,5)
   ShowMessage("\\n<Lily>You two are an eyesore.")
   EndEventProcessing()
   0()
  EndIf()
  If(1,1001,0,30,1)
   ShowMessageFace("",0,0,2,6)
   ShowMessage("\\n<マーメイド>ダーリン、人魚を嫌ったりしない？")
   ShowMessageFace("",0,0,2,7)
   ShowMessage("\\n<Youth>もちろんだよ、ハニー。")
   ShowMessageFace("",0,0,2,8)
   ShowMessage("\\n<Youth>……でも叔母がサン・イリア襲撃で大怪我をして、人魚を憎んでいるんだ。")
   ShowMessage("すまないけど、僕の家族には会わせられない……")
   EndEventProcessing()
   0()
  EndIf()
  0()



EVENT   7
 PAGE   1
  ShowMessageFace("",0,0,2,1)
  ShowMessage("Luka leaves his party members outside and enters the house alone...")
  216(1)
  250(bytes(0x04,0x08,0x6f,0x3a,0x0c,0x52,0x50,0x47,0x3a,0x3a,0x53,0x45,0x08,0x3a,0x0a,0x40,0x6e,0x61,0x6d,0x65,0x49,0x22,0x0a,0x4f,0x70,0x65,0x6e,0x31,0x06,0x3a,0x06,0x45,0x54,0x3a,0x0b,0x40,0x70,0x69,0x74,0x63,0x68,0x69,0x69,0x3a,0x0c,0x40,0x76,0x6f,0x6c,0x75,0x6d,0x65,0x69,0x55))
  205(0,bytes(0x04,0x08,0x6f,0x3a,0x13,0x52,0x50,0x47,0x3a,0x3a,0x4d,0x6f,0x76,0x65,0x52,0x6f,0x75,0x74,0x65,0x09,0x3a,0x0c,0x40,0x72,0x65,0x70,0x65,0x61,0x74,0x46,0x3a,0x0f,0x40,0x73,0x6b,0x69,0x70,0x70,0x61,0x62,0x6c,0x65,0x46,0x3a,0x0a,0x40,0x77,0x61,0x69,0x74,0x54,0x3a,0x0a,0x40,0x6c,0x69,0x73,0x74,0x5b,0x0c,0x6f,0x3a,0x15,0x52,0x50,0x47,0x3a,0x3a,0x4d,0x6f,0x76,0x65,0x43,0x6f,0x6d,0x6d,0x61,0x6e,0x64,0x07,0x3a,0x0a,0x40,0x63,0x6f,0x64,0x65,0x69,0x16,0x3a,0x10,0x40,0x70,0x61,0x72,0x61,0x6d,0x65,0x74,0x65,0x72,0x73,0x5b,0x00,0x6f,0x3b,0x0a,0x07,0x3b,0x0b,0x69,0x14,0x3b,0x0c,0x5b,0x06,0x69,0x08,0x6f,0x3b,0x0a,0x07,0x3b,0x0b,0x69,0x17,0x3b,0x0c,0x5b,0x00,0x6f,0x3b,0x0a,0x07,0x3b,0x0b,0x69,0x14,0x3b,0x0c,0x5b,0x06,0x69,0x08,0x6f,0x3b,0x0a,0x07,0x3b,0x0b,0x69,0x18,0x3b,0x0c,0x5b,0x00,0x6f,0x3b,0x0a,0x07,0x3b,0x0b,0x69,0x2a,0x3b,0x0c,0x5b,0x00,0x6f,0x3b,0x0a,0x07,0x3b,0x0b,0x69,0x00,0x3b,0x0c,0x5b,0x00))
  205(-1,bytes(0x04,0x08,0x6f,0x3a,0x13,0x52,0x50,0x47,0x3a,0x3a,0x4d,0x6f,0x76,0x65,0x52,0x6f,0x75,0x74,0x65,0x09,0x3a,0x0c,0x40,0x72,0x65,0x70,0x65,0x61,0x74,0x46,0x3a,0x0f,0x40,0x73,0x6b,0x69,0x70,0x70,0x61,0x62,0x6c,0x65,0x54,0x3a,0x0a,0x40,0x77,0x61,0x69,0x74,0x54,0x3a,0x0a,0x40,0x6c,0x69,0x73,0x74,0x5b,0x07,0x6f,0x3a,0x15,0x52,0x50,0x47,0x3a,0x3a,0x4d,0x6f,0x76,0x65,0x43,0x6f,0x6d,0x6d,0x61,0x6e,0x64,0x07,0x3a,0x0a,0x40,0x63,0x6f,0x64,0x65,0x69,0x11,0x3a,0x10,0x40,0x70,0x61,0x72,0x61,0x6d,0x65,0x74,0x65,0x72,0x73,0x5b,0x00,0x6f,0x3b,0x0a,0x07,0x3b,0x0b,0x69,0x00,0x3b,0x0c,0x5b,0x00))
  250(bytes(0x04,0x08,0x6f,0x3a,0x0c,0x52,0x50,0x47,0x3a,0x3a,0x53,0x45,0x08,0x3a,0x0a,0x40,0x6e,0x61,0x6d,0x65,0x49,0x22,0x09,0x4d,0x6f,0x76,0x65,0x06,0x3a,0x06,0x45,0x54,0x3a,0x0b,0x40,0x70,0x69,0x74,0x63,0x68,0x69,0x69,0x3a,0x0c,0x40,0x76,0x6f,0x6c,0x75,0x6d,0x65,0x69,0x55))
  TeleportPlayer(0,142,14,15,0,0)
  0()




EVENT   8
 PAGE   1
  250(bytes(0x04,0x08,0x6f,0x3a,0x0c,0x52,0x50,0x47,0x3a,0x3a,0x53,0x45,0x08,0x3a,0x0a,0x40,0x6e,0x61,0x6d,0x65,0x49,0x22,0x0a,0x4f,0x70,0x65,0x6e,0x31,0x06,0x3a,0x06,0x45,0x54,0x3a,0x0b,0x40,0x70,0x69,0x74,0x63,0x68,0x69,0x69,0x3a,0x0c,0x40,0x76,0x6f,0x6c,0x75,0x6d,0x65,0x69,0x55))
  205(0,bytes(0x04,0x08,0x6f,0x3a,0x13,0x52,0x50,0x47,0x3a,0x3a,0x4d,0x6f,0x76,0x65,0x52,0x6f,0x75,0x74,0x65,0x09,0x3a,0x0c,0x40,0x72,0x65,0x70,0x65,0x61,0x74,0x46,0x3a,0x0f,0x40,0x73,0x6b,0x69,0x70,0x70,0x61,0x62,0x6c,0x65,0x46,0x3a,0x0a,0x40,0x77,0x61,0x69,0x74,0x54,0x3a,0x0a,0x40,0x6c,0x69,0x73,0x74,0x5b,0x0c,0x6f,0x3a,0x15,0x52,0x50,0x47,0x3a,0x3a,0x4d,0x6f,0x76,0x65,0x43,0x6f,0x6d,0x6d,0x61,0x6e,0x64,0x07,0x3a,0x0a,0x40,0x63,0x6f,0x64,0x65,0x69,0x16,0x3a,0x10,0x40,0x70,0x61,0x72,0x61,0x6d,0x65,0x74,0x65,0x72,0x73,0x5b,0x00,0x6f,0x3b,0x0a,0x07,0x3b,0x0b,0x69,0x14,0x3b,0x0c,0x5b,0x06,0x69,0x08,0x6f,0x3b,0x0a,0x07,0x3b,0x0b,0x69,0x17,0x3b,0x0c,0x5b,0x00,0x6f,0x3b,0x0a,0x07,0x3b,0x0b,0x69,0x14,0x3b,0x0c,0x5b,0x06,0x69,0x08,0x6f,0x3b,0x0a,0x07,0x3b,0x0b,0x69,0x18,0x3b,0x0c,0x5b,0x00,0x6f,0x3b,0x0a,0x07,0x3b,0x0b,0x69,0x2a,0x3b,0x0c,0x5b,0x00,0x6f,0x3b,0x0a,0x07,0x3b,0x0b,0x69,0x00,0x3b,0x0c,0x5b,0x00))
  205(-1,bytes(0x04,0x08,0x6f,0x3a,0x13,0x52,0x50,0x47,0x3a,0x3a,0x4d,0x6f,0x76,0x65,0x52,0x6f,0x75,0x74,0x65,0x09,0x3a,0x0c,0x40,0x72,0x65,0x70,0x65,0x61,0x74,0x46,0x3a,0x0f,0x40,0x73,0x6b,0x69,0x70,0x70,0x61,0x62,0x6c,0x65,0x54,0x3a,0x0a,0x40,0x77,0x61,0x69,0x74,0x54,0x3a,0x0a,0x40,0x6c,0x69,0x73,0x74,0x5b,0x07,0x6f,0x3a,0x15,0x52,0x50,0x47,0x3a,0x3a,0x4d,0x6f,0x76,0x65,0x43,0x6f,0x6d,0x6d,0x61,0x6e,0x64,0x07,0x3a,0x0a,0x40,0x63,0x6f,0x64,0x65,0x69,0x11,0x3a,0x10,0x40,0x70,0x61,0x72,0x61,0x6d,0x65,0x74,0x65,0x72,0x73,0x5b,0x00,0x6f,0x3b,0x0a,0x07,0x3b,0x0b,0x69,0x00,0x3b,0x0c,0x5b,0x00))
  250(bytes(0x04,0x08,0x6f,0x3a,0x0c,0x52,0x50,0x47,0x3a,0x3a,0x53,0x45,0x08,0x3a,0x0a,0x40,0x6e,0x61,0x6d,0x65,0x49,0x22,0x09,0x4d,0x6f,0x76,0x65,0x06,0x3a,0x06,0x45,0x54,0x3a,0x0b,0x40,0x70,0x69,0x74,0x63,0x68,0x69,0x69,0x3a,0x0c,0x40,0x76,0x6f,0x6c,0x75,0x6d,0x65,0x69,0x55))
  TeleportPlayer(0,142,38,15,0,0)
  0()



EVENT   9
 PAGE   1
  250(bytes(0x04,0x08,0x6f,0x3a,0x0c,0x52,0x50,0x47,0x3a,0x3a,0x53,0x45,0x08,0x3a,0x0a,0x40,0x6e,0x61,0x6d,0x65,0x49,0x22,0x0a,0x4f,0x70,0x65,0x6e,0x31,0x06,0x3a,0x06,0x45,0x54,0x3a,0x0b,0x40,0x70,0x69,0x74,0x63,0x68,0x69,0x69,0x3a,0x0c,0x40,0x76,0x6f,0x6c,0x75,0x6d,0x65,0x69,0x55))
  205(0,bytes(0x04,0x08,0x6f,0x3a,0x13,0x52,0x50,0x47,0x3a,0x3a,0x4d,0x6f,0x76,0x65,0x52,0x6f,0x75,0x74,0x65,0x09,0x3a,0x0c,0x40,0x72,0x65,0x70,0x65,0x61,0x74,0x46,0x3a,0x0f,0x40,0x73,0x6b,0x69,0x70,0x70,0x61,0x62,0x6c,0x65,0x46,0x3a,0x0a,0x40,0x77,0x61,0x69,0x74,0x54,0x3a,0x0a,0x40,0x6c,0x69,0x73,0x74,0x5b,0x0c,0x6f,0x3a,0x15,0x52,0x50,0x47,0x3a,0x3a,0x4d,0x6f,0x76,0x65,0x43,0x6f,0x6d,0x6d,0x61,0x6e,0x64,0x07,0x3a,0x0a,0x40,0x63,0x6f,0x64,0x65,0x69,0x16,0x3a,0x10,0x40,0x70,0x61,0x72,0x61,0x6d,0x65,0x74,0x65,0x72,0x73,0x5b,0x00,0x6f,0x3b,0x0a,0x07,0x3b,0x0b,0x69,0x14,0x3b,0x0c,0x5b,0x06,0x69,0x08,0x6f,0x3b,0x0a,0x07,0x3b,0x0b,0x69,0x17,0x3b,0x0c,0x5b,0x00,0x6f,0x3b,0x0a,0x07,0x3b,0x0b,0x69,0x14,0x3b,0x0c,0x5b,0x06,0x69,0x08,0x6f,0x3b,0x0a,0x07,0x3b,0x0b,0x69,0x18,0x3b,0x0c,0x5b,0x00,0x6f,0x3b,0x0a,0x07,0x3b,0x0b,0x69,0x2a,0x3b,0x0c,0x5b,0x00,0x6f,0x3b,0x0a,0x07,0x3b,0x0b,0x69,0x00,0x3b,0x0c,0x5b,0x00))
  205(-1,bytes(0x04,0x08,0x6f,0x3a,0x13,0x52,0x50,0x47,0x3a,0x3a,0x4d,0x6f,0x76,0x65,0x52,0x6f,0x75,0x74,0x65,0x09,0x3a,0x0c,0x40,0x72,0x65,0x70,0x65,0x61,0x74,0x46,0x3a,0x0f,0x40,0x73,0x6b,0x69,0x70,0x70,0x61,0x62,0x6c,0x65,0x54,0x3a,0x0a,0x40,0x77,0x61,0x69,0x74,0x54,0x3a,0x0a,0x40,0x6c,0x69,0x73,0x74,0x5b,0x07,0x6f,0x3a,0x15,0x52,0x50,0x47,0x3a,0x3a,0x4d,0x6f,0x76,0x65,0x43,0x6f,0x6d,0x6d,0x61,0x6e,0x64,0x07,0x3a,0x0a,0x40,0x63,0x6f,0x64,0x65,0x69,0x11,0x3a,0x10,0x40,0x70,0x61,0x72,0x61,0x6d,0x65,0x74,0x65,0x72,0x73,0x5b,0x00,0x6f,0x3b,0x0a,0x07,0x3b,0x0b,0x69,0x00,0x3b,0x0c,0x5b,0x00))
  250(bytes(0x04,0x08,0x6f,0x3a,0x0c,0x52,0x50,0x47,0x3a,0x3a,0x53,0x45,0x08,0x3a,0x0a,0x40,0x6e,0x61,0x6d,0x65,0x49,0x22,0x09,0x4d,0x6f,0x76,0x65,0x06,0x3a,0x06,0x45,0x54,0x3a,0x0b,0x40,0x70,0x69,0x74,0x63,0x68,0x69,0x69,0x3a,0x0c,0x40,0x76,0x6f,0x6c,0x75,0x6d,0x65,0x69,0x55))
  TeleportPlayer(0,142,54,50,0,0)
  0()



EVENT   10
 PAGE   1
  250(bytes(0x04,0x08,0x6f,0x3a,0x0c,0x52,0x50,0x47,0x3a,0x3a,0x53,0x45,0x08,0x3a,0x0a,0x40,0x6e,0x61,0x6d,0x65,0x49,0x22,0x0a,0x4f,0x70,0x65,0x6e,0x31,0x06,0x3a,0x06,0x45,0x54,0x3a,0x0b,0x40,0x70,0x69,0x74,0x63,0x68,0x69,0x69,0x3a,0x0c,0x40,0x76,0x6f,0x6c,0x75,0x6d,0x65,0x69,0x55))
  205(0,bytes(0x04,0x08,0x6f,0x3a,0x13,0x52,0x50,0x47,0x3a,0x3a,0x4d,0x6f,0x76,0x65,0x52,0x6f,0x75,0x74,0x65,0x09,0x3a,0x0c,0x40,0x72,0x65,0x70,0x65,0x61,0x74,0x46,0x3a,0x0f,0x40,0x73,0x6b,0x69,0x70,0x70,0x61,0x62,0x6c,0x65,0x46,0x3a,0x0a,0x40,0x77,0x61,0x69,0x74,0x54,0x3a,0x0a,0x40,0x6c,0x69,0x73,0x74,0x5b,0x0c,0x6f,0x3a,0x15,0x52,0x50,0x47,0x3a,0x3a,0x4d,0x6f,0x76,0x65,0x43,0x6f,0x6d,0x6d,0x61,0x6e,0x64,0x07,0x3a,0x0a,0x40,0x63,0x6f,0x64,0x65,0x69,0x16,0x3a,0x10,0x40,0x70,0x61,0x72,0x61,0x6d,0x65,0x74,0x65,0x72,0x73,0x5b,0x00,0x6f,0x3b,0x0a,0x07,0x3b,0x0b,0x69,0x14,0x3b,0x0c,0x5b,0x06,0x69,0x08,0x6f,0x3b,0x0a,0x07,0x3b,0x0b,0x69,0x17,0x3b,0x0c,0x5b,0x00,0x6f,0x3b,0x0a,0x07,0x3b,0x0b,0x69,0x14,0x3b,0x0c,0x5b,0x06,0x69,0x08,0x6f,0x3b,0x0a,0x07,0x3b,0x0b,0x69,0x18,0x3b,0x0c,0x5b,0x00,0x6f,0x3b,0x0a,0x07,0x3b,0x0b,0x69,0x2a,0x3b,0x0c,0x5b,0x00,0x6f,0x3b,0x0a,0x07,0x3b,0x0b,0x69,0x00,0x3b,0x0c,0x5b,0x00))
  205(-1,bytes(0x04,0x08,0x6f,0x3a,0x13,0x52,0x50,0x47,0x3a,0x3a,0x4d,0x6f,0x76,0x65,0x52,0x6f,0x75,0x74,0x65,0x09,0x3a,0x0c,0x40,0x72,0x65,0x70,0x65,0x61,0x74,0x46,0x3a,0x0f,0x40,0x73,0x6b,0x69,0x70,0x70,0x61,0x62,0x6c,0x65,0x54,0x3a,0x0a,0x40,0x77,0x61,0x69,0x74,0x54,0x3a,0x0a,0x40,0x6c,0x69,0x73,0x74,0x5b,0x07,0x6f,0x3a,0x15,0x52,0x50,0x47,0x3a,0x3a,0x4d,0x6f,0x76,0x65,0x43,0x6f,0x6d,0x6d,0x61,0x6e,0x64,0x07,0x3a,0x0a,0x40,0x63,0x6f,0x64,0x65,0x69,0x11,0x3a,0x10,0x40,0x70,0x61,0x72,0x61,0x6d,0x65,0x74,0x65,0x72,0x73,0x5b,0x00,0x6f,0x3b,0x0a,0x07,0x3b,0x0b,0x69,0x00,0x3b,0x0c,0x5b,0x00))
  250(bytes(0x04,0x08,0x6f,0x3a,0x0c,0x52,0x50,0x47,0x3a,0x3a,0x53,0x45,0x08,0x3a,0x0a,0x40,0x6e,0x61,0x6d,0x65,0x49,0x22,0x09,0x4d,0x6f,0x76,0x65,0x06,0x3a,0x06,0x45,0x54,0x3a,0x0b,0x40,0x70,0x69,0x74,0x63,0x68,0x69,0x69,0x3a,0x0c,0x40,0x76,0x6f,0x6c,0x75,0x6d,0x65,0x69,0x55))
  TeleportPlayer(0,142,30,35,0,0)
  0()




EVENT   11
 PAGE   1
  ChangeSwitch(31,31,1)
  250(bytes(0x04,0x08,0x6f,0x3a,0x0c,0x52,0x50,0x47,0x3a,0x3a,0x53,0x45,0x08,0x3a,0x0a,0x40,0x6e,0x61,0x6d,0x65,0x49,0x22,0x0a,0x4f,0x70,0x65,0x6e,0x31,0x06,0x3a,0x06,0x45,0x54,0x3a,0x0b,0x40,0x70,0x69,0x74,0x63,0x68,0x69,0x69,0x3a,0x0c,0x40,0x76,0x6f,0x6c,0x75,0x6d,0x65,0x69,0x55))
  205(0,bytes(0x04,0x08,0x6f,0x3a,0x13,0x52,0x50,0x47,0x3a,0x3a,0x4d,0x6f,0x76,0x65,0x52,0x6f,0x75,0x74,0x65,0x09,0x3a,0x0c,0x40,0x72,0x65,0x70,0x65,0x61,0x74,0x46,0x3a,0x0f,0x40,0x73,0x6b,0x69,0x70,0x70,0x61,0x62,0x6c,0x65,0x46,0x3a,0x0a,0x40,0x77,0x61,0x69,0x74,0x54,0x3a,0x0a,0x40,0x6c,0x69,0x73,0x74,0x5b,0x0c,0x6f,0x3a,0x15,0x52,0x50,0x47,0x3a,0x3a,0x4d,0x6f,0x76,0x65,0x43,0x6f,0x6d,0x6d,0x61,0x6e,0x64,0x07,0x3a,0x0a,0x40,0x63,0x6f,0x64,0x65,0x69,0x16,0x3a,0x10,0x40,0x70,0x61,0x72,0x61,0x6d,0x65,0x74,0x65,0x72,0x73,0x5b,0x00,0x6f,0x3b,0x0a,0x07,0x3b,0x0b,0x69,0x14,0x3b,0x0c,0x5b,0x06,0x69,0x08,0x6f,0x3b,0x0a,0x07,0x3b,0x0b,0x69,0x17,0x3b,0x0c,0x5b,0x00,0x6f,0x3b,0x0a,0x07,0x3b,0x0b,0x69,0x14,0x3b,0x0c,0x5b,0x06,0x69,0x08,0x6f,0x3b,0x0a,0x07,0x3b,0x0b,0x69,0x18,0x3b,0x0c,0x5b,0x00,0x6f,0x3b,0x0a,0x07,0x3b,0x0b,0x69,0x2a,0x3b,0x0c,0x5b,0x00,0x6f,0x3b,0x0a,0x07,0x3b,0x0b,0x69,0x00,0x3b,0x0c,0x5b,0x00))
  205(-1,bytes(0x04,0x08,0x6f,0x3a,0x13,0x52,0x50,0x47,0x3a,0x3a,0x4d,0x6f,0x76,0x65,0x52,0x6f,0x75,0x74,0x65,0x09,0x3a,0x0c,0x40,0x72,0x65,0x70,0x65,0x61,0x74,0x46,0x3a,0x0f,0x40,0x73,0x6b,0x69,0x70,0x70,0x61,0x62,0x6c,0x65,0x54,0x3a,0x0a,0x40,0x77,0x61,0x69,0x74,0x54,0x3a,0x0a,0x40,0x6c,0x69,0x73,0x74,0x5b,0x07,0x6f,0x3a,0x15,0x52,0x50,0x47,0x3a,0x3a,0x4d,0x6f,0x76,0x65,0x43,0x6f,0x6d,0x6d,0x61,0x6e,0x64,0x07,0x3a,0x0a,0x40,0x63,0x6f,0x64,0x65,0x69,0x11,0x3a,0x10,0x40,0x70,0x61,0x72,0x61,0x6d,0x65,0x74,0x65,0x72,0x73,0x5b,0x00,0x6f,0x3b,0x0a,0x07,0x3b,0x0b,0x69,0x00,0x3b,0x0c,0x5b,0x00))
  250(bytes(0x04,0x08,0x6f,0x3a,0x0c,0x52,0x50,0x47,0x3a,0x3a,0x53,0x45,0x08,0x3a,0x0a,0x40,0x6e,0x61,0x6d,0x65,0x49,0x22,0x09,0x4d,0x6f,0x76,0x65,0x06,0x3a,0x06,0x45,0x54,0x3a,0x0b,0x40,0x70,0x69,0x74,0x63,0x68,0x69,0x69,0x3a,0x0c,0x40,0x76,0x6f,0x6c,0x75,0x6d,0x65,0x69,0x55))
  TeleportPlayer(0,142,6,37,0,0)
  0()



EVENT   12
 PAGE   1
  250(bytes(0x04,0x08,0x6f,0x3a,0x0c,0x52,0x50,0x47,0x3a,0x3a,0x53,0x45,0x08,0x3a,0x0a,0x40,0x6e,0x61,0x6d,0x65,0x49,0x22,0x0a,0x4f,0x70,0x65,0x6e,0x31,0x06,0x3a,0x06,0x45,0x54,0x3a,0x0b,0x40,0x70,0x69,0x74,0x63,0x68,0x69,0x69,0x3a,0x0c,0x40,0x76,0x6f,0x6c,0x75,0x6d,0x65,0x69,0x55))
  205(0,bytes(0x04,0x08,0x6f,0x3a,0x13,0x52,0x50,0x47,0x3a,0x3a,0x4d,0x6f,0x76,0x65,0x52,0x6f,0x75,0x74,0x65,0x09,0x3a,0x0c,0x40,0x72,0x65,0x70,0x65,0x61,0x74,0x46,0x3a,0x0f,0x40,0x73,0x6b,0x69,0x70,0x70,0x61,0x62,0x6c,0x65,0x46,0x3a,0x0a,0x40,0x77,0x61,0x69,0x74,0x54,0x3a,0x0a,0x40,0x6c,0x69,0x73,0x74,0x5b,0x0c,0x6f,0x3a,0x15,0x52,0x50,0x47,0x3a,0x3a,0x4d,0x6f,0x76,0x65,0x43,0x6f,0x6d,0x6d,0x61,0x6e,0x64,0x07,0x3a,0x0a,0x40,0x63,0x6f,0x64,0x65,0x69,0x16,0x3a,0x10,0x40,0x70,0x61,0x72,0x61,0x6d,0x65,0x74,0x65,0x72,0x73,0x5b,0x00,0x6f,0x3b,0x0a,0x07,0x3b,0x0b,0x69,0x14,0x3b,0x0c,0x5b,0x06,0x69,0x08,0x6f,0x3b,0x0a,0x07,0x3b,0x0b,0x69,0x17,0x3b,0x0c,0x5b,0x00,0x6f,0x3b,0x0a,0x07,0x3b,0x0b,0x69,0x14,0x3b,0x0c,0x5b,0x06,0x69,0x08,0x6f,0x3b,0x0a,0x07,0x3b,0x0b,0x69,0x18,0x3b,0x0c,0x5b,0x00,0x6f,0x3b,0x0a,0x07,0x3b,0x0b,0x69,0x2a,0x3b,0x0c,0x5b,0x00,0x6f,0x3b,0x0a,0x07,0x3b,0x0b,0x69,0x00,0x3b,0x0c,0x5b,0x00))
  205(-1,bytes(0x04,0x08,0x6f,0x3a,0x13,0x52,0x50,0x47,0x3a,0x3a,0x4d,0x6f,0x76,0x65,0x52,0x6f,0x75,0x74,0x65,0x09,0x3a,0x0c,0x40,0x72,0x65,0x70,0x65,0x61,0x74,0x46,0x3a,0x0f,0x40,0x73,0x6b,0x69,0x70,0x70,0x61,0x62,0x6c,0x65,0x54,0x3a,0x0a,0x40,0x77,0x61,0x69,0x74,0x54,0x3a,0x0a,0x40,0x6c,0x69,0x73,0x74,0x5b,0x07,0x6f,0x3a,0x15,0x52,0x50,0x47,0x3a,0x3a,0x4d,0x6f,0x76,0x65,0x43,0x6f,0x6d,0x6d,0x61,0x6e,0x64,0x07,0x3a,0x0a,0x40,0x63,0x6f,0x64,0x65,0x69,0x11,0x3a,0x10,0x40,0x70,0x61,0x72,0x61,0x6d,0x65,0x74,0x65,0x72,0x73,0x5b,0x00,0x6f,0x3b,0x0a,0x07,0x3b,0x0b,0x69,0x00,0x3b,0x0c,0x5b,0x00))
  250(bytes(0x04,0x08,0x6f,0x3a,0x0c,0x52,0x50,0x47,0x3a,0x3a,0x53,0x45,0x08,0x3a,0x0a,0x40,0x6e,0x61,0x6d,0x65,0x49,0x22,0x09,0x4d,0x6f,0x76,0x65,0x06,0x3a,0x06,0x45,0x54,0x3a,0x0b,0x40,0x70,0x69,0x74,0x63,0x68,0x69,0x69,0x3a,0x0c,0x40,0x76,0x6f,0x6c,0x75,0x6d,0x65,0x69,0x55))
  TeleportPlayer(0,142,6,58,0,0)
  0()



EVENT   13
 PAGE   1
  250(bytes(0x04,0x08,0x6f,0x3a,0x0c,0x52,0x50,0x47,0x3a,0x3a,0x53,0x45,0x08,0x3a,0x0a,0x40,0x6e,0x61,0x6d,0x65,0x49,0x22,0x09,0x4d,0x6f,0x76,0x65,0x06,0x3a,0x06,0x45,0x54,0x3a,0x0b,0x40,0x70,0x69,0x74,0x63,0x68,0x69,0x69,0x3a,0x0c,0x40,0x76,0x6f,0x6c,0x75,0x6d,0x65,0x69,0x55))
  TeleportPlayer(0,2,282,261,2,0)
  0()



EVENT   14
 PAGE   1
  250(bytes(0x04,0x08,0x6f,0x3a,0x0c,0x52,0x50,0x47,0x3a,0x3a,0x53,0x45,0x08,0x3a,0x0a,0x40,0x6e,0x61,0x6d,0x65,0x49,0x22,0x09,0x4d,0x6f,0x76,0x65,0x06,0x3a,0x06,0x45,0x54,0x3a,0x0b,0x40,0x70,0x69,0x74,0x63,0x68,0x69,0x69,0x3a,0x0c,0x40,0x76,0x6f,0x6c,0x75,0x6d,0x65,0x69,0x55))
  TeleportPlayer(0,2,282,261,2,0)
  0()



EVENT   15
 PAGE   1
  250(bytes(0x04,0x08,0x6f,0x3a,0x0c,0x52,0x50,0x47,0x3a,0x3a,0x53,0x45,0x08,0x3a,0x0a,0x40,0x6e,0x61,0x6d,0x65,0x49,0x22,0x09,0x4d,0x6f,0x76,0x65,0x06,0x3a,0x06,0x45,0x54,0x3a,0x0b,0x40,0x70,0x69,0x74,0x63,0x68,0x69,0x69,0x3a,0x0c,0x40,0x76,0x6f,0x6c,0x75,0x6d,0x65,0x69,0x55))
  TeleportPlayer(0,2,282,261,2,0)
  0()



EVENT   16
 PAGE   1
  250(bytes(0x04,0x08,0x6f,0x3a,0x0c,0x52,0x50,0x47,0x3a,0x3a,0x53,0x45,0x08,0x3a,0x0a,0x40,0x6e,0x61,0x6d,0x65,0x49,0x22,0x09,0x4d,0x6f,0x76,0x65,0x06,0x3a,0x06,0x45,0x54,0x3a,0x0b,0x40,0x70,0x69,0x74,0x63,0x68,0x69,0x69,0x3a,0x0c,0x40,0x76,0x6f,0x6c,0x75,0x6d,0x65,0x69,0x55))
  TeleportPlayer(0,2,282,261,2,0)
  0()



EVENT   17
 PAGE   1
  250(bytes(0x04,0x08,0x6f,0x3a,0x0c,0x52,0x50,0x47,0x3a,0x3a,0x53,0x45,0x08,0x3a,0x0a,0x40,0x6e,0x61,0x6d,0x65,0x49,0x22,0x09,0x4d,0x6f,0x76,0x65,0x06,0x3a,0x06,0x45,0x54,0x3a,0x0b,0x40,0x70,0x69,0x74,0x63,0x68,0x69,0x69,0x3a,0x0c,0x40,0x76,0x6f,0x6c,0x75,0x6d,0x65,0x69,0x55))
  TeleportPlayer(0,2,282,261,2,0)
  0()



EVENT   18
 PAGE   1
  250(bytes(0x04,0x08,0x6f,0x3a,0x0c,0x52,0x50,0x47,0x3a,0x3a,0x53,0x45,0x08,0x3a,0x0a,0x40,0x6e,0x61,0x6d,0x65,0x49,0x22,0x09,0x4d,0x6f,0x76,0x65,0x06,0x3a,0x06,0x45,0x54,0x3a,0x0b,0x40,0x70,0x69,0x74,0x63,0x68,0x69,0x69,0x3a,0x0c,0x40,0x76,0x6f,0x6c,0x75,0x6d,0x65,0x69,0x55))
  TeleportPlayer(0,2,282,261,2,0)
  0()



EVENT   19
 PAGE   1
  250(bytes(0x04,0x08,0x6f,0x3a,0x0c,0x52,0x50,0x47,0x3a,0x3a,0x53,0x45,0x08,0x3a,0x0a,0x40,0x6e,0x61,0x6d,0x65,0x49,0x22,0x09,0x4d,0x6f,0x76,0x65,0x06,0x3a,0x06,0x45,0x54,0x3a,0x0b,0x40,0x70,0x69,0x74,0x63,0x68,0x69,0x69,0x3a,0x0c,0x40,0x76,0x6f,0x6c,0x75,0x6d,0x65,0x69,0x55))
  TeleportPlayer(0,2,282,261,2,0)
  0()



EVENT   20
 PAGE   1
  250(bytes(0x04,0x08,0x6f,0x3a,0x0c,0x52,0x50,0x47,0x3a,0x3a,0x53,0x45,0x08,0x3a,0x0a,0x40,0x6e,0x61,0x6d,0x65,0x49,0x22,0x09,0x4d,0x6f,0x76,0x65,0x06,0x3a,0x06,0x45,0x54,0x3a,0x0b,0x40,0x70,0x69,0x74,0x63,0x68,0x69,0x69,0x3a,0x0c,0x40,0x76,0x6f,0x6c,0x75,0x6d,0x65,0x69,0x55))
  TeleportPlayer(0,2,282,261,2,0)
  0()



EVENT   21
 PAGE   1
  250(bytes(0x04,0x08,0x6f,0x3a,0x0c,0x52,0x50,0x47,0x3a,0x3a,0x53,0x45,0x08,0x3a,0x0a,0x40,0x6e,0x61,0x6d,0x65,0x49,0x22,0x09,0x4d,0x6f,0x76,0x65,0x06,0x3a,0x06,0x45,0x54,0x3a,0x0b,0x40,0x70,0x69,0x74,0x63,0x68,0x69,0x69,0x3a,0x0c,0x40,0x76,0x6f,0x6c,0x75,0x6d,0x65,0x69,0x55))
  TeleportPlayer(0,2,282,261,2,0)
  0()



EVENT   22
 PAGE   1
  250(bytes(0x04,0x08,0x6f,0x3a,0x0c,0x52,0x50,0x47,0x3a,0x3a,0x53,0x45,0x08,0x3a,0x0a,0x40,0x6e,0x61,0x6d,0x65,0x49,0x22,0x09,0x4d,0x6f,0x76,0x65,0x06,0x3a,0x06,0x45,0x54,0x3a,0x0b,0x40,0x70,0x69,0x74,0x63,0x68,0x69,0x69,0x3a,0x0c,0x40,0x76,0x6f,0x6c,0x75,0x6d,0x65,0x69,0x55))
  TeleportPlayer(0,2,282,261,2,0)
  0()



EVENT   23
 PAGE   1
  250(bytes(0x04,0x08,0x6f,0x3a,0x0c,0x52,0x50,0x47,0x3a,0x3a,0x53,0x45,0x08,0x3a,0x0a,0x40,0x6e,0x61,0x6d,0x65,0x49,0x22,0x09,0x4d,0x6f,0x76,0x65,0x06,0x3a,0x06,0x45,0x54,0x3a,0x0b,0x40,0x70,0x69,0x74,0x63,0x68,0x69,0x69,0x3a,0x0c,0x40,0x76,0x6f,0x6c,0x75,0x6d,0x65,0x69,0x55))
  TeleportPlayer(0,2,282,261,2,0)
  0()



EVENT   24
 PAGE   1
  250(bytes(0x04,0x08,0x6f,0x3a,0x0c,0x52,0x50,0x47,0x3a,0x3a,0x53,0x45,0x08,0x3a,0x0a,0x40,0x6e,0x61,0x6d,0x65,0x49,0x22,0x09,0x4d,0x6f,0x76,0x65,0x06,0x3a,0x06,0x45,0x54,0x3a,0x0b,0x40,0x70,0x69,0x74,0x63,0x68,0x69,0x69,0x3a,0x0c,0x40,0x76,0x6f,0x6c,0x75,0x6d,0x65,0x69,0x55))
  TeleportPlayer(0,2,282,261,2,0)
  0()



EVENT   25
 PAGE   1
  ShowMessageFace("",0,0,2,1)
  ShowMessage("\\n<Woman>Welcome! We have fresh and delicious Natalia fish!")
  355("actor_label_jump")
  JumpToLabel("店")
  DefineLabel("53")
  ShowMessageFace("slime_fc1",0,0,2,2)
  ShowMessage("\\n<Lime>Yaay! Fiish! ♪")
  JumpToLabel("店")
  DefineLabel("116")
  ShowMessageFace("iso_fc1",0,0,2,3)
  ShowMessage("\\n<Isabelle>Getting fish without having to catch them myself? That sounds so much easier...")
  JumpToLabel("店")
  DefineLabel("117")
  ShowMessageFace("ankou_fc1",0,0,2,4)
  ShowMessage("\\n<Anko>Do you sell anglerfish?")
  ShowMessageFace("",0,0,2,5)
  ShowMessage("\\n<Woman>No, that'd be a bit much...")
  JumpToLabel("店")
  DefineLabel("118")
  ShowMessageFace("meia_fc1",2,0,2,6)
  ShowMessage("\\n<Meia>Port Natalia's fish are very high quality. ♪")
  JumpToLabel("店")
  DefineLabel("店")
  Shop(0,322,0,0,false)
  605(0,324,0,0)
  605(0,325,0,0)
  605(0,327,0,0)
  605(0,334,0,0)
  605(0,335,0,0)
  605(0,433,0,0)
  0()



EVENT   26
 PAGE   1
  ShowMessageFace("",0,0,2,1)
  ShowMessage("\\n<Shopkeeper>Our specialties here are all rare goods! Since Natalia is a trade port, our assortment is especially unique!")
  355("actor_label_jump")
  JumpToLabel("店")
  DefineLabel("5")
  ShowMessageFace("alice_fc5",7,0,2,2)
  ShowMessage("\\n<Alice>Curry and chocolate... Mmm, my mouth is watering. ♪")
  JumpToLabel("店")
  DefineLabel("26")
  ShowMessageFace("iriasu_fc4",1,0,2,3)
  ShowMessage("\\n<Ilias>Luka... Oh brave Luka... Can you hear my voice? You have the potential to make curry for a certain Goddess...")
  JumpToLabel("店")
  DefineLabel("53")
  ShowMessageFace("slime_fc1",0,0,2,4)
  ShowMessage("\\n<Lime>They're selling sweets! I want to eat some. ♪")
  JumpToLabel("店")
  DefineLabel("97")
  ShowMessageFace("fairy_fc1",0,0,2,5)
  ShowMessage("\\n<Fell>Yayy, I want to eat chocolaate. ♪")
  JumpToLabel("店")
  DefineLabel("98")
  ShowMessageFace("minikani_fc1",0,0,2,6)
  ShowMessage("\\n<Amy>I want to eat some sweet candies. ♪")
  JumpToLabel("店")
  DefineLabel("店")
  Shop(0,332,0,0,false)
  605(0,336,0,0)
  605(0,339,0,0)
  605(0,414,0,0)
  605(0,434,0,0)
  605(0,435,0,0)
  0()



EVENT   27
 PAGE   1
  ShowMessageFace("",0,0,2,1)
  ShowMessage("\\n<Merchant Mermaid>We have mermaid specialty products. Try buying some! They're delicious!")
  Shop(0,437,0,0,false)
  605(0,438,0,0)
  605(0,439,0,0)
  355("actor_label_jump")
  ShowMessageFace("",0,0,2,2)
  ShowMessage("\\n<Merchant Mermaid>My sales are extremely poor. At this rate, I'll go out of business.")
  EndEventProcessing()
  DefineLabel("53")
  ShowMessageFace("slime_fc1",2,0,2,3)
  ShowMessage("\\n<Lime>They look awful...")
  ShowMessageFace("",0,0,2,4)
  ShowMessage("\\n<Merchant Mermaid> My sales are extremely poor. At this rate, I'll go out of business.")
  EndEventProcessing()
  DefineLabel("66")
  ShowMessageFace("vgirl_fc1",2,0,2,5)
  ShowMessage("\\n<Vanilla>This isn't exactly a good model for a merchant like myself to learn from...")
  ShowMessageFace("",0,0,2,6)
  ShowMessage("\\n<Merchant Mermaid>Everyone just has poor taste. They're so delicious, and yet...")
  EndEventProcessing()
  DefineLabel("118")
  ShowMessageFace("meia_fc1",3,0,2,7)
  ShowMessage("\\n<Meia>These things aren't mermaid specialty products...")
  ShowMessageFace("",0,0,2,8)
  ShowMessage("\\n<Merchant Mermaid>I'm making new specialty products. If you only swim known tides, you won't get to ride a big wave!")
  EndEventProcessing()
  0()



EVENT   28
 PAGE   1
  ShowMessageFace("",0,0,2,1)
  ShowMessage("\\n<Sailor>Want to get on a ship headed to Iliasport?")
  ShowChoices(strings("Get on","Don't"),2)
  IfPlayerPicksChoice(0,null)
   ShowMessageFace("",0,0,2,2)
   ShowMessage("\\n<Sailor>Well then, hop on!")
   221()
   250(bytes(0x04,0x08,0x6f,0x3a,0x0c,0x52,0x50,0x47,0x3a,0x3a,0x53,0x45,0x08,0x3a,0x0a,0x40,0x6e,0x61,0x6d,0x65,0x49,0x22,0x0b,0x57,0x61,0x74,0x65,0x72,0x31,0x06,0x3a,0x06,0x45,0x54,0x3a,0x0b,0x40,0x70,0x69,0x74,0x63,0x68,0x69,0x69,0x3a,0x0c,0x40,0x76,0x6f,0x6c,0x75,0x6d,0x65,0x69,0x55))
   Wait(60)
   TeleportPlayer(0,139,10,7,2,2)
   222()
   EndEventProcessing()
   0()
  IfPlayerPicksChoice(1,null)
   EndEventProcessing()
   0()
  404()
  0()



EVENT   29
 PAGE   1
  0()



EVENT   30
 PAGE   1
  ShowMessageFace("",0,0,2,1)
  ShowMessage("\\n<Guard>While keeping the peace in this town, I've sometimes had to fight drunken mermaids. At times like that, my Mage Masher dagger works wonders.")
  ShowMessageFace("",0,0,2,2)
  ShowMessage("\\n<Guard>Whenever it slashes my opponent, it inflicts the Silence ailment, sealing both their magic and their singing. Mage Mashers are sold in this town's weapon shop, by the way.")
  355("actor_label_jump")
  EndEventProcessing()
  DefineLabel("66")
  ShowMessageFace("vgirl_fc1",0,0,2,3)
  ShowMessage("\\n<Vanilla>Kukuku, that's an interesting weapon...")
  EndEventProcessing()
  DefineLabel("88")
  ShowMessageFace("jack_fc1",2,0,2,4)
  ShowMessage("\\n<Pumpkin>The natural enemy of mages. What a horrible weapon.")
  EndEventProcessing()
  0()



EVENT   31
 PAGE   1
  ShowMessageFace("",0,0,2,1)
  ShowMessage("\\n<Merchant>Once you master the Merchant job, you can become a Black Marketeer, who's an even better business expert. Or, you could become an Item User if you have the right job change item.")
  ShowMessageFace("",0,0,2,2)
  ShowMessage("\\n<Merchant>An Item User is an true master of battle items. Supposedly they're able to push an item's powers beyond its limits.")
  ShowMessageFace("",0,0,2,3)
  ShowMessage("\\n<Merchant>For example, they could make an item's effect apply to an entire party. Or use an ailment-curing item to also add resistance to that ailment.")
  ShowMessageFace("",0,0,2,4)
  ShowMessage("\\n<Merchant>They can also go the opposite way, and use it to apply the ailment to an enemy. Honestly, an item's usage is comparable to magic in their hands.")
  355("actor_label_jump")
  EndEventProcessing()
  DefineLabel("66")
  If(4,66,2,79)
   ShowMessageFace("vgirl_fc1",0,0,2,5)
   ShowMessage("\\n<Vanilla>So when you master Merchant, it splits into more jobs, eh? Hmmmm... I'm completely lost.")
   0()
  Else()
   ShowMessageFace("vgirl_fc1",0,0,2,6)
   ShowMessage("\\n<Vanilla>To become a respectable merchant, I'll need to practice a lot more!")
   0()
  EndIf()
  EndEventProcessing()
  0()



EVENT   32
 PAGE   1
  ShowMessageFace("",0,0,2,1)
  ShowMessage("\\n<Scylla>Since I hate lamias, I'll tell you their weaknesses. They're all very vulnerable to ice element attacks.")
  ShowMessageFace("",0,0,2,2)
  ShowMessage("\\n<Scylla>Also, since they're snakes who often have to hibernate, the Sleep ailment is highly effective against them. Instant Death also works well.")
  ShowMessageFace("",0,0,2,3)
  ShowMessage("\\n<Scylla>Since lamias can be problematic, be sure to fight them by exploiting their weaknesses. I'll pray that you beat up every one of them you find!")
  355("actor_label_jump")
  EndEventProcessing()
  DefineLabel("113")
  ShowMessageFace("lamia_fc1",0,0,2,4)
  ShowMessage("\\n<Anastasia>Hmph, I don't want to be told that by a scylla.")
  EndEventProcessing()
  DefineLabel("122")
  ShowMessageFace("sisterlamia_fc1",0,0,2,5)
  ShowMessage("\\n<Sofia>No matter how ugly a scylla like you is, it's not good to spread hate against others.")
  EndEventProcessing()
  0()



EVENT   33
 PAGE   1
  ShowMessageFace("",0,0,2,1)
  ShowMessage("\\n<Mermaid>Mermaids and Sea-Dweller type monsters are usually weak against earth element attacks. And, since their bodies are wet, lightning works against them as well.")
  ShowMessageFace("",0,0,2,2)
  ShowMessage("\\n<Mermaid>Of course, their resistance to water element attacks is very high. Keep that in mind when you're fighting sea monsters.")
  0()



EVENT   34
 PAGE   1
  If(1,1001,0,29,2)
   ShowMessageFace("",0,0,2,1)
   ShowMessage("\\n<Mermaid A>It's just something my lamia friend told me, but... apparently there's three or four monster lords now, or something.")
   ShowMessageFace("",0,0,2,2)
   ShowMessage("\\n<Mermaid B>No way, how scaaary! One is bad enough; having three or four is really troubling.")
   ShowMessageFace("",0,0,2,3)
   ShowMessage("\\n<Mermaid A>But that has nothing to do with us, right? We're mermaids living in a human town, after all.")
   ShowMessageFace("",0,0,2,4)
   ShowMessage("\\n<Mermaid B>You're right, it doesn't. We shouldn't worry about monster issues; it's human issues that are the real probleeem.")
   If(0,4,0)
    ShowMessageFace("alice_fc5",0,0,2,5)
    ShowMessage("\\n<Alice>They're so concerned with human society that they barely know anything about what's going on between monsters...")
    0()
   EndIf()
   EndEventProcessing()
   0()
  EndIf()
  If(1,1001,0,30,1)
   ShowMessageFace("",0,0,2,6)
   ShowMessage("\\n<マーメイドＡ>レインちゃん、離婚したんだって……")
   ShowMessage("旦那さんに、人魚を嫁にはしておけないって言われたとか。")
   ShowMessageFace("",0,0,2,7)
   ShowMessage("\\n<マーメイドＢ>なによそれ……")
   ShowMessage("最近、そんな話ばっかりじゃない。")
   ShowMessageFace("",0,0,2,8)
   ShowMessage("\\n<マーメイドＡ>なんで、クィーンマーメイドはサン・イリアにあんな事を……")
   ShowMessageFace("",0,0,2,9)
   ShowMessage("\\n<マーメイドＢ>本当、迷惑だよね。")
   355("actor_label_jump")
   EndEventProcessing()
   DefineLabel("327")
   ShowMessageFace("ningyohime_fc1",7,0,2,10)
   ShowMessage("\\n<エル>全部、あたし達のせいだよ……")
   EndEventProcessing()
   DefineLabel("328")
   ShowMessageFace("queenmermaid_fc1",1,0,2,11)
   ShowMessage("\\n<ローラ>一人一人に頭を下げて回るわけにもいかないわ。")
   ShowMessage("それより、この世界に平和を……")
   EndEventProcessing()
   0()
  EndIf()
  0()



EVENT   35
 PAGE   1
  ShowMessageFace("",0,0,2,1)
  ShowMessage("\\n<Thief>Have you learned [Mug]? It's a skill that lets you steal an item while you're attacking an enemy.")
  ShowMessageFace("",0,0,2,2)
  ShowMessage("\\n<Thief>Since it's a Thief attack, it isn't all that strong. Still, stealing while dealing damage is pretty sweet!")
  0()



EVENT   36
 PAGE   1
  If(1,1016,0,0,0)
   ShowMessageFace("",0,0,2,1)
   ShowMessage("The door's locked. There's a note tacked onto it.")
   ShowMessageFace("",0,0,2,2)
   ShowMessage("\"I'll be gone for a few days. - Meia\"")
   EndEventProcessing()
   0()
  EndIf()
  If(1,1016,0,1,0)
   ShowMessageFace("",0,0,2,3)
   ShowMessage("The door's locked. There's a note tacked onto it.")
   ShowMessageFace("",0,0,2,4)
   ShowMessage("\"I'll be gone for a few days. - Meia\"")
   ShowMessageFace("ruka_fc1",0,0,2,5)
   ShowMessage("\\n<Luka>Wasn't the first mermaid who disappeared named Meia?")
   EndEventProcessing()
   0()
  EndIf()
  If(1,1016,0,2,0)
   ShowMessageFace("",0,0,2,6)
   ShowMessage("The door's closed. It looks like there's someone inside, but...")
   ShowMessageFace("ruka_fc1",0,0,2,7)
   ShowMessage("\\n<Luka>Let's report back to the mermaid who asked for our help.")
   EndEventProcessing()
   0()
  EndIf()
  If(1,1016,0,3,0)
   250(bytes(0x04,0x08,0x6f,0x3a,0x0c,0x52,0x50,0x47,0x3a,0x3a,0x53,0x45,0x08,0x3a,0x0a,0x40,0x6e,0x61,0x6d,0x65,0x49,0x22,0x0a,0x4f,0x70,0x65,0x6e,0x31,0x06,0x3a,0x06,0x45,0x54,0x3a,0x0b,0x40,0x70,0x69,0x74,0x63,0x68,0x69,0x69,0x3a,0x0c,0x40,0x76,0x6f,0x6c,0x75,0x6d,0x65,0x69,0x55))
   205(0,bytes(0x04,0x08,0x6f,0x3a,0x13,0x52,0x50,0x47,0x3a,0x3a,0x4d,0x6f,0x76,0x65,0x52,0x6f,0x75,0x74,0x65,0x09,0x3a,0x0c,0x40,0x72,0x65,0x70,0x65,0x61,0x74,0x46,0x3a,0x0f,0x40,0x73,0x6b,0x69,0x70,0x70,0x61,0x62,0x6c,0x65,0x46,0x3a,0x0a,0x40,0x77,0x61,0x69,0x74,0x54,0x3a,0x0a,0x40,0x6c,0x69,0x73,0x74,0x5b,0x0c,0x6f,0x3a,0x15,0x52,0x50,0x47,0x3a,0x3a,0x4d,0x6f,0x76,0x65,0x43,0x6f,0x6d,0x6d,0x61,0x6e,0x64,0x07,0x3a,0x0a,0x40,0x63,0x6f,0x64,0x65,0x69,0x16,0x3a,0x10,0x40,0x70,0x61,0x72,0x61,0x6d,0x65,0x74,0x65,0x72,0x73,0x5b,0x00,0x6f,0x3b,0x0a,0x07,0x3b,0x0b,0x69,0x14,0x3b,0x0c,0x5b,0x06,0x69,0x08,0x6f,0x3b,0x0a,0x07,0x3b,0x0b,0x69,0x17,0x3b,0x0c,0x5b,0x00,0x6f,0x3b,0x0a,0x07,0x3b,0x0b,0x69,0x14,0x3b,0x0c,0x5b,0x06,0x69,0x08,0x6f,0x3b,0x0a,0x07,0x3b,0x0b,0x69,0x18,0x3b,0x0c,0x5b,0x00,0x6f,0x3b,0x0a,0x07,0x3b,0x0b,0x69,0x2a,0x3b,0x0c,0x5b,0x00,0x6f,0x3b,0x0a,0x07,0x3b,0x0b,0x69,0x00,0x3b,0x0c,0x5b,0x00))
   205(-1,bytes(0x04,0x08,0x6f,0x3a,0x13,0x52,0x50,0x47,0x3a,0x3a,0x4d,0x6f,0x76,0x65,0x52,0x6f,0x75,0x74,0x65,0x09,0x3a,0x0c,0x40,0x72,0x65,0x70,0x65,0x61,0x74,0x46,0x3a,0x0f,0x40,0x73,0x6b,0x69,0x70,0x70,0x61,0x62,0x6c,0x65,0x54,0x3a,0x0a,0x40,0x77,0x61,0x69,0x74,0x54,0x3a,0x0a,0x40,0x6c,0x69,0x73,0x74,0x5b,0x07,0x6f,0x3a,0x15,0x52,0x50,0x47,0x3a,0x3a,0x4d,0x6f,0x76,0x65,0x43,0x6f,0x6d,0x6d,0x61,0x6e,0x64,0x07,0x3a,0x0a,0x40,0x63,0x6f,0x64,0x65,0x69,0x11,0x3a,0x10,0x40,0x70,0x61,0x72,0x61,0x6d,0x65,0x74,0x65,0x72,0x73,0x5b,0x00,0x6f,0x3b,0x0a,0x07,0x3b,0x0b,0x69,0x00,0x3b,0x0c,0x5b,0x00))
   250(bytes(0x04,0x08,0x6f,0x3a,0x0c,0x52,0x50,0x47,0x3a,0x3a,0x53,0x45,0x08,0x3a,0x0a,0x40,0x6e,0x61,0x6d,0x65,0x49,0x22,0x09,0x4d,0x6f,0x76,0x65,0x06,0x3a,0x06,0x45,0x54,0x3a,0x0b,0x40,0x70,0x69,0x74,0x63,0x68,0x69,0x69,0x3a,0x0c,0x40,0x76,0x6f,0x6c,0x75,0x6d,0x65,0x69,0x55))
   TeleportPlayer(0,142,31,69,0,0)
   EndEventProcessing()
   0()
  EndIf()
  0()



EVENT   37
 PAGE   1
  ShowMessageFace("",0,0,2,1)
  ShowMessage("\\n<Traveling Warrior>It's common practice for adventurers coming from Ilias Continent to visit San Ilia first. There's lots of equipment and information there.")
  ShowMessageFace("",0,0,2,2)
  ShowMessage("\\n<Traveling Warrior>More importantly, the King of San Ilia advises every adventurer who meets with him. There are many who go to San Ilia just to receive his instruction.")
  ShowMessageFace("",0,0,2,3)
  ShowMessage("\\n<Traveling Warrior>San Ilia's castle is west of here. If you stick to the road, you can't miss it.")
  0()



EVENT   38
 PAGE   1
  ShowMessageFace("",0,0,2,1)
  ShowMessage("\\n<Priest>Welcome to the Seaside Church. What can I do for you?")
  ShowChoices(strings("Pray","Never mind"),2)
  IfPlayerPicksChoice(0,null)
   ChangeVariable(1002,1002,0,0,12)
   ShowMessageFace("",0,0,2,2)
   ShowMessage("\\n<Priest>Well then, let us pray to Ilias. ...There, you should feel a bond drawing you to this place.")
   ShowMessageFace("",0,0,2,3)
   ShowMessage("\\n<Priest>If something were to happen to you on your journey, the bond should lead you back here. May Ilias watch over you...")
   0()
  IfPlayerPicksChoice(1,null)
   ShowMessageFace("",0,0,2,4)
   ShowMessage("\\n<Priest>May Ilias watch over you...")
   0()
  404()
  0()



EVENT   39
 PAGE   1
  ShowMessageFace("",0,0,2,1)
  ShowMessage("\\n<City Girl>Grrr...")
  0()
 PAGE   2
  // condition: variable 1001 >= 31
  0()



EVENT   40
 PAGE   1
  250(bytes(0x04,0x08,0x6f,0x3a,0x0c,0x52,0x50,0x47,0x3a,0x3a,0x53,0x45,0x08,0x3a,0x0a,0x40,0x6e,0x61,0x6d,0x65,0x49,0x22,0x0a,0x49,0x74,0x65,0x6d,0x31,0x06,0x3a,0x06,0x45,0x54,0x3a,0x0b,0x40,0x70,0x69,0x74,0x63,0x68,0x69,0x69,0x3a,0x0c,0x40,0x76,0x6f,0x6c,0x75,0x6d,0x65,0x69,0x55))
  ChangeSelfSwitch("A",0)
  ChangeInventory_Item(71,0,0,1)
  0()
 PAGE   2
  // condition: self-switch A is ON
  0()



EVENT   41
 PAGE   1
  250(bytes(0x04,0x08,0x6f,0x3a,0x0c,0x52,0x50,0x47,0x3a,0x3a,0x53,0x45,0x08,0x3a,0x0a,0x40,0x6e,0x61,0x6d,0x65,0x49,0x22,0x0a,0x49,0x74,0x65,0x6d,0x31,0x06,0x3a,0x06,0x45,0x54,0x3a,0x0b,0x40,0x70,0x69,0x74,0x63,0x68,0x69,0x69,0x3a,0x0c,0x40,0x76,0x6f,0x6c,0x75,0x6d,0x65,0x69,0x55))
  ChangeSelfSwitch("A",0)
  ChangeInventory_Item(7,0,0,1)
  0()
 PAGE   2
  // condition: self-switch A is ON
  0()




EVENT   42
 PAGE   1
  250(bytes(0x04,0x08,0x6f,0x3a,0x0c,0x52,0x50,0x47,0x3a,0x3a,0x53,0x45,0x08,0x3a,0x0a,0x40,0x6e,0x61,0x6d,0x65,0x49,0x22,0x0a,0x49,0x74,0x65,0x6d,0x31,0x06,0x3a,0x06,0x45,0x54,0x3a,0x0b,0x40,0x70,0x69,0x74,0x63,0x68,0x69,0x69,0x3a,0x0c,0x40,0x76,0x6f,0x6c,0x75,0x6d,0x65,0x69,0x55))
  ChangeSelfSwitch("A",0)
  ChangeInventory_Item(30,0,0,1)
  0()
 PAGE   2
  // condition: self-switch A is ON
  0()



EVENT   43
 PAGE   1
  250(bytes(0x04,0x08,0x6f,0x3a,0x0c,0x52,0x50,0x47,0x3a,0x3a,0x53,0x45,0x08,0x3a,0x0a,0x40,0x6e,0x61,0x6d,0x65,0x49,0x22,0x0a,0x49,0x74,0x65,0x6d,0x31,0x06,0x3a,0x06,0x45,0x54,0x3a,0x0b,0x40,0x70,0x69,0x74,0x63,0x68,0x69,0x69,0x3a,0x0c,0x40,0x76,0x6f,0x6c,0x75,0x6d,0x65,0x69,0x55))
  ChangeSelfSwitch("A",0)
  ChangeInventory_Item(323,0,0,1)
  0()
 PAGE   2
  // condition: self-switch A is ON
  0()



EVENT   44
 PAGE   1
  ShowMessageFace("",0,0,2,1)
  ShowMessage("\\n<Fisherman>My beloved friends all went missing together. That now sombre ship that bore the five of them has been missing for o'er a fortnight now.")
  ShowMessageFace("",0,0,2,2)
  ShowMessage("\\n<Fisherman>By mere chance, I felt sick and remained on land. To think that fate would decree that I would be left behind like this...")
  0()
 PAGE   2
  // condition: variable 1016 >= 2
  If(1,1001,0,29,2)
   ShowMessageFace("",0,0,2,1)
   ShowMessage("\\n<Fisherman>Hey! What's this?! My poetic, melancholic mood as I stared at the sea thinking of my friends was all for nothing?!")
   EndEventProcessing()
   0()
  EndIf()
  If(1,1001,0,30,1)
   ShowMessageFace("",0,0,2,2)
   ShowMessage("\\n<漁師>こいつら……いつになったら、元の姿に戻るんだろう。")
   355("actor_label_jump")
   EndEventProcessing()
   DefineLabel("118")
   ShowMessageFace("meia_fc1",0,0,2,3)
   ShowMessage("\\n<Meia>戻ってしまうなんて、もったいなくありません……？")
   EndEventProcessing()
   0()
  EndIf()
  0()



EVENT   45
 PAGE   1
  ShowMessageFace("",0,0,2,1)
  ShowMessage("\\n<Mermaid>My friends who went to the Undersea Temple haven't come back yet. It's not an exactly safe journey, but it shouldn't be that dangerous!")
  ShowMessageFace("",0,0,2,2)
  ShowMessage("\\n<Mermaid>Since none of their bodies have been found, I'm staying hopeful. I still think my friends are alive.")
  355("actor_label_jump")
  EndEventProcessing()
  DefineLabel("92")
  ShowMessageFace("eater_fc1",0,0,2,3)
  ShowMessage("\\n<Eater>Mermaids... Were they eaten?")
  EndEventProcessing()
  DefineLabel("102")
  ShowMessageFace("youko_fc1",0,0,2,4)
  ShowMessage("\\n<Kitsu>Heey, let's go to the Undersea Temple! Tamamo said we should help people in need.")
  EndEventProcessing()
  0()
 PAGE   2
  // condition: variable 1016 >= 2
  If(1,1001,0,30,2)
   ShowMessageFace("",0,0,2,1)
   ShowMessage("\\n<Mermaid>My friends who went to the Undersea Temple came back! To think that Meia was brainwashed. How scary!")
   ShowMessageFace("",0,0,2,2)
   ShowMessage("\\n<Mermaid>I wonder why that monster would do such a thing. From what I hear, nobody knows what she's really after. It's super eerie.")
   355("actor_label_jump")
   EndEventProcessing()
   DefineLabel("118")
   ShowMessageFace("meia_fc1",0,0,2,3)
   ShowMessage("\\n<Meia>I'm so sorry to have troubled everyone.")
   ShowMessageFace("",0,0,2,4)
   ShowMessage("\\n<Mermaid>It must have been hard on you too. Please, don't dwell on it.")
   EndEventProcessing()
   0()
  EndIf()
  If(1,1001,0,31,1)
   ShowMessageFace("",0,0,2,5)
   ShowMessage("\\n<マーメイド>ここは古くから、人魚と共存してきた町。")
   ShowMessage("表立って、人魚差別などはありません。")
   ShowMessageFace("",0,0,2,6)
   ShowMessage("\\n<マーメイド>ですが……雰囲気が変わってきたのが感じ取れます。")
   ShowMessage("このまま魔物と人間との争いが続けば、どうなってしまうのでしょう。")
   EndEventProcessing()
   0()
  EndIf()
  0()



EVENT   46
 PAGE   1
  If(1,1001,0,29,2)
   If(1,1016,0,1,2)
    ShowMessageFace("",0,0,2,1)
    ShowMessage("\\n<Fisherman>When ships sink in coastal waters, the tides sweep whatever's left to the coast.")
    ShowMessageFace("",0,0,2,2)
    ShowMessage("\\n<Fisherman>If there's been a shipwreck, we eventually find the ship's wreckage and dead bodies. But these recent incidents leave nothing behind at all.")
    ShowMessageFace("",0,0,2,3)
    ShowMessage("\\n<Fisherman>That's why they're being called \"disappearances\". These clearly aren't just ordinary accidents at sea.")
    EndEventProcessing()
    0()
   EndIf()
   If(1,1016,0,2,1)
    If(2,"A",1)
     ChangeSelfSwitch("A",0)
     ShowMessageFace("",0,0,2,4)
     ShowMessage("\\n<Fisherman>You're the ones who resolved the disappearances, right? You have my heartfelt thanks! Take this!")
     250(bytes(0x04,0x08,0x6f,0x3a,0x0c,0x52,0x50,0x47,0x3a,0x3a,0x53,0x45,0x08,0x3a,0x0a,0x40,0x6e,0x61,0x6d,0x65,0x49,0x22,0x0a,0x49,0x74,0x65,0x6d,0x31,0x06,0x3a,0x06,0x45,0x54,0x3a,0x0b,0x40,0x70,0x69,0x74,0x63,0x68,0x69,0x69,0x3a,0x0c,0x40,0x76,0x6f,0x6c,0x75,0x6d,0x65,0x69,0x55))
     ChangeInventory_Item(32,0,0,1)
     0()
    EndIf()
    ShowMessageFace("",0,0,2,5)
    ShowMessage("\\n<Fisherman>There are a few people who blame Meia for what happened, but since she was brainwashed, I think she's innocent.")
    If(4,118,0)
     ShowMessageFace("meia_fc1",0,0,2,6)
     ShowMessage("\\n<Meia>Even if I was brainwashed, I still did what I did. Ultimately, it's my fault.")
     ShowMessageFace("",0,0,2,7)
     ShowMessage("\\n<Fisherman>Well, I still think you can redeem yourself. If it makes you feel better, it seems you've gained more secret admirers because of what happened.")
     0()
    EndIf()
    EndEventProcessing()
    0()
   EndIf()
   0()
  EndIf()
  If(1,1001,0,30,1)
   ShowMessageFace("",0,0,2,8)
   ShowMessage("\\n<漁師>最近は大漁続きなんだが、奇形の魚が異常に多いよ。")
   ShowMessage("なんか複数の魚が混じったようなヤツもいるし、何なんだろうな……")
   EndEventProcessing()
   0()
  EndIf()
  0()



EVENT   47
 PAGE   1
  If(1,1001,0,29,2)
   ShowMessageFace("",0,0,2,1)
   ShowMessage("\\n<Man>The route to Ilias Continent has been restored! Did someone defeat the monster who was causing that storm?")
   ShowMessageFace("",0,0,2,2)
   ShowMessage("\\n<Man>We weren't hit all that hard, but Iliasport was devastated. I hope they rebound as soon as possible.")
   355("actor_label_jump")
   EndEventProcessing()
   DefineLabel("101")
   ShowMessageFace("cent2_fc1",0,0,2,3)
   ShowMessage("\\n<Lihitinu>It's really depressing, isn't it? Iliasport needs to get lively again soon.")
   EndEventProcessing()
   0()
  EndIf()
  0()
 PAGE   2
  // condition: variable 1001 >= 30
  ShowMessageFace("",0,0,2,1)
  ShowMessage("\\n<おじさん>サン・イリアの一件以来、人魚達は肩身が狭そうだ。")
  ShowMessage("彼女達はこの町の住民なんだから、悪いことなんてしてないのにな……")
  ShowMessageFace("",0,0,2,2)
  ShowMessage("\\n<おじさん>悪いのは、クィーンマーメイド達さ。")
  ShowMessage("平和に暮らしてる人魚にまで迷惑かけて、ろくでもない奴だ……")
  355("actor_label_jump")
  EndEventProcessing()
  DefineLabel("327")
  ShowMessageFace("ningyohime_fc1",7,0,2,3)
  ShowMessage("\\n<エル>ごめんね……")
  EndEventProcessing()
  DefineLabel("328")
  ShowMessageFace("queenmermaid_fc1",1,0,2,4)
  ShowMessage("\\n<ローラ>やってしまった事に弁解はしないわ。")
  ShowMessage("これからの働きで報いないと……")
  EndEventProcessing()
  0()



EVENT   48
 PAGE   1
  If(1,1001,0,29,2)
   ShowMessageFace("",0,0,2,1)
   ShowMessage("\\n<Old Man>This town's famous, even among other trade ports. Specialty products from around the whole world make their way here.")
   ShowMessageFace("",0,0,2,2)
   ShowMessage("\\n<Old Man>...But, ever since the war began, fewer ships have been coming in. Things as boring as war should just hurry up and end.")
   355("actor_label_jump")
   EndEventProcessing()
   DefineLabel("531")
   ShowMessageFace("saniria_fc2",0,0,2,3)
   ShowMessage("\\n<King of San Ilia>In the end, it is the people who suffer.")
   EndEventProcessing()
   DefineLabel("529")
   ShowMessageFace("sara_fc1",4,0,2,4)
   ShowMessage("\\n<Sara>We need to hurry up and end it somehow.")
   EndEventProcessing()
   DefineLabel("533")
   ShowMessageFace("grandnoa_fc1",2,0,2,5)
   ShowMessage("\\n<Queen of Grand Noah>Agreed, we need to hurry and forge a peace.")
   EndEventProcessing()
   0()
  EndIf()
  If(1,1001,0,30,1)
   ShowMessageFace("",0,0,2,6)
   ShowMessage("\\n<老人>この町は、貿易港でも有名じゃ。")
   ShowMessage("世界各国から特産品が集まってくるのじゃぞ。")
   ShowMessageFace("",0,0,2,7)
   ShowMessage("\\n<老人>しかし……それもいつまで続くものやら。")
   ShowMessage("この町自体、いつ魔王軍に攻撃されるかも分からん……")
   EndEventProcessing()
   0()
  EndIf()
  0()



EVENT   49
 PAGE   1
  If(1,1001,0,29,2)
   ShowMessageFace("",0,0,2,1)
   ShowMessage("\\n<Dapper Gentleman>This region hasn't been strongly affected by the great war. San Ilia sent an expeditionary force through the port, but the city itself remains cautiously neutral in the conflict.")
   ShowMessageFace("",0,0,2,2)
   ShowMessage("\\n<Dapper Gentleman>However, if you venture north, you will be rather close to the center of the war. Should you travel there, please do be careful.")
   355("actor_label_jump")
   EndEventProcessing()
   DefineLabel("95")
   ShowMessageFace("delh_a_fc1",1,0,2,3)
   ShowMessage("\\n<Lona>Fufu, my hands are itching for a fight.")
   EndEventProcessing()
   0()
  EndIf()
  If(1,1001,0,30,1)
   ShowMessageFace("",0,0,2,4)
   ShowMessage("\\n<身なりの良い男>まさか、サン・イリアが魔王軍の攻撃を受けるとは……")
   ShowMessage("この町も、そろそろ危ないかもしれませんね。")
   EndEventProcessing()
   0()
  EndIf()
  0()



EVENT   50
 PAGE   1
  If(1,1001,0,29,2)
   ShowMessageFace("",0,0,2,1)
   ShowMessage("\\n<Mermaid A>It's just something my lamia friend told me, but... apparently there's three or four monster lords now, or something.")
   ShowMessageFace("",0,0,2,2)
   ShowMessage("\\n<Mermaid B>No way, how scaaary! One is bad enough; having three or four is really troubling.")
   ShowMessageFace("",0,0,2,3)
   ShowMessage("\\n<Mermaid A>But that has nothing to do with us, right? We're mermaids living in a human town, after all.")
   ShowMessageFace("",0,0,2,4)
   ShowMessage("\\n<Mermaid B>You're right, it doesn't. We shouldn't worry about monster issues; it's human issues that are the real probleeem.")
   If(0,4,0)
    ShowMessageFace("alice_fc5",0,0,2,5)
    ShowMessage("\\n<Alice>They're so concerned with human society that they barely know anything about what's going on between monsters...")
    0()
   EndIf()
   EndEventProcessing()
   0()
  EndIf()
  If(1,1001,0,30,1)
   ShowMessageFace("",0,0,2,6)
   ShowMessage("\\n<マーメイドＡ>レインちゃん、離婚したんだって……")
   ShowMessage("旦那さんに、人魚を嫁にはしておけないって言われたとか。")
   ShowMessageFace("",0,0,2,7)
   ShowMessage("\\n<マーメイドＢ>なによそれ……")
   ShowMessage("最近、そんな話ばっかりじゃない。")
   ShowMessageFace("",0,0,2,8)
   ShowMessage("\\n<マーメイドＡ>なんで、クィーンマーメイドはサン・イリアにあんな事を……")
   ShowMessageFace("",0,0,2,9)
   ShowMessage("\\n<マーメイドＢ>本当、迷惑だよね。")
   355("actor_label_jump")
   EndEventProcessing()
   DefineLabel("327")
   ShowMessageFace("ningyohime_fc1",7,0,2,10)
   ShowMessage("\\n<エル>全部、あたし達のせいだよ……")
   EndEventProcessing()
   DefineLabel("328")
   ShowMessageFace("queenmermaid_fc1",1,0,2,11)
   ShowMessage("\\n<ローラ>一人一人に頭を下げて回るわけにもいかないわ。")
   ShowMessage("それより、この世界に平和を……")
   EndEventProcessing()
   0()
  EndIf()
  0()



EVENT   51
 PAGE   1
  ShowMessageFace("",0,0,2,1)
  ShowMessage("\\n<Mermaid>If you ever need to fight in the sea, your mermaid companions will be very dependable. Our abilities are at their peak in the ocean.")
  ShowMessageFace("",0,0,2,2)
  ShowMessage("\\n<Mermaid>Of course, the deep sea is no exception. Even a deep sea dungeon fills us with determination!")
  355("actor_label_jump")
  EndEventProcessing()
  DefineLabel("99")
  ShowMessageFace("namazu_fc1",0,0,2,3)
  ShowMessage("\\n<Gigi>To me, mermaids are all just bait fish. Leave fighting in the sea to me.")
  EndEventProcessing()
  DefineLabel("118")
  ShowMessageFace("meia_fc1",0,0,2,4)
  ShowMessage("\\n<Meia>That's how it is, so leave fighting in the sea to me, okay? Eh? We'll be on the land for a while? Is that so...")
  EndEventProcessing()
  0()



EVENT   52
 PAGE   1
  ShowMessageFace("",0,0,2,1)
  ShowMessage("\\n<Youth>Welcome to Port Natalia, where the beautiful union of man and mermaid reigns supreme! Where would you like to go?")
  281(1)
  355("unlimited_choices(11, [\"Inn\",")
  655("\"Weapon Shop - Blacksmith\",")
  655("\"Item - Accessory Shop\",\"Church\",")
  655("\"Nowhere\"])")
  If(1,11,0,0,0)
   TeleportPlayer(0,141,30,13,2,0)
   EndEventProcessing()
   0()
  EndIf()
  If(1,11,0,1,0)
   TeleportPlayer(0,141,21,9,2,0)
   EndEventProcessing()
   0()
  EndIf()
  If(1,11,0,2,0)
   TeleportPlayer(0,141,31,22,2,0)
   EndEventProcessing()
   0()
  EndIf()
  If(1,11,0,3,0)
   TeleportPlayer(0,141,23,55,2,0)
   EndEventProcessing()
   0()
  EndIf()
  If(1,11,0,4,0)
   EndEventProcessing()
   0()
  EndIf()
  0()



EVENT   53
 PAGE   1
  ShowMessageFace("",0,0,2,1)
  ShowMessage("\\n<Youth>Ever since strange mechanical devices started being excavated from Tartarus, there's been a big debate in San Ilia about whether they should be used.")
  ShowMessageFace("",0,0,2,2)
  ShowMessage("\\n<Youth>The Pope's policies force the higher ups from San Ilia to tolerate the usage of machines, but some people rejected the devices and built their own village to get away from all that.")
  ShowMessageFace("",0,0,2,3)
  ShowMessage("\\n<Youth>The reactionary village, Luddite Village, is just northwest of this town.")
  If(1,1028,0,7,2)
   ShowMessageFace("",0,0,2,4)
   ShowMessage("\\n<Youth>Honestly, I think they're too fanatical. I don't think I'd like to live in that village.")
   0()
  Else()
   ShowMessageFace("",0,0,2,5)
   ShowMessage("\\n<Youth>Well, what's left of it. To get razed by a monster attack... What a horrible world we live in.")
   0()
  EndIf()
  0()



EVENT   54
 PAGE   1
  ShowMessageFace("",0,0,2,1)
  ShowMessage("\\n<Nun>San Ilia's king is called the Pope. He's the ruler of the city's theocracy and the head of Ilias's church.")
  ShowMessageFace("",0,0,2,2)
  ShowMessage("\\n<Nun>During the assassination attempt a few years ago, he miraculously only received minor injuries. The Pope is truly blessed by the Goddess.")
  355("actor_label_jump")
  EndEventProcessing()
  DefineLabel("525")
  If(1,1001,0,26,1)
   EndEventProcessing()
   0()
  EndIf()
  ShowMessageFace("sonia_fc2",2,0,2,3)
  ShowMessage("\\n<Sonya>It's definitely true that the carriage the Pope was riding in got blown up by a bomb or something. From what I've heard, we still don't know who did it.")
  ShowMessageFace("sonia_fc4",0,0,2,4)
  ShowMessage("\\n<Sonya>But to think Uncle Lazarus was a suspect. People keep accusing him of stuff just because his life is a mess.")
  EndEventProcessing()
  DefineLabel("531")
  ShowMessageFace("saniria_fc2",0,0,2,5)
  ShowMessage("\\n<King of San Ilia>What saved my life was actually technology. But, I'm sure it was the Goddess' blessing that let us develop that technology.")
  EndEventProcessing()
  0()



EVENT   55
 PAGE   1
  If(1,1028,0,7,2)
   ShowMessageFace("",0,0,2,1)
   ShowMessage("\\n<Woman>Have you been to Luddite Village northwest of here? Those people are kinda creepy.")
   ShowMessageFace("",0,0,2,2)
   ShowMessage("\\n<Woman>Living frugally in accordance with the Goddess' teachings is fine and dandy, y'know, but they're constantly angry with us for living contrary to those teachings.")
   ShowMessageFace("",0,0,2,3)
   ShowMessage("\\n<Woman>They're... What's the word? Fanatical, that's it. Frankly, they're just no good.")
   If(0,4,0)
    ShowMessageFace("alice_fc5",5,0,2,4)
    ShowMessage("\\n<Alice>What a boring village. Luka, let's stay clear of it")
    0()
   EndIf()
   If(0,5,0)
    ShowMessageFace("iriasu_fc4",1,0,2,5)
    ShowMessage("\\n<Ilias>Living in accordance with the Goddess' teachings? That's wonderful!")
    ShowMessageFace("iriasu_fc4",2,0,2,6)
    ShowMessage("\\n<Ilias>However, there are some supposed adherents who in actuality only believe that their own ego is the will of the Goddess.")
    0()
   EndIf()
   0()
  Else()
   ShowMessageFace("",0,0,2,7)
   ShowMessage("\\n<Woman>Apparently Luddite Village was destroyed. They were a creepy bunch, but it's a real shame that they ended like that.")
   355("actor_label_jump")
   EndEventProcessing()
   DefineLabel("382")
   ShowMessageFace("morrigan_fc1",1,0,2,8)
   ShowMessage("\\n<Morrigan>任務だから、仕方ないだろ。")
   EndEventProcessing()
   DefineLabel("529")
   ShowMessageFace("sara_fc1",4,0,2,9)
   ShowMessage("\\n<Sara>......")
   EndEventProcessing()
   0()
  EndIf()
  0()



EVENT   56
 PAGE   1
  ShowMessageFace("",0,0,2,1)
  ShowMessage("\\n<Old Man>Have you ever visited Luddite Village northwest of here? They live a truly wonderful life out there.")
  ShowMessageFace("",0,0,2,2)
  ShowMessage("\\n<Old Man>Honorable poverty and simplicity; a self-sufficient and pure existence. I look up to that kind of thing at my age.")
  If(0,4,0)
   ShowMessageFace("alice_fc5",3,0,2,3)
   ShowMessage("\\n<Alice>Hmph, how idiotic. I'd rather be dead than live like that.")
   0()
  EndIf()
  If(0,5,0)
   ShowMessageFace("iriasu_fc4",0,0,2,4)
   ShowMessage("\\n<Ilias>How wonderful. We simply must go see this village.")
   0()
  EndIf()
  0()
 PAGE   2
  // condition: variable 1028 >= 8
  ShowMessageFace("",0,0,2,1)
  ShowMessage("\\n<Old Man>Have you ever visited Luddite Village northwest of here? They were living a truly wonderful life out there, but...")
  ShowMessageFace("",0,0,2,2)
  ShowMessage("\\n<Old Man>It was assaulted by monsters and destroyed. Honestly, it's a good thing that I didn't move there.")
  355("actor_label_jump")
  EndEventProcessing()
  DefineLabel("529")
  ShowMessageFace("sara_fc1",0,0,2,3)
  ShowMessage("\\n<Sara>We need to ensure that such a tragedy won't happen again.")
  EndEventProcessing()
  DefineLabel("531")
  ShowMessageFace("saniria_fc2",0,0,2,4)
  ShowMessage("\\n<King of San Ilia>It is my belief that those people were misconstruing the Goddess' teachings. However, for their lives to end before they could learn of the righteous path is...")
  EndEventProcessing()
  DefineLabel("382")
  ShowMessageFace("morrigan_fc1",1,0,2,5)
  ShowMessage("\\n<Morrigan>どこにいても、遅かれ早かれ結果は同じさ……")
  ShowMessage("楽しんだ事は否定しないが、あれは必要な措置だったんだよ。")
  EndEventProcessing()
  0()



EVENT   57
 PAGE   1
  // condition: variable 1016 >= 2
  ShowMessageFace("",0,0,2,1)
  ShowMessage("\\n<Boy>What should we play?")
  0()



EVENT   58
 PAGE   1
  // condition: variable 1016 >= 2
  ShowMessageFace("",0,0,2,1)
  ShowMessage("\\n<Boy>It feels like my childish naiveté has returned!")
  0()



EVENT   59
 PAGE   1
  // condition: variable 1016 >= 2
  ShowMessageFace("",0,0,2,1)
  ShowMessage("\\n<Boy>I love the sea!")
  0()



EVENT   60
 PAGE   1
  // condition: variable 1016 >= 2
  ShowMessageFace("",0,0,2,1)
  ShowMessage("\\n<Boy>I love you, big sis Meia!")
  355("actor_label_jump")
  EndEventProcessing()
  DefineLabel("118")
  ShowMessageFace("meia_fc1",2,0,2,2)
  ShowMessage("\\n<Meia>Oh my, ufufu...")
  EndEventProcessing()
  0()



EVENT   61
 PAGE   1
  // condition: variable 1016 >= 2
  ShowMessageFace("",0,0,2,1)
  ShowMessage("\\n<Boy>The weather's great today!")
  0()



EVENT   62
 PAGE   1
  // condition: variable 1016 >= 2
  ShowMessageFace("",0,0,2,1)
  ShowMessage("\\n<Boy>I wish today would last forever!")
  0()



EVENT   63
 PAGE   1
  // condition: variable 1016 >= 2
  ShowMessageFace("",0,0,2,1)
  ShowMessage("\\n<Boy>I don't want to work!")
  0()



EVENT   64
 PAGE   1
  // condition: variable 1016 >= 2
  ShowMessageFace("",0,0,2,1)
  ShowMessage("\\n<Boy>Kids have it nice; we're so carefree!")
  0()



EVENT   65
 PAGE   1
  // condition: variable 1016 >= 2
  ShowMessageFace("",0,0,2,1)
  ShowMessage("\\n<Boy>I'll just stay here for now!")
  0()



EVENT   66
 PAGE   1
  // condition: variable 1016 >= 2
  ShowMessageFace("",0,0,2,1)
  ShowMessage("\\n<Boy>Fishing!")
  0()



EVENT   67
 PAGE   1
  // condition: variable 1016 >= 2
  ShowMessageFace("",0,0,2,1)
  ShowMessage("\\n<Boy>Yaay!")
  0()



EVENT   68
 PAGE   1
  ShowMessageFace("",0,0,2,1)
  ShowMessage("\\n<Youth>I equipped an accessory that increases HP...\nAnd took a job that raises your HP...\nAnd yet...")
  0()



EVENT   69
 PAGE   1
  ShowMessageFace("",0,0,2,1)
  ShowMessage("\\n<Adventurer>When you defeat mimics, you can get Small Medals! It was well worth it to fight one so many times I nearly died!")
  355("actor_label_jump")
  EndEventProcessing()
  DefineLabel("105")
  ShowMessageFace("mimic_fc1",1,0,2,2)
  ShowMessage("\\n<Minelli>My compatriots! How dare you...")
  ShowMessageFace("",0,0,2,3)
  ShowMessage("\\n<Adventurer>S-stop! Uwaaaahh!")
  If(2,"A",1)
   ChangeSelfSwitch("A",0)
   250(bytes(0x04,0x08,0x6f,0x3a,0x0c,0x52,0x50,0x47,0x3a,0x3a,0x53,0x45,0x08,0x3a,0x0a,0x40,0x6e,0x61,0x6d,0x65,0x49,0x22,0x0a,0x49,0x74,0x65,0x6d,0x31,0x06,0x3a,0x06,0x45,0x54,0x3a,0x0b,0x40,0x70,0x69,0x74,0x63,0x68,0x69,0x69,0x3a,0x0c,0x40,0x76,0x6f,0x6c,0x75,0x6d,0x65,0x69,0x55))
   ChangeInventory_Item(32,0,0,1)
   0()
  EndIf()
  EndEventProcessing()
  DefineLabel("533")
  ShowMessageFace("grandnoa_fc1",0,0,2,4)
  ShowMessage("\\n<Queen of Grand Noah>Now then, let's go... To beat up mimics, of course!")
  EndEventProcessing()
  0()



EVENT   70
 PAGE   1
  ShowMessageFace("",0,0,2,1)
  ShowMessage("\\n<Guard>Mimics are weak to wind, earth, and water element attacks. If you have skills with the right elemental attributes, you should use them.")
  355("actor_label_jump")
  EndEventProcessing()
  DefineLabel("105")
  ShowMessageFace("mimic_fc1",1,0,2,2)
  ShowMessage("\\n<Minelli>Stop exposing my weaknesses!\n*nom nom* *nom*")
  ShowMessageFace("",0,0,2,3)
  ShowMessage("\\n<Guard>Uwahh!")
  EndEventProcessing()
  0()



EVENT   71
 PAGE   1
  ShowMessageFace("",0,0,2,1)
  ShowMessage("\\n<Dog>Woof! Woof!")
  355("actor_label_jump")
  EndEventProcessing()
  DefineLabel("60")
  ShowMessageFace("dog_fc1",4,0,2,2)
  ShowMessage("\\n<Pochi>Woof! Woof!")
  EndEventProcessing()
  0()



EVENT   72
 PAGE   1
  ShowMessageFace("dog_fc1",4,0,2,1)
  ShowMessage("\\n<Dog Girl>Woof! Woof!")
  If(4,60,0)
   ShowMessageFace("dog_fc1",2,0,2,2)
   ShowMessage("\\n<Pochi>You can buy people with gold. You can buy dogs with food. However, domesticating a Dog Girl is impossible.")
   ShowMessageFace("dog_fc1",4,0,2,3)
   ShowMessage("\\n<Pochi>...Okay, I lied.")
   If(2,"A",1)
    ChangeSelfSwitch("A",0)
    ChangeVariable(1036,1036,1,0,1)
    If(1,1036,0,9,1)
     RunCommonEvent(311)
     0()
    Else()
     0()
    EndIf()
    0()
   EndIf()
   0()
  EndIf()
  0()



EVENT   73
 PAGE   1
  ShowMessageFace("",0,0,2,1)
  ShowMessage("\\n<Harpy>I can't swim, so I'm envious of mermaids. And the sea is so wide...")
  0()



EVENT   74
 PAGE   1
  ShowMessageFace("",0,0,2,1)
  ShowMessage("\\n<Mermaid>I can't fly, so I'm envious of harpies. And the sky is so spacious...")
  0()



EVENT   75
 PAGE   1
  // condition: switch 1054 is ON
  If(0,6,0)
   ShowMessageFace("sonia_fc1",0,0,2,1)
   ShowMessage("\\n<Sonya>...Eh? Isn't that carrot-eating slime over there one of our girls?")
   0()
  Else()
   ShowMessageFace("ruka_fc1",0,0,2,2)
   ShowMessage("\\n<Luka>...Eh? Isn't that our slime eating carrots over there?")
   0()
  EndIf()
  ShowMessageFace("",0,0,2,3)
  ShowMessage("Ugly-looking vegetables that can't be sold have been placed aside in this crate. Bunni seems to be searching for carrots in it.")
  PictureDisplay(5,"80_bunnyslime_st02",0,0,0,0,100,100,0,0)
  PictureMove(5,null,0,0,0,0,100,100,255,0,30,true)
  ShowMessageFace("bunnyslime_fc1",1,0,2,4)
  ShowMessage("\\n<Bunni>Hop hop, carrots. *nom* *nom* Carrots are delicious...")
  If(0,1041,0)
   RunCommonEvent(307)
   205(0,bytes(0x04,0x08,0x6f,0x3a,0x13,0x52,0x50,0x47,0x3a,0x3a,0x4d,0x6f,0x76,0x65,0x52,0x6f,0x75,0x74,0x65,0x09,0x3a,0x0c,0x40,0x72,0x65,0x70,0x65,0x61,0x74,0x46,0x3a,0x0f,0x40,0x73,0x6b,0x69,0x70,0x70,0x61,0x62,0x6c,0x65,0x46,0x3a,0x0a,0x40,0x77,0x61,0x69,0x74,0x54,0x3a,0x0a,0x40,0x6c,0x69,0x73,0x74,0x5b,0x09,0x6f,0x3a,0x15,0x52,0x50,0x47,0x3a,0x3a,0x4d,0x6f,0x76,0x65,0x43,0x6f,0x6d,0x6d,0x61,0x6e,0x64,0x07,0x3a,0x0a,0x40,0x63,0x6f,0x64,0x65,0x69,0x29,0x3a,0x10,0x40,0x70,0x61,0x72,0x61,0x6d,0x65,0x74,0x65,0x72,0x73,0x5b,0x00,0x6f,0x3b,0x0a,0x07,0x3b,0x0b,0x69,0x2a,0x3b,0x0c,0x5b,0x00,0x6f,0x3b,0x0a,0x07,0x3b,0x0b,0x69,0x0f,0x3b,0x0c,0x5b,0x00,0x6f,0x3b,0x0a,0x07,0x3b,0x0b,0x69,0x00,0x3b,0x0c,0x5b,0x00))
   ChangeSwitch(2106,2106,0)
   EndEventProcessing()
   0()
  Else()
   ShowMessageFace("",0,0,2,5)
   ShowMessage("It looks like she's obsessed with eating carrots. Let's leave her be.")
   PictureClear(5)
   EndEventProcessing()
   0()
  EndIf()
  0()
 PAGE   2
  // condition: party contains actor #54
  0()
 PAGE   3
  // condition: switch 2106 is ON
  0()



EVENT   76
 PAGE   1
  // condition: party contains actor #54
  ShowMessageFace("bunnyslime_fc1",0,0,2,1)
  ShowMessage("\\n<Bunni>Yaay, carrots! Hey, I want to eat carroooots!")
  If(0,6,0)
   ShowMessageFace("sonia_fc1",0,0,2,2)
   ShowMessage("\\n<Sonya>The sign on the crate says, \"Feel free to take them\". I guess it's okay to eat them.")
   0()
  Else()
   ShowMessageFace("ruka_fc1",0,0,2,3)
   ShowMessage("\\n<Luka>The crate's sign reads, \"Feel free to take them\". You can go ahead and eat as many as you want.")
   0()
  EndIf()
  PictureDisplay(5,"80_bunnyslime_st02",0,0,0,0,100,100,0,0)
  PictureMove(5,null,0,0,0,0,100,100,255,0,30,true)
  ShowMessageFace("bunnyslime_fc1",1,0,2,4)
  ShowMessage("\\n<Bunni>Hop hop, carrots. *nom* *nom* Carrots are delicious...")
  If(0,1041,0)
   RunCommonEvent(307)
   ChangeSwitch(2106,2106,0)
   EndEventProcessing()
   0()
  Else()
   ShowMessageFace("",0,0,2,5)
   ShowMessage("She appears satisfied after stuffing herself with carrots. Well then, let's continue our journey.")
   PictureClear(5)
   EndEventProcessing()
   0()
  EndIf()
  0()
 PAGE   2
  // condition: switch 2106 is ON
  0()



EVENT   77
 PAGE   1
  ShowMessageFace("",0,0,2,1)
  ShowMessage("\\n<Female Farmer>Feel free to eat these vegetables. They're all either too misshapen or bruised to sell.")
  0()



EVENT   78
 PAGE   1
  // condition: switch 1102 is ON
  // condition: switch 1103 is ON
  241(bytes(0x04,0x08,0x6f,0x3a,0x0d,0x52,0x50,0x47,0x3a,0x3a,0x42,0x47,0x4d,0x08,0x3a,0x0a,0x40,0x6e,0x61,0x6d,0x65,0x49,0x22,0x13,0x73,0x63,0x65,0x6e,0x65,0x5f,0x6f,0x64,0x61,0x79,0x61,0x6b,0x61,0x31,0x06,0x3a,0x06,0x45,0x54,0x3a,0x0c,0x40,0x76,0x6f,0x6c,0x75,0x6d,0x65,0x69,0x69,0x3a,0x0b,0x40,0x70,0x69,0x74,0x63,0x68,0x69,0x69))
  ShowMessageFace("kamuro_fc1",0,0,2,1)
  ShowMessage("\\n<Kamuro>Kitsu-nee, why is the sea so large?")
  ShowMessageFace("youko_fc1",0,0,2,2)
  ShowMessage("\\n<Kitsu>Well, you see...\nA long time ago, it rained an incredible amount.")
  ShowMessageFace("kamuro_fc1",0,0,2,3)
  ShowMessage("\\n<Kamuro>You're so smart, Kitsu-nee! You know everything!")
  241(bytes(0x04,0x08,0x6f,0x3a,0x0d,0x52,0x50,0x47,0x3a,0x3a,0x42,0x47,0x4d,0x08,0x3a,0x0a,0x40,0x6e,0x61,0x6d,0x65,0x49,0x22,0x0a,0x63,0x69,0x74,0x79,0x31,0x06,0x3a,0x06,0x45,0x54,0x3a,0x0c,0x40,0x76,0x6f,0x6c,0x75,0x6d,0x65,0x69,0x69,0x3a,0x0b,0x40,0x70,0x69,0x74,0x63,0x68,0x69,0x69))
  0()
 PAGE   2
  // condition: party contains actor #102
  0()
 PAGE   3
  // condition: party contains actor #103
  0()



EVENT   79
 PAGE   1
  // condition: switch 1102 is ON
  // condition: switch 1103 is ON
  241(bytes(0x04,0x08,0x6f,0x3a,0x0d,0x52,0x50,0x47,0x3a,0x3a,0x42,0x47,0x4d,0x08,0x3a,0x0a,0x40,0x6e,0x61,0x6d,0x65,0x49,0x22,0x13,0x73,0x63,0x65,0x6e,0x65,0x5f,0x6f,0x64,0x61,0x79,0x61,0x6b,0x61,0x31,0x06,0x3a,0x06,0x45,0x54,0x3a,0x0c,0x40,0x76,0x6f,0x6c,0x75,0x6d,0x65,0x69,0x69,0x3a,0x0b,0x40,0x70,0x69,0x74,0x63,0x68,0x69,0x69))
  ShowMessageFace("kamuro_fc1",0,0,2,1)
  ShowMessage("\\n<Kamuro>Kitsu-nee, why is the sea so large?")
  ShowMessageFace("youko_fc1",0,0,2,2)
  ShowMessage("\\n<Kitsu>Well, you see...\nA long time ago, it rained an incredible amount.")
  ShowMessageFace("kamuro_fc1",0,0,2,3)
  ShowMessage("\\n<Kamuro>You're so smart, Kitsu-nee! You know everything!")
  241(bytes(0x04,0x08,0x6f,0x3a,0x0d,0x52,0x50,0x47,0x3a,0x3a,0x42,0x47,0x4d,0x08,0x3a,0x0a,0x40,0x6e,0x61,0x6d,0x65,0x49,0x22,0x0a,0x63,0x69,0x74,0x79,0x31,0x06,0x3a,0x06,0x45,0x54,0x3a,0x0c,0x40,0x76,0x6f,0x6c,0x75,0x6d,0x65,0x69,0x69,0x3a,0x0b,0x40,0x70,0x69,0x74,0x63,0x68,0x69,0x69))
  0()
 PAGE   2
  // condition: party contains actor #102
  0()
 PAGE   3
  // condition: party contains actor #103
  0()



EVENT   80
 PAGE   1
  ShowMessageFace("",0,0,2,1)
  ShowMessage("\\n<Poet>Haaaa...")
  0()



EVENT   81
 PAGE   1
  250(bytes(0x04,0x08,0x6f,0x3a,0x0c,0x52,0x50,0x47,0x3a,0x3a,0x53,0x45,0x08,0x3a,0x0a,0x40,0x6e,0x61,0x6d,0x65,0x49,0x22,0x09,0x4d,0x6f,0x76,0x65,0x06,0x3a,0x06,0x45,0x54,0x3a,0x0b,0x40,0x70,0x69,0x74,0x63,0x68,0x69,0x69,0x3a,0x0c,0x40,0x76,0x6f,0x6c,0x75,0x6d,0x65,0x69,0x55))
  TeleportPlayer(0,2,282,261,2,0)
  0()



EVENT   82
 PAGE   1
  // condition: switch 1080 is ON
  ShowMessageFace("orc_fc1",1,0,2,1)
  ShowMessage("\\n<Hip>Oiiiiiink... Full of mermaids; my Goddess, it's full of mermaids...")
  ShowMessageFace("",0,0,2,2)
  ShowMessage("Hip seems a bit off. She probably tried raiding the mermaids and got hit with a Song of Seduction.")
  0()
 PAGE   2
  // condition: party contains actor #80
  0()




EVENT   83
 PAGE   1
  // condition: switch 1540 is ON
  241(bytes(0x04,0x08,0x6f,0x3a,0x0d,0x52,0x50,0x47,0x3a,0x3a,0x42,0x47,0x4d,0x08,0x3a,0x0a,0x40,0x6e,0x61,0x6d,0x65,0x49,0x22,0x0a,0x61,0x6d,0x69,0x72,0x61,0x06,0x3a,0x06,0x45,0x54,0x3a,0x0c,0x40,0x76,0x6f,0x6c,0x75,0x6d,0x65,0x69,0x69,0x3a,0x0b,0x40,0x70,0x69,0x74,0x63,0x68,0x69,0x69))
  If(2,"A",1)
   ChangeSelfSwitch("A",0)
   RunCommonEvent(322)
   0()
  Else()
   ShowMessageFace("amira_fc1",0,0,2,1)
   ShowMessage("\\n<Amira>You've found me here. Keep searching for me...")
   0()
  EndIf()
  241(bytes(0x04,0x08,0x6f,0x3a,0x0d,0x52,0x50,0x47,0x3a,0x3a,0x42,0x47,0x4d,0x08,0x3a,0x0a,0x40,0x6e,0x61,0x6d,0x65,0x49,0x22,0x0a,0x63,0x69,0x74,0x79,0x31,0x06,0x3a,0x06,0x45,0x54,0x3a,0x0c,0x40,0x76,0x6f,0x6c,0x75,0x6d,0x65,0x69,0x69,0x3a,0x0b,0x40,0x70,0x69,0x74,0x63,0x68,0x69,0x69))
  EndEventProcessing()
  0()
 PAGE   2
  // condition: party contains actor #540
  0()



EVENT   84
 PAGE   1
  // condition: switch 2183 is ON
  If(0,2229,1)
   ChangeSwitch(2229,2229,0)
   ShowMessageFace("",0,0,2,1)
   ShowMessage("\\n<マーメイド>あはっ、もうイっちゃった……")
   ShowMessage("ダーリン、はや～い♪")
   ShowMessageFace("",0,0,2,2)
   ShowMessage("\\n<若衆Ｂ>こんな所で……ダメだよぉ……")
   250(bytes(0x04,0x08,0x6f,0x3a,0x0c,0x52,0x50,0x47,0x3a,0x3a,0x53,0x45,0x08,0x3a,0x0a,0x40,0x6e,0x61,0x6d,0x65,0x49,0x22,0x11,0x6d,0x6f,0x6e,0x5f,0x66,0x61,0x6e,0x66,0x61,0x6c,0x65,0x32,0x06,0x3a,0x06,0x45,0x54,0x3a,0x0b,0x40,0x70,0x69,0x74,0x63,0x68,0x69,0x69,0x3a,0x0c,0x40,0x76,0x6f,0x6c,0x75,0x6d,0x65,0x69,0x69))
   ShowMessageFace("",0,0,2,3)
   ShowMessage("若衆を発見した！")
   ShowMessageFace("ruka_fc1",0,0,2,4)
   ShowMessage("\\n<Luka>よし、若衆Ｂを見つけたぞ！")
   ShowMessageFace("",0,0,2,5)
   ShowMessage("\\n<若衆Ｂ>もしかして、村長に言われて探しにきたのかい？")
   ShowMessage("悪いけど、彼女を置いて村には戻れない……")
   ShowMessageFace("ruka_fc1",0,0,2,6)
   ShowMessage("\\n<Luka>見つけろとは言われたけど、連れ帰れとは言われてないよ。")
   ShowMessageFace("",0,0,2,7)
   ShowMessage("\\n<マーメイド>じゃあダーリン、もう一回……♪")
   ShowMessageFace("",0,0,2,8)
   ShowMessage("\\n<若衆Ｂ>こんな所で……ダメだよぉ……")
   EndEventProcessing()
   0()
  Else()
   ShowMessageFace("",0,0,2,9)
   ShowMessage("\\n<マーメイド>まだ出るでしょ、ダーリン……♪")
   ShowMessageFace("",0,0,2,10)
   ShowMessage("\\n<若衆Ｂ>こんな所で……ダメだよぉ……")
   EndEventProcessing()
   0()
  EndIf()
  0()



EVENT   85
 PAGE   1
  // condition: switch 2183 is ON
  If(0,2229,1)
   ChangeSwitch(2229,2229,0)
   ShowMessageFace("",0,0,2,1)
   ShowMessage("\\n<マーメイド>あはっ、もうイっちゃった……")
   ShowMessage("ダーリン、はや～い♪")
   ShowMessageFace("",0,0,2,2)
   ShowMessage("\\n<若衆Ｂ>こんな所で……ダメだよぉ……")
   250(bytes(0x04,0x08,0x6f,0x3a,0x0c,0x52,0x50,0x47,0x3a,0x3a,0x53,0x45,0x08,0x3a,0x0a,0x40,0x6e,0x61,0x6d,0x65,0x49,0x22,0x11,0x6d,0x6f,0x6e,0x5f,0x66,0x61,0x6e,0x66,0x61,0x6c,0x65,0x32,0x06,0x3a,0x06,0x45,0x54,0x3a,0x0b,0x40,0x70,0x69,0x74,0x63,0x68,0x69,0x69,0x3a,0x0c,0x40,0x76,0x6f,0x6c,0x75,0x6d,0x65,0x69,0x69))
   ShowMessageFace("",0,0,2,3)
   ShowMessage("若衆を発見した！")
   ShowMessageFace("ruka_fc1",0,0,2,4)
   ShowMessage("\\n<Luka>よし、若衆Ｂを見つけたぞ！")
   ShowMessageFace("",0,0,2,5)
   ShowMessage("\\n<若衆Ｂ>もしかして、村長に言われて探しにきたのかい？")
   ShowMessage("悪いけど、彼女を置いて村には戻れない……")
   ShowMessageFace("ruka_fc1",0,0,2,6)
   ShowMessage("\\n<Luka>見つけろとは言われたけど、連れ帰れとは言われてないよ。")
   ShowMessageFace("",0,0,2,7)
   ShowMessage("\\n<マーメイド>じゃあダーリン、もう一回……♪")
   ShowMessageFace("",0,0,2,8)
   ShowMessage("\\n<若衆Ｂ>こんな所で……ダメだよぉ……")
   EndEventProcessing()
   0()
  Else()
   ShowMessageFace("",0,0,2,9)
   ShowMessage("\\n<マーメイド>まだ出るでしょ、ダーリン……♪")
   ShowMessageFace("",0,0,2,10)
   ShowMessage("\\n<若衆Ｂ>こんな所で……ダメだよぉ……")
   EndEventProcessing()
   0()
  EndIf()
  0()
